%!PS-Adobe-2.0 EPSF-1.2
%%Creator: MATLAB, The MathWorks, Inc. Version 8.3.0.532 (R2014a). Operating System: Linux 4.2.0-30-generic #36~14.04.1-Ubuntu SMP Fri Feb 26 18:49:23 UTC 2016 x86_64.
%%Title: /home/nicolai/Documents/AM24/docs/img/perception_scope.eps
%%CreationDate: 08/19/2016  00:31:41
%%DocumentNeededFonts: Helvetica
%%DocumentProcessColors: Cyan Magenta Yellow Black
%%Extensions: CMYK
%%Pages: 1
%%BoundingBox:    49   198   548   609
%%EndComments

%%BeginProlog
% MathWorks dictionary
/MathWorks 160 dict begin
% definition operators
/bdef {bind def} bind def
/ldef {load def} bind def
/xdef {exch def} bdef
/xstore {exch store} bdef
% operator abbreviations
/c  /clip ldef
/cc /concat ldef
/cp /closepath ldef
/gr /grestore ldef
/gs /gsave ldef
/mt /moveto ldef
/np /newpath ldef
/cm /currentmatrix ldef
/sm /setmatrix ldef
/rm /rmoveto ldef
/rl /rlineto ldef
/s {show newpath} bdef
/sc {setcmykcolor} bdef
/sr /setrgbcolor ldef
/sg /setgray ldef
/w /setlinewidth ldef
/j /setlinejoin ldef
/cap /setlinecap ldef
/rc {rectclip} bdef
/rf {rectfill} bdef
% page state control
/pgsv () def
/bpage {/pgsv save def} bdef
/epage {pgsv restore} bdef
/bplot /gsave ldef
/eplot {stroke grestore} bdef
% orientation switch
/portraitMode 0 def /landscapeMode 1 def /rotateMode 2 def
% coordinate system mappings
/dpi2point 0 def
% font control
/FontSize 0 def
/FMS {/FontSize xstore findfont [FontSize 0 0 FontSize neg 0 0]
  makefont setfont} bdef
/reencode {exch dup where {pop load} {pop StandardEncoding} ifelse
  exch dup 3 1 roll findfont dup length dict begin
  { 1 index /FID ne {def}{pop pop} ifelse } forall
  /Encoding exch def currentdict end definefont pop} bdef
/isroman {findfont /CharStrings get /Agrave known} bdef
/FMSR {3 1 roll 1 index dup isroman {reencode} {pop pop} ifelse
  exch FMS} bdef
/csm {1 dpi2point div -1 dpi2point div scale neg translate
 dup landscapeMode eq {pop -90 rotate}
  {rotateMode eq {90 rotate} if} ifelse} bdef
% line types: solid, dotted, dashed, dotdash
/SO { [] 0 setdash } bdef
/DO { [.5 dpi2point mul 4 dpi2point mul] 0 setdash } bdef
/DA { [6 dpi2point mul] 0 setdash } bdef
/DD { [.5 dpi2point mul 4 dpi2point mul 6 dpi2point mul 4
  dpi2point mul] 0 setdash } bdef
% macros for lines and objects
/L {lineto stroke} bdef
/MP {3 1 roll moveto 1 sub {rlineto} repeat} bdef
/AP {{rlineto} repeat} bdef
/PDlw -1 def
/W {/PDlw currentlinewidth def setlinewidth} def
/PP {closepath eofill} bdef
/DP {closepath stroke} bdef
/MR {4 -2 roll moveto dup  0 exch rlineto exch 0 rlineto
  neg 0 exch rlineto closepath} bdef
/FR {MR stroke} bdef
/PR {MR fill} bdef
/L1i {{currentfile picstr readhexstring pop} image} bdef
/tMatrix matrix def
/MakeOval {newpath tMatrix currentmatrix pop translate scale
0 0 1 0 360 arc tMatrix setmatrix} bdef
/FO {MakeOval stroke} bdef
/PO {MakeOval fill} bdef
/PD {currentlinewidth 2 div 0 360 arc fill
   PDlw -1 eq not {PDlw w /PDlw -1 def} if} def
/FA {newpath tMatrix currentmatrix pop translate scale
  0 0 1 5 -2 roll arc tMatrix setmatrix stroke} bdef
/PA {newpath tMatrix currentmatrix pop	translate 0 0 moveto scale
  0 0 1 5 -2 roll arc closepath tMatrix setmatrix fill} bdef
/FAn {newpath tMatrix currentmatrix pop translate scale
  0 0 1 5 -2 roll arcn tMatrix setmatrix stroke} bdef
/PAn {newpath tMatrix currentmatrix pop translate 0 0 moveto scale
  0 0 1 5 -2 roll arcn closepath tMatrix setmatrix fill} bdef
/vradius 0 def /hradius 0 def /lry 0 def
/lrx 0 def /uly 0 def /ulx 0 def /rad 0 def
/MRR {/vradius xdef /hradius xdef /lry xdef /lrx xdef /uly xdef
  /ulx xdef newpath tMatrix currentmatrix pop ulx hradius add uly
  vradius add translate hradius vradius scale 0 0 1 180 270 arc 
  tMatrix setmatrix lrx hradius sub uly vradius add translate
  hradius vradius scale 0 0 1 270 360 arc tMatrix setmatrix
  lrx hradius sub lry vradius sub translate hradius vradius scale
  0 0 1 0 90 arc tMatrix setmatrix ulx hradius add lry vradius sub
  translate hradius vradius scale 0 0 1 90 180 arc tMatrix setmatrix
  closepath} bdef
/FRR {MRR stroke } bdef
/PRR {MRR fill } bdef
/MlrRR {/lry xdef /lrx xdef /uly xdef /ulx xdef /rad lry uly sub 2 div def
  newpath tMatrix currentmatrix pop ulx rad add uly rad add translate
  rad rad scale 0 0 1 90 270 arc tMatrix setmatrix lrx rad sub lry rad
  sub translate rad rad scale 0 0 1 270 90 arc tMatrix setmatrix
  closepath} bdef
/FlrRR {MlrRR stroke } bdef
/PlrRR {MlrRR fill } bdef
/MtbRR {/lry xdef /lrx xdef /uly xdef /ulx xdef /rad lrx ulx sub 2 div def
  newpath tMatrix currentmatrix pop ulx rad add uly rad add translate
  rad rad scale 0 0 1 180 360 arc tMatrix setmatrix lrx rad sub lry rad
  sub translate rad rad scale 0 0 1 0 180 arc tMatrix setmatrix
  closepath} bdef
/FtbRR {MtbRR stroke } bdef
/PtbRR {MtbRR fill } bdef
/stri 6 array def /dtri 6 array def
/smat 6 array def /dmat 6 array def
/tmat1 6 array def /tmat2 6 array def /dif 3 array def
/asub {/ind2 exch def /ind1 exch def dup dup
  ind1 get exch ind2 get sub exch } bdef
/tri_to_matrix {
  2 0 asub 3 1 asub 4 0 asub 5 1 asub
  dup 0 get exch 1 get 7 -1 roll astore } bdef
/compute_transform {
  dmat dtri tri_to_matrix tmat1 invertmatrix 
  smat stri tri_to_matrix tmat2 concatmatrix } bdef
/ds {stri astore pop} bdef
/dt {dtri astore pop} bdef
/db {2 copy /cols xdef /rows xdef mul dup 3 mul string
  currentfile exch readhexstring pop
  dup 0 3 index getinterval /rbmap xdef
  dup 2 index dup getinterval /gbmap xdef
  1 index dup 2 mul exch getinterval /bbmap xdef pop pop}bdef
/it {gs np dtri aload pop moveto lineto lineto cp c
  cols rows 8 compute_transform 
  rbmap gbmap bbmap true 3 colorimage gr}bdef
/il {newpath moveto lineto stroke}bdef
currentdict end def
%%EndProlog

%%BeginSetup
MathWorks begin

0 cap

end
%%EndSetup

%%Page: 1 1
%%BeginPageSetup
%%PageBoundingBox:    49   198   548   609
MathWorks begin
bpage
%%EndPageSetup

%%BeginObject: obj1
bplot

/dpi2point 12 def
portraitMode 0216 7344 csm

  380    27  5991  4936 MR c np
85 dict begin %Colortable dictionary
/c0 { 0.000000 0.000000 0.000000 sr} bdef
/c1 { 1.000000 1.000000 1.000000 sr} bdef
/c2 { 0.900000 0.000000 0.000000 sr} bdef
/c3 { 0.000000 0.820000 0.000000 sr} bdef
/c4 { 0.000000 0.000000 0.800000 sr} bdef
/c5 { 0.910000 0.820000 0.320000 sr} bdef
/c6 { 1.000000 0.260000 0.820000 sr} bdef
/c7 { 0.000000 0.820000 0.820000 sr} bdef
c0
1 j
1 sg
   0    0 6913 5186 PR
6 w
0 4226 5356 0 0 -4226 899 4615 4 MP
PP
-5356 0 0 4226 5356 0 0 -4226 899 4615 5 MP stroke
4 w
DO
SO
6 w
0 sg
 899 4615 mt 6255 4615 L
 899  389 mt 6255  389 L
 899 4615 mt  899  389 L
6255 4615 mt 6255  389 L
 899 4615 mt 6255 4615 L
 899 4615 mt  899  389 L
 899 4615 mt  899 4561 L
 899  389 mt  899  442 L
%%IncludeResource: font Helvetica
/Helvetica /ISOLatin1Encoding 120 FMSR

 866 4760 mt 
(0) s
1434 4615 mt 1434 4561 L
1434  389 mt 1434  442 L
1401 4760 mt 
(1) s
1970 4615 mt 1970 4561 L
1970  389 mt 1970  442 L
1937 4760 mt 
(2) s
2505 4615 mt 2505 4561 L
2505  389 mt 2505  442 L
2472 4760 mt 
(3) s
3041 4615 mt 3041 4561 L
3041  389 mt 3041  442 L
3008 4760 mt 
(4) s
3577 4615 mt 3577 4561 L
3577  389 mt 3577  442 L
3544 4760 mt 
(5) s
4112 4615 mt 4112 4561 L
4112  389 mt 4112  442 L
4079 4760 mt 
(6) s
4648 4615 mt 4648 4561 L
4648  389 mt 4648  442 L
4615 4760 mt 
(7) s
5183 4615 mt 5183 4561 L
5183  389 mt 5183  442 L
5150 4760 mt 
(8) s
5719 4615 mt 5719 4561 L
5719  389 mt 5719  442 L
5686 4760 mt 
(9) s
6255 4615 mt 6255 4561 L
6255  389 mt 6255  442 L
6189 4760 mt 
(10) s
5985 4962 mt 
(x 10) s
%%IncludeResource: font Helvetica
/Helvetica /ISOLatin1Encoding 80 FMSR

6211 4888 mt 
(4) s
 899 4615 mt  952 4615 L
6255 4615 mt 6201 4615 L
%%IncludeResource: font Helvetica
/Helvetica /ISOLatin1Encoding 120 FMSR

 798 4659 mt 
(0) s
 899 4145 mt  952 4145 L
6255 4145 mt 6201 4145 L
 664 4189 mt 
(500) s
 899 3675 mt  952 3675 L
6255 3675 mt 6201 3675 L
 598 3719 mt 
(1000) s
 899 3206 mt  952 3206 L
6255 3206 mt 6201 3206 L
 598 3250 mt 
(1500) s
 899 2736 mt  952 2736 L
6255 2736 mt 6201 2736 L
 598 2780 mt 
(2000) s
 899 2267 mt  952 2267 L
6255 2267 mt 6201 2267 L
 598 2311 mt 
(2500) s
 899 1797 mt  952 1797 L
6255 1797 mt 6201 1797 L
 598 1841 mt 
(3000) s
 899 1328 mt  952 1328 L
6255 1328 mt 6201 1328 L
 598 1372 mt 
(3500) s
 899  858 mt  952  858 L
6255  858 mt 6201  858 L
 598  902 mt 
(4000) s
 899  389 mt  952  389 L
6255  389 mt 6201  389 L
 598  433 mt 
(4500) s
 899 4615 mt 6255 4615 L
 899  389 mt 6255  389 L
 899 4615 mt  899  389 L
6255 4615 mt 6255  389 L
gs 899 389 5357 4227 MR c np
/c8 { 0.000000 0.000000 1.000000 sr} bdef
c8
1 0 1 0 1 0 1 0 1 0 0 -4 1 0 1 0 
1 0 1 0 1 0 1 0 0 -4 1 0 1 0 1 0 
1 0 1 0 0 -4 1 0 1 0 1 0 1 0 1 0 
1 0 1 0 1 0 1 0 1 0 1 0 1 0 1 0 
1 0 1 0 1 0 1 0 1 0 1 0 1 0 1 0 
1 -1 1 0 0 -3 1 0 1 0 1 0 1 0 1 0 
1 0 1 0 0 -4 1 0 1 0 1 0 0 -3 1 0 
1 0 1 0 1 0 1 0 1 0 1 0 1 0 1 0 
1 0 1 0 1 0 1 0 1 0 0 -4 1 0 1 0 
1 0 1 0 1 0 1 0 1 0 1 0 1 0 1 0 
1 0 0 -3 1 0 1 0 1 0 1 0 1 0 1 0 
0 -4 1 0 1 0 1 0 1 0 1 0 1 0 1 0 
1 0 1 0 1 0 6165 3014 100 MP stroke
1 0 1 0 1 0 1 0 1 0 1 0 1 0 1 0 
1 0 1 0 1 0 1 0 1 0 1 0 1 0 1 0 
1 0 1 0 1 0 1 0 1 0 1 0 1 0 1 0 
1 0 1 0 0 -6 1 0 1 0 1 0 1 0 1 0 
0 -4 1 0 1 0 1 0 1 0 1 0 1 0 1 0 
1 0 1 0 1 0 1 0 1 0 1 0 1 0 1 0 
0 -3 1 0 1 0 1 0 1 0 1 0 1 0 1 0 
1 0 1 0 1 0 1 0 1 0 1 0 1 0 0 -8 
1 0 1 0 1 0 1 0 1 0 1 0 1 0 1 0 
1 0 1 0 1 0 1 0 1 0 1 0 1 0 1 0 
1 0 1 0 1 0 1 0 1 0 1 0 1 0 1 0 
1 0 1 0 1 0 1 0 1 0 1 0 1 0 1 0 
1 0 1 0 1 0 6070 3035 100 MP stroke
1 0 1 0 0 -4 1 0 0 -3 1 0 1 0 1 0 
1 0 1 0 1 0 1 0 1 0 1 0 1 0 1 0 
1 0 1 0 1 0 1 0 1 0 1 0 1 0 1 0 
1 0 1 0 1 0 1 0 1 0 1 0 1 0 1 0 
0 -4 1 0 1 0 1 0 1 0 1 0 1 0 1 0 
1 0 1 0 0 -4 1 0 1 0 1 0 1 0 1 0 
1 0 1 0 1 0 1 0 1 0 1 0 1 0 0 -4 
1 0 1 0 1 0 1 0 1 0 1 0 1 0 1 0 
1 0 0 -3 1 0 1 0 1 0 1 0 1 0 1 0 
1 0 1 0 1 0 1 0 1 0 1 0 1 0 1 0 
1 0 1 0 1 0 1 0 1 0 1 0 1 0 1 0 
1 0 1 0 1 0 1 0 1 0 1 0 1 0 1 0 
1 0 1 0 1 0 5977 3057 100 MP stroke
1 0 1 0 1 0 1 0 1 0 1 0 1 0 1 0 
1 0 1 0 1 0 1 0 1 0 1 0 1 0 1 0 
1 0 1 0 0 -4 1 0 1 0 1 0 1 0 1 0 
1 0 1 0 0 -4 1 0 1 0 1 0 0 -4 1 0 
1 0 1 0 1 0 1 0 1 0 1 0 1 0 1 0 
1 0 1 0 1 0 1 0 1 0 1 0 1 0 1 0 
1 0 1 0 1 0 1 0 1 0 1 0 1 0 1 0 
1 0 1 0 1 0 1 0 1 0 1 0 0 -3 1 0 
1 0 1 0 1 0 1 0 0 -4 1 0 1 0 1 0 
1 0 1 0 1 0 1 0 1 0 1 0 1 0 1 0 
1 0 1 0 1 0 0 -4 1 0 1 0 0 -4 1 0 
1 0 1 0 1 0 1 0 1 0 1 0 1 0 1 0 
1 0 0 -4 1 0 5886 3088 100 MP stroke
1 0 1 0 1 0 1 0 1 0 1 0 1 0 1 0 
1 0 1 0 1 0 1 0 1 0 1 0 1 0 1 0 
0 -3 1 0 0 -4 1 0 1 0 1 0 1 0 1 0 
1 0 1 0 1 0 1 0 1 0 1 0 1 0 1 0 
1 0 1 0 1 0 1 0 1 0 1 0 1 0 1 0 
1 0 1 0 1 0 1 0 1 0 1 0 1 0 1 0 
1 0 1 0 1 0 0 -4 1 -1 1 0 1 0 1 0 
1 0 0 -3 1 0 1 0 1 0 1 0 1 0 1 0 
1 0 1 0 1 0 1 0 1 0 1 0 1 0 1 0 
1 0 1 0 1 0 1 -1 1 0 1 0 1 0 1 0 
1 0 1 0 1 0 0 -4 1 0 1 0 1 0 1 0 
1 0 1 0 1 0 1 0 1 0 1 0 1 0 1 0 
1 0 1 0 1 0 5792 3108 100 MP stroke
0 -4 1 0 1 0 1 0 0 -4 1 0 1 0 1 0 
1 0 0 -3 1 0 1 0 1 0 1 0 1 0 1 0 
1 0 1 0 1 0 1 0 1 0 1 0 1 0 1 0 
1 0 1 0 1 0 1 0 1 0 1 0 1 0 1 0 
1 0 1 0 1 0 0 -4 1 0 1 0 0 -4 1 0 
1 0 1 0 1 0 1 0 1 0 0 -4 1 0 1 0 
1 0 1 0 1 0 1 0 1 0 1 0 1 0 1 0 
1 0 1 0 1 0 1 0 1 0 1 0 1 0 1 0 
1 0 1 0 1 -3 1 0 1 0 1 0 1 0 1 0 
1 0 1 0 1 0 1 0 1 0 0 -3 1 0 0 -4 
1 0 1 0 1 0 1 0 1 0 1 0 0 -4 1 0 
1 0 1 0 1 0 1 0 1 0 1 0 1 0 1 0 
1 0 1 0 1 0 5702 3145 100 MP stroke
1 0 1 0 1 0 1 0 1 0 1 0 1 0 1 0 
1 0 1 0 1 0 1 0 1 0 1 0 1 0 0 -3 
1 0 1 0 1 0 1 0 1 0 1 0 1 0 1 0 
1 0 0 -3 1 0 1 0 0 -8 1 0 1 0 1 0 
1 0 1 0 1 0 1 0 1 0 1 0 1 0 1 0 
1 0 1 0 1 0 1 0 1 0 1 0 1 0 1 0 
1 0 1 0 1 0 1 0 1 0 1 0 1 0 1 0 
1 0 1 0 1 0 1 0 1 0 1 0 1 0 1 0 
1 0 1 0 1 0 0 -4 1 0 1 0 1 0 1 0 
1 0 0 -3 1 0 1 0 1 0 1 0 1 0 1 0 
1 0 1 0 1 0 1 0 1 -4 1 0 1 0 1 0 
1 0 1 0 1 0 1 0 1 0 1 0 1 0 1 0 
1 0 1 0 0 -4 5609 3174 100 MP stroke
1 0 1 0 1 0 1 0 1 0 1 0 1 0 1 0 
0 -4 1 0 1 0 1 0 1 0 1 0 1 0 1 0 
1 0 1 0 0 -3 1 0 1 0 1 0 1 0 1 0 
0 -4 1 0 1 0 1 0 1 0 1 0 1 0 1 0 
1 0 1 0 0 -3 1 0 1 0 1 0 1 0 1 0 
1 0 1 0 1 0 1 0 1 0 1 0 1 0 1 0 
1 0 1 0 1 0 1 0 1 0 1 0 1 0 1 0 
1 0 1 0 0 -2 1 0 1 0 1 0 1 0 1 0 
1 0 1 0 1 0 1 0 1 0 0 -4 1 0 1 0 
1 0 1 0 1 0 0 -3 1 0 1 0 1 0 1 0 
1 0 1 0 1 0 1 0 1 0 1 0 1 0 1 0 
1 0 1 0 1 0 1 0 1 0 1 0 1 0 1 0 
1 0 0 -4 1 0 5518 3201 100 MP stroke
1 0 1 0 1 0 1 0 1 0 1 0 1 0 1 0 
1 0 1 0 0 -4 1 0 1 0 1 0 1 0 1 0 
1 0 1 0 1 0 1 0 1 0 1 0 1 0 1 0 
1 0 1 0 1 0 1 0 1 0 1 0 0 -4 1 0 
1 0 1 0 1 0 1 0 1 0 1 0 1 0 1 0 
1 0 1 0 1 0 1 0 1 0 1 0 1 0 1 0 
1 0 1 0 1 0 1 0 1 0 1 0 1 0 1 0 
1 0 1 0 1 0 1 0 1 0 1 0 1 0 1 0 
1 0 1 0 1 0 0 -3 1 0 1 0 1 0 1 0 
1 0 1 0 1 0 1 0 1 0 1 0 1 0 1 0 
1 0 1 0 1 0 0 -4 1 0 1 0 1 0 1 0 
1 0 1 0 1 0 1 0 0 -4 1 0 0 -3 1 0 
1 0 1 0 1 0 5425 3223 100 MP stroke
1 0 1 0 1 0 1 0 1 0 1 0 1 0 1 0 
0 -3 1 0 1 0 1 0 1 0 1 0 1 0 1 0 
1 0 1 0 1 0 1 0 1 0 1 0 1 0 1 0 
1 0 1 0 1 0 1 0 1 0 1 0 1 0 1 0 
1 0 1 0 1 0 1 0 1 0 1 0 0 -8 1 0 
1 0 1 0 1 0 1 0 1 0 1 0 0 -4 1 0 
1 0 1 0 1 0 1 0 1 0 1 0 1 0 0 -4 
1 0 1 0 1 0 1 0 1 0 1 0 1 0 1 0 
1 0 1 0 1 0 1 0 1 0 1 0 1 0 1 0 
1 0 1 0 1 0 1 0 0 -3 1 0 1 0 1 0 
1 0 1 0 1 0 1 0 1 0 1 0 1 0 1 0 
1 0 1 0 1 0 1 0 1 0 1 0 1 0 0 -3 
1 0 1 0 1 0 5332 3248 100 MP stroke
1 0 1 0 1 0 1 0 1 0 1 0 1 0 1 0 
1 0 1 0 1 0 1 0 1 0 1 0 1 0 1 0 
1 0 1 0 1 0 1 0 1 0 1 0 1 0 0 -4 
1 0 1 0 1 0 1 0 1 0 1 0 1 0 1 0 
0 -4 1 0 1 0 0 -3 1 0 1 0 1 0 1 0 
1 0 1 0 1 0 1 0 1 0 1 0 1 0 1 0 
1 0 1 0 1 0 1 0 1 0 1 0 1 0 1 0 
1 0 1 0 1 0 1 0 1 0 1 0 1 0 1 0 
1 0 1 0 1 0 1 0 1 0 1 0 1 0 0 -4 
1 0 1 0 0 -4 1 0 1 0 1 0 0 -4 1 0 
1 0 1 0 1 0 1 0 1 0 1 0 1 0 1 0 
1 0 1 0 1 0 0 -3 1 0 1 0 1 0 1 0 
1 0 1 0 1 0 5240 3274 100 MP stroke
1 0 1 0 1 0 1 0 1 0 1 0 1 0 1 0 
1 0 1 0 1 0 1 0 0 -4 1 0 1 0 1 0 
1 0 1 0 1 0 1 0 1 0 1 0 1 0 1 0 
1 0 1 0 1 0 1 0 1 0 1 0 1 0 1 0 
1 0 1 0 0 -4 1 0 1 0 0 -4 1 0 1 0 
1 0 1 0 1 0 0 -3 1 0 1 0 1 0 1 0 
1 0 1 0 1 0 1 0 1 0 1 0 1 0 1 0 
1 0 1 0 0 -4 1 0 1 0 1 0 1 0 1 0 
1 0 1 0 1 -4 1 0 0 -4 1 0 1 0 1 0 
1 0 1 0 1 0 1 0 1 0 1 0 1 0 1 0 
1 0 1 0 1 0 1 0 1 0 1 0 1 0 1 0 
1 0 1 0 1 0 1 0 1 0 1 0 1 0 1 -1 
1 0 1 0 1 0 5147 3302 100 MP stroke
1 0 1 0 0 -3 1 0 1 0 1 0 1 0 1 0 
1 0 0 -3 1 0 1 0 1 0 1 0 1 0 1 0 
1 0 1 0 1 0 1 0 1 0 1 0 1 0 1 0 
1 0 1 0 1 0 1 0 1 0 1 0 1 0 1 0 
1 0 1 0 1 0 0 -4 1 0 1 0 1 0 1 0 
1 0 1 0 1 0 1 0 1 0 1 0 1 0 0 -4 
1 0 1 0 1 0 1 0 1 0 1 0 1 0 0 -3 
1 0 1 0 1 0 1 0 1 0 1 0 1 0 1 0 
1 0 1 0 1 0 1 0 1 0 1 0 1 0 1 0 
0 -4 1 0 1 0 1 0 1 0 1 0 1 0 1 0 
1 0 1 0 1 0 1 0 1 0 1 0 1 0 1 0 
1 0 1 0 1 0 1 0 1 0 1 0 1 0 1 0 
1 0 1 0 1 0 5054 3323 100 MP stroke
1 0 1 0 1 0 1 0 0 -4 1 0 1 0 1 0 
1 0 1 0 1 0 1 0 1 0 1 0 1 0 1 0 
1 0 1 0 1 0 1 0 1 0 1 0 1 0 1 0 
1 0 1 0 1 0 1 0 1 0 1 0 1 0 1 0 
1 0 1 0 1 0 1 0 1 0 1 -1 1 0 1 0 
1 0 1 0 1 0 1 0 0 -4 1 0 0 -3 1 0 
1 0 1 0 1 0 1 0 1 0 1 0 1 0 1 0 
1 0 0 -4 1 0 1 0 1 0 1 0 1 0 1 0 
1 0 1 0 1 0 0 -4 1 0 1 0 1 0 1 0 
0 -2 1 0 1 0 1 0 1 0 1 0 1 0 1 0 
1 0 1 0 1 0 1 0 1 0 1 0 1 0 1 0 
1 0 1 0 1 0 1 0 1 0 1 0 1 0 1 0 
1 0 1 0 1 0 4961 3345 100 MP stroke
1 0 1 0 1 0 1 0 1 0 1 0 1 -4 1 0 
1 0 0 -3 1 0 1 0 1 0 1 0 0 -4 1 0 
1 0 0 -4 1 0 1 0 1 0 1 0 1 0 1 0 
1 0 1 0 1 0 1 0 1 0 1 0 1 0 1 0 
1 0 1 0 1 0 1 0 1 0 1 0 1 0 1 0 
1 0 1 0 1 0 1 0 1 0 1 0 1 0 1 0 
1 0 1 0 1 0 1 0 1 0 0 -4 1 0 1 0 
1 0 1 0 1 0 1 0 1 -1 1 0 1 0 1 0 
1 0 1 0 1 0 1 0 1 0 1 0 1 0 1 0 
1 0 1 0 1 0 0 -4 1 0 1 0 1 0 1 0 
1 0 1 0 1 0 1 0 1 0 1 0 1 0 1 0 
1 0 0 -4 1 0 1 0 1 0 1 0 1 0 1 0 
0 -4 1 0 1 0 4869 3377 100 MP stroke
1 0 1 0 1 0 1 0 1 0 1 0 1 0 1 0 
1 0 1 0 1 0 1 0 1 0 1 0 0 -4 1 0 
1 0 1 0 1 0 0 -3 1 0 1 -1 1 0 1 0 
1 0 1 0 1 0 1 0 1 0 1 0 1 0 1 0 
0 -4 1 0 1 0 1 0 1 0 1 0 1 0 1 0 
1 0 1 0 1 0 1 0 1 0 1 0 1 0 1 0 
1 0 1 0 1 0 1 0 1 0 1 0 0 -4 1 0 
1 0 1 0 1 0 1 0 1 0 1 0 1 0 1 0 
0 -3 1 0 1 0 1 0 1 0 1 0 1 0 1 0 
0 -4 1 0 1 0 1 0 1 0 1 0 1 0 1 0 
1 0 1 0 1 0 1 0 1 0 0 -4 1 0 1 0 
1 0 1 0 1 0 1 0 1 0 1 0 1 0 1 0 
1 0 1 0 1 0 4777 3404 100 MP stroke
1 0 1 0 1 0 1 0 1 0 1 0 1 0 0 -4 
1 0 1 0 1 0 1 0 1 0 1 0 0 -3 1 0 
1 0 1 0 1 0 0 -4 1 0 1 0 1 0 1 -1 
1 0 1 0 1 0 1 0 1 0 1 0 1 0 1 0 
1 0 1 0 1 0 1 0 1 0 1 0 1 0 1 0 
1 0 1 0 1 0 1 0 1 0 1 0 1 0 1 0 
1 0 1 0 1 0 0 -4 1 0 1 0 1 0 1 0 
1 0 1 0 1 0 1 0 1 0 1 0 1 0 1 0 
1 0 1 0 1 0 1 0 1 0 1 0 1 0 1 0 
1 0 1 0 1 0 1 -1 0 -4 1 0 1 0 1 0 
1 0 1 0 1 0 1 0 1 0 1 0 1 0 1 0 
1 0 1 0 1 0 1 0 1 0 0 -2 1 0 1 0 
1 0 1 0 1 0 4684 3427 100 MP stroke
1 0 0 -2 1 0 1 0 1 0 1 0 0 -4 1 0 
1 0 1 0 1 0 0 -4 1 0 1 0 1 0 1 0 
1 0 1 0 1 0 1 0 1 0 1 0 1 0 1 0 
1 0 1 0 0 -4 1 0 1 0 1 0 1 0 1 0 
1 0 1 0 1 0 1 0 1 0 1 0 1 0 1 0 
1 0 1 0 1 0 1 0 1 0 1 0 1 0 1 0 
1 0 1 0 0 -3 1 0 1 0 1 0 1 0 1 -4 
1 0 0 -4 1 0 1 0 1 0 1 0 1 0 1 0 
0 -2 1 0 1 0 1 0 1 0 1 0 1 0 1 0 
1 0 1 0 1 0 1 0 1 0 1 0 1 0 1 0 
1 -1 1 0 1 0 1 0 1 0 1 0 1 0 1 0 
1 0 1 0 1 0 1 0 1 0 1 0 1 0 1 0 
1 0 1 -3 0 -4 4593 3462 100 MP stroke
1 0 1 0 1 0 1 0 1 0 1 0 1 0 1 0 
1 0 1 0 1 0 1 0 1 0 0 -4 1 0 1 0 
1 0 1 0 1 0 1 0 1 0 1 0 1 0 1 0 
1 0 1 0 1 0 0 -4 1 0 1 0 1 0 1 0 
1 0 1 0 1 0 1 0 1 0 1 0 1 0 1 0 
0 -3 1 0 1 0 1 0 1 0 1 0 1 0 1 0 
1 0 0 -4 1 0 0 -8 1 0 1 0 1 0 1 0 
1 0 1 0 1 0 1 0 1 0 1 0 1 0 1 0 
1 0 1 0 1 0 1 0 1 0 1 0 1 0 1 0 
1 0 1 0 1 0 1 0 1 0 1 0 1 0 1 0 
1 0 1 0 1 0 1 0 1 0 1 0 1 0 0 -4 
1 0 1 0 1 0 1 0 1 0 1 0 1 0 1 0 
1 0 1 0 1 0 4500 3489 100 MP stroke
1 0 1 0 1 0 1 0 1 0 1 0 1 0 0 -3 
1 0 0 -4 1 0 1 0 1 0 1 0 1 0 1 0 
1 0 1 0 0 -4 1 0 1 0 1 0 1 0 1 0 
1 0 1 0 1 0 1 0 1 0 1 0 1 0 1 0 
1 0 1 0 1 0 1 0 1 0 1 0 1 0 1 0 
1 0 1 0 1 0 0 -4 1 0 1 0 1 0 1 0 
1 0 1 0 1 0 1 0 1 0 1 0 1 0 1 0 
1 0 0 -3 1 0 1 0 1 0 1 0 1 0 1 0 
1 0 1 0 1 0 1 0 1 0 1 0 1 0 1 0 
1 0 1 0 1 0 1 0 1 0 1 0 1 0 0 -4 
1 0 1 0 1 0 1 0 0 -4 1 0 1 0 0 -4 
1 0 1 0 1 0 1 0 1 0 1 0 1 0 1 0 
1 0 1 0 1 0 4409 3519 100 MP stroke
1 0 1 0 1 0 1 0 1 0 1 0 1 0 1 0 
1 0 1 0 1 0 0 -3 1 0 1 0 1 0 1 0 
1 -1 1 0 1 0 1 0 1 0 1 0 1 0 1 0 
0 -3 1 0 1 0 1 0 1 0 1 0 1 0 1 0 
1 0 1 0 1 0 1 0 1 0 1 0 1 0 1 0 
1 0 1 0 1 0 1 0 0 -4 1 0 1 0 1 0 
1 0 1 0 1 0 1 0 1 0 1 0 1 0 1 0 
1 0 1 0 1 0 1 0 1 0 1 0 0 -4 1 0 
1 0 1 0 1 0 1 0 1 0 1 0 1 0 1 0 
0 -3 1 0 1 0 1 0 1 0 1 0 1 0 1 0 
1 0 1 0 1 0 1 0 1 0 1 0 1 0 1 0 
0 -4 1 0 0 -4 1 0 1 0 1 0 1 0 1 0 
1 0 1 0 1 0 4317 3545 100 MP stroke
1 0 1 0 1 0 1 0 1 0 1 0 1 0 1 0 
1 0 1 0 1 0 1 0 1 0 1 0 1 0 1 0 
1 0 1 0 1 0 1 0 1 0 1 0 1 0 1 0 
0 -2 1 0 1 0 0 -3 1 0 1 0 1 0 1 0 
1 0 1 0 0 -2 1 0 1 0 1 0 1 0 1 0 
1 0 1 0 1 0 1 0 1 0 1 0 1 0 1 0 
1 0 1 0 1 0 1 0 0 -4 1 0 1 0 1 0 
1 0 1 0 1 0 1 0 1 0 1 0 1 0 1 0 
1 0 1 0 1 0 1 0 1 0 1 0 1 0 1 0 
1 0 1 0 1 0 1 0 1 0 1 0 1 0 1 0 
1 0 1 0 1 0 1 0 0 -4 1 0 1 0 1 0 
0 -4 1 0 1 0 1 0 1 0 1 0 1 0 1 0 
1 0 1 0 1 0 4224 3564 100 MP stroke
1 0 1 0 1 0 0 -3 1 0 1 0 1 0 1 0 
1 0 1 0 1 0 1 0 1 0 0 -4 1 0 1 0 
1 0 1 0 1 0 1 0 1 0 1 0 1 0 1 0 
1 0 1 0 1 0 1 0 1 0 1 0 1 0 1 0 
1 0 1 0 1 0 0 -4 1 0 1 0 1 0 1 0 
1 0 0 -4 1 0 1 0 1 0 1 0 1 0 1 0 
1 0 1 0 1 0 1 0 1 0 1 0 1 0 1 0 
1 0 1 0 1 0 0 -2 1 0 1 0 1 0 1 0 
1 0 0 -4 1 0 1 0 1 0 1 0 1 0 1 0 
1 0 1 0 1 0 1 0 1 0 1 0 1 0 1 0 
1 0 1 0 1 0 1 0 1 0 1 0 1 0 0 -4 
1 0 1 0 1 0 1 0 1 0 1 0 1 0 1 0 
1 0 1 0 1 0 4132 3589 100 MP stroke
1 0 1 0 1 0 1 0 0 -4 1 0 1 0 1 0 
1 0 1 0 1 0 1 0 1 0 1 0 1 0 1 0 
0 -4 1 0 1 0 1 0 1 0 1 0 1 0 0 -3 
1 0 1 0 1 0 1 0 1 0 1 0 1 0 1 0 
1 0 0 -4 1 0 1 0 1 0 1 0 1 0 1 0 
1 0 1 0 1 0 1 0 1 0 1 0 1 0 0 -4 
1 0 1 0 1 0 1 0 1 0 0 -4 1 0 1 0 
1 0 1 0 1 0 1 0 1 0 1 0 1 0 1 0 
1 0 1 0 1 0 1 0 1 0 1 0 0 -3 1 0 
1 0 1 0 1 0 1 0 1 0 1 0 1 0 1 0 
1 0 1 0 1 0 1 0 1 0 0 -4 1 0 1 0 
1 0 1 0 1 0 1 0 0 -4 1 0 1 0 1 0 
1 0 1 0 1 0 4042 3623 100 MP stroke
1 0 1 0 1 0 1 0 1 0 1 0 1 0 1 0 
1 0 1 0 1 0 1 0 1 0 1 0 1 0 1 0 
1 0 0 -2 1 0 1 0 1 0 1 0 1 0 1 0 
0 -3 1 0 1 0 1 0 1 0 1 0 1 0 0 -4 
1 0 1 0 1 0 1 0 1 0 1 0 1 0 1 0 
1 0 1 0 1 0 1 0 1 0 1 0 1 0 1 0 
1 0 1 0 1 0 1 0 1 0 1 0 1 0 1 0 
1 0 1 0 1 0 1 0 0 -4 1 0 0 -4 1 0 
1 0 1 0 1 0 1 0 1 0 1 0 1 0 1 0 
1 0 1 0 1 0 1 0 1 0 1 0 1 0 1 0 
1 0 1 0 1 0 1 0 1 0 1 -3 1 0 1 0 
1 0 1 0 1 -4 1 0 1 0 1 0 1 0 0 -4 
1 0 1 0 1 0 3949 3651 100 MP stroke
0 -4 1 0 0 -3 1 0 1 0 1 0 1 0 1 0 
1 0 1 0 1 0 1 0 1 0 1 0 1 0 1 0 
1 0 1 0 1 0 1 0 1 0 1 0 1 0 1 0 
1 0 1 0 1 0 1 0 1 0 1 0 1 0 1 0 
1 0 1 0 1 0 1 0 1 0 1 0 1 0 1 0 
1 0 1 0 0 -4 1 0 0 -4 1 0 1 0 1 0 
1 0 1 0 1 0 1 0 1 0 1 0 1 0 1 0 
1 0 1 0 1 0 1 0 1 0 1 0 1 0 1 0 
1 0 1 0 1 0 1 0 1 0 1 0 1 0 1 0 
1 0 1 0 1 0 1 0 1 0 1 0 1 0 1 0 
1 0 1 0 0 -4 1 0 1 0 1 0 1 0 1 0 
1 0 1 0 1 0 0 -4 1 0 1 0 1 0 1 0 
1 0 1 0 1 0 3856 3674 100 MP stroke
1 0 1 0 1 0 1 0 1 0 1 0 1 0 1 0 
1 0 0 -3 1 0 1 0 1 0 1 0 1 0 1 0 
1 0 1 0 1 0 1 0 0 -4 1 0 1 0 1 0 
1 0 1 0 1 0 0 -4 1 0 1 0 1 0 1 0 
1 0 1 0 1 0 1 0 1 0 1 0 1 0 1 0 
1 0 1 0 1 0 1 0 1 0 1 0 0 -4 1 0 
1 -3 1 0 0 -4 1 0 1 0 1 0 1 0 1 0 
1 0 1 0 1 0 0 -4 1 0 1 0 1 0 1 0 
1 0 1 0 1 0 1 0 1 0 1 0 1 0 1 0 
1 0 1 0 1 0 1 0 1 0 1 0 1 0 1 0 
1 0 1 0 1 -4 1 0 0 -3 1 0 1 0 1 0 
1 0 1 0 1 0 1 0 0 -4 1 0 1 0 1 0 
1 0 1 0 0 -4 3766 3715 100 MP stroke
1 0 1 0 1 0 1 0 1 0 0 -4 1 0 1 0 
1 0 1 0 1 0 1 0 1 0 1 0 1 0 1 0 
1 0 1 0 1 0 1 0 1 0 1 0 1 0 1 0 
1 0 1 0 1 0 1 0 1 0 1 0 1 0 1 0 
1 0 1 0 1 0 1 0 0 -3 1 0 1 0 1 0 
1 0 1 0 0 -4 1 -4 1 0 1 0 1 0 1 0 
0 -4 1 0 1 0 1 0 1 0 1 0 1 0 1 0 
1 0 1 0 1 0 1 0 1 0 1 0 1 0 1 0 
1 0 1 0 1 0 1 0 1 0 1 0 1 0 1 0 
1 0 0 -3 1 0 1 0 1 0 1 0 1 0 1 -4 
1 0 1 0 1 0 1 0 1 0 1 0 1 0 1 0 
0 -4 1 0 1 0 1 0 1 0 1 0 0 -3 1 0 
1 0 1 0 1 0 3674 3748 100 MP stroke
1 0 1 0 1 0 1 0 1 0 1 0 0 -3 1 0 
1 0 1 0 0 -4 1 0 1 0 1 0 1 0 1 0 
1 0 1 0 1 0 1 0 1 0 1 0 1 0 1 0 
1 0 1 0 1 0 1 0 1 0 1 0 1 0 1 0 
1 0 0 -4 1 0 1 0 1 0 1 0 1 0 1 0 
1 0 1 0 1 0 1 0 1 0 1 0 1 0 1 0 
1 0 1 0 1 0 1 0 1 0 1 0 1 0 1 0 
1 0 1 0 1 0 1 0 1 0 1 0 0 -4 1 0 
1 0 1 0 1 0 1 0 1 0 1 0 0 -3 1 -1 
0 -4 1 0 1 0 1 0 1 0 1 0 1 0 1 0 
1 0 1 0 1 0 1 0 1 0 1 0 1 0 1 0 
1 0 1 0 1 0 1 0 1 0 1 0 1 0 1 0 
1 0 1 0 1 0 3581 3771 100 MP stroke
1 0 1 0 1 0 0 -4 1 0 1 0 1 0 1 0 
1 0 1 0 1 0 1 0 1 0 1 0 0 -4 1 0 
0 -3 1 0 1 0 1 0 1 0 1 0 1 -1 1 0 
1 0 1 0 1 0 1 0 1 0 1 0 1 0 1 0 
1 0 1 0 1 0 1 0 1 0 1 0 1 0 1 0 
1 0 1 0 0 -4 1 0 1 0 1 0 0 -4 1 0 
1 0 1 0 1 0 1 0 1 0 0 -4 1 0 1 0 
1 0 1 0 1 0 1 0 1 0 1 0 1 0 1 0 
1 0 1 0 1 0 0 -2 1 0 1 0 1 0 1 0 
1 0 1 0 0 -3 1 0 1 0 1 0 1 0 1 0 
0 -4 1 0 1 0 1 0 1 0 1 0 1 0 1 0 
1 0 1 0 1 0 0 -4 1 0 1 0 1 0 1 0 
1 0 1 0 1 0 3492 3808 100 MP stroke
1 0 1 0 1 0 1 0 1 0 1 0 1 0 1 0 
1 0 1 0 1 0 1 0 1 0 1 0 1 0 1 0 
1 0 1 0 1 0 1 0 1 0 1 0 1 0 1 0 
1 0 1 0 1 0 0 -4 1 0 1 0 1 0 1 0 
1 0 1 0 1 0 1 0 1 0 1 0 1 0 1 0 
0 -3 1 0 1 0 1 0 1 0 1 0 0 -4 1 0 
1 0 1 0 1 0 1 0 1 0 1 0 1 0 0 -4 
1 0 1 0 1 0 1 0 1 0 1 0 1 0 1 0 
1 0 1 0 1 0 1 0 1 0 1 0 1 0 1 0 
1 0 1 0 1 0 1 0 1 0 1 0 1 0 1 0 
1 0 1 0 1 0 1 0 1 0 1 0 0 -4 1 0 
1 0 1 0 1 0 1 0 0 -3 1 0 1 0 1 0 
1 0 1 0 1 0 3399 3830 100 MP stroke
1 0 1 0 1 0 1 0 1 0 1 0 1 0 1 0 
1 0 1 0 1 0 1 0 1 0 1 0 1 0 1 0 
1 0 1 0 1 0 1 0 1 0 1 0 1 0 1 0 
1 0 1 0 1 0 1 0 0 -4 1 0 1 0 1 0 
1 0 1 0 1 0 1 0 1 0 0 -4 1 0 1 0 
1 0 1 0 1 0 1 0 1 0 1 0 1 0 1 0 
1 0 1 0 1 0 1 0 1 0 1 0 1 0 1 0 
0 -4 1 0 1 0 1 0 1 0 1 0 1 0 1 0 
0 -3 1 0 1 0 1 0 0 -4 1 0 1 0 1 0 
1 0 1 0 1 0 1 0 1 0 1 0 1 0 1 0 
1 0 1 0 1 0 1 0 1 0 1 0 1 0 1 0 
1 0 0 -4 1 0 1 0 1 0 1 0 0 -4 1 0 
1 0 1 0 1 0 3307 3857 100 MP stroke
1 0 1 0 1 0 1 0 1 0 1 0 1 0 1 0 
1 0 1 0 1 0 1 0 1 0 1 0 1 0 1 0 
1 0 1 0 1 0 1 0 1 0 0 -3 1 0 1 0 
0 -4 1 0 0 -4 1 0 1 0 0 -4 1 0 1 0 
1 0 1 0 1 0 1 0 1 0 1 0 1 0 1 0 
1 0 1 0 1 0 1 0 1 0 1 0 1 0 1 0 
1 0 1 0 0 -3 1 0 1 0 1 0 1 0 1 0 
1 0 1 0 1 0 1 0 1 0 1 0 1 0 1 0 
1 0 1 0 1 0 0 -4 1 0 1 0 1 0 1 0 
1 0 1 0 1 0 1 0 1 0 0 -4 1 0 0 -4 
1 0 1 0 1 0 1 0 1 0 1 0 1 0 1 0 
1 0 1 0 1 0 1 0 1 0 1 0 1 0 1 0 
1 0 1 0 1 0 3216 3887 100 MP stroke
0 -3 1 0 1 0 1 0 1 0 1 0 1 0 1 0 
1 0 1 0 1 0 1 0 1 0 1 0 1 0 1 0 
0 -4 1 0 1 0 1 0 1 0 1 0 1 0 1 0 
1 0 1 0 1 0 1 0 1 0 0 -4 1 0 1 0 
1 0 0 -4 1 0 1 0 1 0 1 0 1 0 1 0 
1 0 1 0 1 0 1 0 1 0 1 0 1 0 1 0 
1 0 1 0 1 0 1 0 1 0 1 0 1 0 0 -3 
1 0 1 0 1 0 1 0 1 0 1 0 1 0 1 0 
1 0 0 -4 1 0 1 0 1 0 1 0 1 0 0 -4 
1 0 1 0 1 0 1 0 1 0 1 0 1 0 1 0 
1 0 1 0 1 0 1 0 1 0 1 0 1 0 1 0 
1 0 1 0 1 0 1 0 1 0 1 0 1 0 1 0 
0 -4 1 0 1 0 3125 3917 100 MP stroke
0 -3 1 0 1 0 1 0 1 0 1 0 1 0 1 0 
1 0 1 0 1 0 1 0 1 0 1 0 1 0 1 0 
0 -4 1 0 1 0 1 0 1 0 1 0 1 0 1 0 
1 0 1 0 1 0 1 0 1 0 1 0 1 0 1 0 
0 -4 1 0 1 0 1 0 1 0 1 0 1 0 1 0 
0 -4 1 0 1 0 1 0 1 0 1 0 1 0 1 0 
1 0 1 0 1 0 1 0 1 0 1 0 1 0 1 0 
1 0 1 0 1 0 1 0 1 0 1 0 1 0 1 0 
1 0 1 0 1 0 1 0 1 0 0 -4 1 0 1 0 
1 0 1 -3 1 0 0 -4 1 0 1 0 1 0 1 0 
1 0 1 0 1 0 1 0 1 0 1 0 1 0 1 0 
1 0 1 0 1 0 1 0 1 0 1 0 1 0 1 0 
1 0 1 0 1 0 3032 3943 100 MP stroke
1 0 1 0 1 0 1 0 1 0 1 0 1 0 1 0 
0 -4 1 0 1 0 0 -4 1 0 1 0 1 0 1 0 
0 -3 1 0 1 0 1 0 1 0 1 0 1 0 1 0 
1 0 1 0 1 0 1 0 1 0 1 0 1 0 1 0 
1 0 1 0 1 0 1 0 1 0 1 0 1 0 1 0 
1 0 1 0 1 0 1 0 1 0 1 0 1 0 0 -4 
1 0 1 0 1 0 1 0 1 0 1 0 1 0 0 -4 
1 0 1 0 1 0 1 0 1 0 1 0 1 0 1 0 
1 0 1 0 1 0 1 0 1 0 1 0 1 0 1 0 
1 0 1 0 0 -3 1 0 1 0 0 -3 1 0 1 0 
1 0 1 0 1 0 1 0 0 -4 1 0 1 0 1 0 
1 0 1 0 1 0 1 0 1 0 0 -4 1 0 1 0 
1 0 1 0 1 0 2942 3976 100 MP stroke
1 0 1 0 1 0 0 -4 1 0 1 0 1 0 1 0 
1 0 1 0 1 0 1 0 1 0 1 0 1 0 1 0 
1 0 1 0 1 0 1 0 1 0 1 0 1 0 1 0 
1 0 1 0 0 -3 1 0 1 0 1 0 1 0 1 0 
1 0 1 0 1 0 1 0 1 0 1 0 1 0 1 0 
0 -4 1 0 1 0 1 0 1 0 0 -8 1 0 1 0 
1 0 1 0 1 0 1 0 1 0 1 0 1 0 1 0 
1 0 1 0 1 0 1 0 1 0 1 0 1 0 1 0 
1 0 1 0 1 0 1 0 1 0 1 0 1 0 1 0 
1 0 1 0 1 0 1 0 1 0 1 0 0 -3 1 0 
1 0 1 0 1 0 0 -4 1 0 1 0 1 0 1 0 
1 0 1 0 1 0 1 0 1 0 1 0 1 0 1 0 
1 0 1 0 1 0 2849 4002 100 MP stroke
1 0 1 0 1 0 1 0 1 0 1 0 1 0 1 0 
1 0 1 0 1 0 1 0 1 0 1 0 1 0 1 0 
0 -4 1 0 1 0 1 0 1 0 1 0 1 0 1 0 
1 0 1 0 1 0 1 0 1 0 1 0 1 0 1 0 
1 0 1 0 0 -4 1 0 1 0 1 0 1 0 1 0 
1 0 1 0 1 0 1 0 0 -3 1 0 0 -4 1 0 
1 0 1 0 1 0 1 0 1 0 1 0 1 0 1 0 
1 0 1 0 1 0 1 0 1 0 1 0 1 0 1 0 
1 0 1 0 1 0 1 0 1 0 1 0 0 -4 1 0 
1 0 1 0 1 0 1 0 1 0 1 0 1 0 1 0 
1 0 1 0 1 0 1 0 1 0 1 0 1 0 1 0 
1 0 0 -4 1 0 1 0 1 0 1 0 1 0 1 0 
1 0 0 -3 1 0 2757 4028 100 MP stroke
1 0 1 0 1 0 1 0 1 0 1 0 1 0 1 0 
0 -4 1 0 1 0 1 0 1 0 1 0 1 0 1 0 
1 0 1 0 1 0 1 0 1 0 1 0 0 -4 1 0 
1 0 1 0 1 0 1 0 1 0 1 0 1 0 1 -4 
1 0 1 0 1 0 1 0 1 0 1 0 1 0 1 0 
1 0 0 -4 1 0 1 0 1 0 1 0 1 0 1 0 
1 0 1 0 1 0 1 0 1 0 1 0 1 0 1 0 
1 0 1 0 1 0 1 0 1 0 0 -3 1 0 1 0 
1 0 1 0 1 0 1 0 1 0 0 -8 1 0 1 0 
1 0 1 0 1 0 1 0 1 0 1 0 1 0 1 0 
1 0 1 0 1 0 1 -4 1 0 1 0 1 0 1 0 
1 0 1 0 1 0 1 0 1 0 1 0 1 0 1 0 
1 0 1 0 1 0 2663 4059 100 MP stroke
1 0 1 0 0 -2 1 0 1 0 1 0 1 0 1 0 
1 0 1 0 1 0 0 -4 1 0 1 0 1 0 1 0 
1 0 1 0 1 0 1 0 1 0 1 0 1 0 1 0 
0 -4 1 0 1 0 1 0 1 0 1 0 1 0 1 0 
1 0 1 0 0 -4 1 0 1 0 1 0 1 0 1 0 
0 -3 1 0 1 0 1 0 1 0 1 0 1 0 1 0 
1 0 1 0 1 0 1 0 1 0 1 0 1 0 1 0 
1 0 0 -4 1 0 1 0 1 0 1 0 1 0 1 0 
1 0 1 0 1 0 1 0 1 0 1 0 1 0 1 0 
1 0 1 0 0 -4 1 0 1 0 1 0 1 0 1 0 
1 0 0 -7 1 0 1 0 1 0 1 0 1 0 1 0 
1 0 1 0 1 0 1 0 1 0 1 0 1 0 1 0 
1 0 1 0 1 0 2572 4091 100 MP stroke
1 0 1 0 1 0 1 0 1 0 1 0 1 0 1 0 
1 0 1 0 1 0 1 0 1 0 1 0 1 -4 1 0 
1 0 0 -4 1 0 1 0 1 0 1 0 1 0 1 0 
1 0 1 0 1 -1 1 0 1 0 1 0 1 0 1 0 
1 0 1 0 1 0 1 0 1 0 1 0 1 0 1 0 
1 0 1 0 1 0 1 0 1 0 1 0 1 0 1 0 
0 -4 1 0 1 0 1 0 1 0 1 -3 1 0 1 0 
1 0 1 0 1 0 1 0 1 0 1 0 1 0 1 0 
1 0 1 0 1 0 1 0 1 0 1 0 1 0 1 0 
1 0 1 0 1 0 0 -4 1 0 1 0 1 0 0 -4 
1 0 1 0 1 0 1 0 1 0 1 0 1 0 1 0 
1 0 1 0 1 0 1 0 1 -4 1 0 1 0 1 0 
1 0 1 0 1 0 2477 4119 100 MP stroke
1 0 1 0 1 0 1 0 1 0 1 0 1 0 1 0 
1 0 1 0 1 0 0 -3 1 0 1 0 1 0 1 0 
1 0 1 0 1 0 1 0 1 0 1 0 1 0 1 0 
1 0 1 0 1 0 1 0 1 0 1 0 1 0 1 0 
1 0 1 0 0 -4 1 0 1 0 1 0 1 0 1 0 
1 0 1 0 1 0 1 0 1 0 1 0 1 0 1 0 
1 0 1 0 1 0 1 0 0 -4 1 0 1 0 1 0 
1 0 0 -4 1 0 1 0 1 0 1 0 1 0 1 0 
1 0 1 0 1 0 1 0 1 0 0 -3 1 0 1 0 
1 0 1 0 1 0 1 0 1 0 1 0 1 0 1 0 
1 0 1 0 1 0 1 0 1 0 1 0 1 0 1 0 
1 0 0 -4 1 0 1 0 1 0 1 0 1 0 1 0 
1 0 0 -4 1 0 2385 4145 100 MP stroke
1 0 1 0 1 0 1 0 0 -4 1 0 1 0 1 0 
1 0 1 0 1 0 1 0 1 0 1 0 1 0 1 0 
1 0 1 0 1 0 0 -3 1 0 1 0 1 0 1 0 
0 -4 1 0 1 0 1 0 1 0 1 0 1 0 1 0 
1 0 1 0 0 -4 1 0 1 0 1 0 1 0 1 0 
1 0 1 0 1 0 1 0 1 0 1 0 1 0 1 0 
1 0 1 0 1 0 1 0 1 0 1 0 1 0 0 -4 
1 0 1 0 1 0 1 0 1 -1 1 0 1 0 1 0 
1 0 1 0 1 0 1 0 1 0 1 0 1 0 1 0 
1 0 1 0 1 0 1 0 1 0 1 -3 1 0 1 0 
1 0 1 0 1 0 1 0 0 -4 1 0 1 0 1 0 
0 -3 1 0 1 0 1 0 1 0 1 0 1 0 0 -4 
1 0 1 0 0 -4 2295 4183 100 MP stroke
1 0 1 0 1 0 1 0 1 0 1 0 1 0 1 0 
1 0 1 0 1 0 1 0 1 0 1 0 0 -3 1 0 
1 0 1 0 1 0 1 0 1 0 1 0 1 0 1 0 
1 0 0 -4 1 0 1 0 1 0 1 0 1 0 1 0 
1 0 1 0 1 0 1 0 1 0 1 0 1 0 1 0 
0 -4 1 0 1 0 0 -4 1 0 1 0 1 0 1 0 
1 0 1 0 1 0 1 0 1 0 0 -3 1 0 1 0 
1 0 1 0 1 0 1 0 1 0 1 0 1 0 1 0 
1 0 1 0 1 0 1 0 1 0 1 0 1 0 1 0 
1 0 1 0 1 0 1 0 1 0 1 0 1 0 0 -4 
1 0 1 0 1 0 1 0 1 0 1 0 0 -4 1 0 
1 0 1 0 1 0 1 0 1 0 1 0 1 0 0 -4 
1 0 1 0 1 0 2204 4213 100 MP stroke
1 0 1 0 1 0 0 -2 1 0 1 0 1 0 0 -4 
1 0 1 0 1 0 1 0 1 0 1 0 1 0 1 0 
1 0 1 0 1 0 0 -4 1 0 1 0 1 0 1 0 
1 0 1 -4 1 0 1 0 1 0 1 0 1 0 1 0 
1 0 1 0 1 0 1 0 1 0 1 0 1 0 1 0 
1 0 0 -3 1 0 1 0 1 0 1 0 1 0 1 0 
1 0 1 0 1 0 1 0 1 0 1 0 1 0 1 0 
1 0 1 0 1 0 1 0 1 0 1 0 1 0 0 -4 
1 0 1 0 1 0 0 -4 1 0 1 0 1 0 1 0 
0 -4 1 0 1 0 1 0 1 0 1 0 1 0 1 0 
1 0 1 0 1 0 1 0 1 0 1 0 1 0 1 0 
1 0 1 0 1 0 1 0 1 0 1 0 1 0 1 0 
0 -3 1 0 1 0 2113 4245 100 MP stroke
1 0 1 0 1 0 1 0 1 0 1 0 1 0 1 0 
1 0 1 0 1 0 1 0 1 0 0 -4 1 0 1 0 
0 -4 1 0 1 0 1 0 1 0 1 0 0 -4 1 0 
1 0 1 0 1 0 1 0 1 0 1 0 1 0 1 0 
1 0 1 0 1 0 1 0 1 0 1 0 1 0 0 -3 
1 0 1 0 1 0 1 0 1 0 1 0 1 0 1 0 
1 0 1 0 1 0 1 0 1 0 1 0 1 0 1 0 
1 0 1 0 0 -4 1 0 0 -4 1 0 1 0 1 0 
1 0 1 0 1 0 1 0 1 0 1 0 1 0 1 0 
1 0 1 0 1 -3 1 0 1 -1 1 0 1 0 1 0 
1 0 1 0 1 0 1 0 1 0 1 0 1 0 1 0 
1 0 1 0 1 0 1 0 1 0 1 0 1 0 0 -2 
1 0 0 -3 1 0 2022 4277 100 MP stroke
1 0 1 0 0 -4 1 0 1 0 1 0 1 0 1 0 
1 0 1 0 1 0 0 -4 1 0 1 0 1 0 1 0 
1 0 1 0 0 -4 1 0 1 0 1 0 1 0 1 0 
1 0 1 0 1 0 1 0 1 0 1 0 1 0 1 0 
1 0 0 -3 1 0 1 0 1 0 1 0 1 0 1 0 
1 0 1 0 0 -4 1 0 1 0 1 0 1 0 1 0 
1 0 1 0 1 0 1 0 1 0 1 0 1 0 0 -4 
1 0 0 -4 1 0 1 0 1 0 1 0 1 0 1 0 
1 0 1 0 1 0 1 0 1 0 1 -1 1 0 1 0 
1 0 1 0 1 0 0 -3 1 0 1 0 1 0 1 0 
1 0 1 0 1 0 1 0 1 0 1 0 0 -4 1 0 
1 0 1 0 0 -4 1 0 1 0 1 0 1 0 1 0 
1 0 1 0 0 -4 1934 4320 100 MP stroke
1 0 1 0 1 0 1 0 1 0 1 0 1 0 1 0 
1 0 1 0 1 0 1 0 1 0 1 0 1 0 1 0 
1 0 1 0 1 0 1 0 0 -3 1 -1 0 -8 1 0 
1 0 1 0 1 0 1 0 1 0 1 0 1 0 1 0 
1 0 1 0 0 -4 1 0 1 0 1 0 1 0 1 0 
1 0 1 0 1 0 1 0 1 0 1 0 1 0 1 0 
1 0 1 0 1 0 1 0 1 0 0 -3 1 0 1 0 
0 -4 1 0 1 0 1 0 1 0 1 0 1 0 1 0 
1 0 1 0 1 0 1 0 0 -4 1 0 1 0 1 0 
1 0 1 0 1 0 1 0 1 0 1 0 1 0 1 0 
1 0 1 0 1 0 0 -4 1 0 1 0 1 0 1 0 
1 0 1 0 1 0 1 0 1 0 1 0 1 0 1 0 
0 -3 1 0 1 0 1843 4354 100 MP stroke
1 0 1 0 1 0 1 0 1 0 1 0 1 0 1 0 
1 0 1 0 1 0 1 0 1 0 0 -4 1 0 1 0 
1 0 1 0 1 0 0 -4 1 0 1 0 1 0 1 0 
1 0 1 0 1 0 1 0 1 0 1 0 1 0 1 0 
1 0 1 0 1 0 1 0 1 0 1 0 1 0 0 -4 
1 0 1 0 1 0 1 0 1 0 1 0 1 0 1 0 
1 0 1 0 1 0 1 0 1 0 1 0 1 0 1 0 
0 -3 1 0 1 0 1 0 0 -4 1 0 1 0 1 0 
1 0 1 0 1 0 1 0 0 -4 1 0 1 0 1 0 
1 0 1 0 1 0 1 0 1 0 1 0 1 0 1 0 
0 -4 1 0 0 -3 1 0 1 0 1 0 1 0 1 0 
1 0 1 0 1 0 1 0 1 0 1 0 1 0 1 0 
1 0 1 0 1 0 1752 4384 100 MP stroke
1 0 1 0 1 0 1 0 1 0 1 0 1 0 1 0 
1 0 1 0 1 0 1 0 1 0 1 0 1 0 1 0 
1 0 1 0 1 0 0 -4 1 0 1 0 1 0 1 0 
1 0 1 0 1 0 1 0 1 0 0 -4 1 0 1 0 
1 0 1 0 1 0 1 0 1 0 1 0 1 0 1 0 
1 0 1 0 1 0 1 0 1 0 1 0 1 0 1 0 
0 -4 1 0 1 0 1 0 1 0 1 0 1 0 1 0 
1 0 1 0 1 0 1 0 1 -3 1 0 1 0 1 0 
0 -4 1 0 1 0 1 0 1 0 1 0 1 0 1 0 
1 0 1 0 1 0 1 0 0 -4 1 0 1 0 1 0 
1 0 1 0 1 0 1 0 1 0 1 0 1 0 1 0 
1 0 1 0 1 0 1 0 1 0 1 0 1 0 1 0 
1 0 1 0 1 -1 1658 4408 100 MP stroke
1 0 1 0 1 0 1 0 1 0 1 0 1 0 0 -4 
1 0 1 0 1 0 1 0 1 0 1 0 1 0 1 0 
0 -3 1 0 1 0 0 -3 1 0 1 0 1 0 1 0 
1 0 1 0 1 0 1 0 1 0 1 0 1 0 1 0 
1 0 1 0 1 0 1 0 1 0 1 0 1 0 1 0 
1 0 1 0 1 0 1 0 1 0 1 0 1 0 1 0 
1 0 1 0 1 0 1 0 1 0 1 0 1 0 1 0 
1 0 1 0 1 0 0 -4 1 0 1 0 1 0 0 -4 
1 0 1 0 1 0 1 0 1 0 0 -3 1 0 1 0 
1 0 1 0 1 0 1 0 1 0 1 0 1 0 1 0 
1 0 1 0 1 0 1 0 0 -4 1 0 1 0 1 0 
1 0 1 0 1 0 1 0 1 0 1 0 1 0 1 0 
1 0 1 0 1 0 1566 4433 100 MP stroke
1 0 0 -4 1 0 1 0 1 0 1 0 1 0 0 -4 
1 0 1 0 1 0 0 -4 1 0 1 0 1 0 1 0 
1 0 1 0 1 0 1 0 1 0 1 0 1 0 1 0 
1 0 1 0 1 0 1 0 1 0 1 0 1 0 1 0 
1 0 1 0 0 -3 1 0 1 0 1 0 1 0 1 0 
1 0 1 0 1 0 1 0 1 0 1 0 1 0 1 0 
1 0 1 -4 1 0 0 -3 1 0 1 0 1 0 1 0 
1 0 1 0 1 0 1 0 1 0 0 -4 1 0 1 0 
1 0 1 0 1 0 1 0 1 0 1 0 1 0 0 -7 
1 0 1 0 1 0 1 0 1 0 1 0 1 0 1 0 
1 0 1 0 1 0 1 0 1 0 1 0 1 0 1 0 
1 0 1 0 0 -4 1 0 1 0 1 0 1 0 1 0 
1 0 1 0 1 0 1475 4470 100 MP stroke
1 0 1 0 1 0 1 0 1 0 1 0 1 0 1 0 
1 0 1 0 1 0 1 0 0 -4 1 0 1 0 1 0 
1 0 1 0 1 0 0 -3 1 0 1 0 1 0 1 0 
1 0 1 0 1 0 1 0 1 0 1 0 1 0 0 -4 
1 0 1 0 1 0 1 0 1 0 1 0 1 0 1 0 
1 0 1 0 1 0 1 0 1 0 1 0 1 0 1 0 
1 0 1 0 1 0 1 0 1 0 0 -4 1 0 1 0 
1 0 1 0 1 0 1 0 1 0 1 0 1 0 1 0 
1 0 0 -4 1 0 1 0 1 0 1 0 1 0 1 0 
1 0 1 0 1 0 0 -3 1 0 0 -4 1 0 1 0 
1 0 1 0 1 0 1 0 1 0 0 -4 1 0 1 0 
1 0 1 0 1 0 1 0 1 0 1 0 1 0 1 0 
1 0 1 0 1 0 1384 4500 100 MP stroke
1 0 0 -4 1 0 1 0 1 0 1 0 1 0 1 0 
1 0 1 0 1 0 1 0 1 0 1 0 1 0 1 0 
1 0 1 0 1 0 1 0 0 -7 1 0 1 0 1 0 
1 0 1 0 1 0 1 0 1 0 0 -4 1 0 0 -4 
1 0 1 0 1 0 1 0 1 0 1 0 0 -3 1 0 
1 0 1 0 1 0 1 0 1 0 1 0 1 0 1 0 
1 0 1 0 1 0 1 0 1 0 1 0 1 0 1 0 
1 0 1 0 1 0 1 0 1 0 1 0 0 -4 1 0 
1 0 1 0 0 -4 1 0 1 0 1 0 1 0 1 0 
1 0 1 0 1 0 1 0 1 0 1 0 1 0 1 0 
0 -7 1 0 1 -1 1 0 1 0 1 0 1 0 1 0 
1 0 1 0 1 0 1 0 1 0 1 0 1 0 1 0 
1 0 1 0 1 0 1293 4538 100 MP stroke
1 0 1 0 1 0 1 0 1 0 1 0 1 0 1 0 
1 0 1 0 0 -4 1 0 1 0 1 0 1 0 1 0 
1 0 1 0 1 0 1 0 1 0 0 -4 1 0 1 0 
1 0 1 0 1 0 1 0 1 0 0 -1 0 1 1 -5 
1 0 1 0 0 -3 1 0 1 0 1 0 1 0 1 0 
1 0 1 0 1 0 1 0 1 0 1 0 1 0 1 0 
1 0 1 0 1 0 1 0 1 0 1 0 1 0 1 0 
1 0 1 0 1 0 1 0 1 0 1 0 1 0 1 0 
1 0 1 0 1 0 1 0 1 0 1 0 1 0 1 0 
1 0 1 0 1 0 0 -4 1 0 1 0 1 0 1 0 
1 0 0 -4 1 0 1 0 1 0 1 0 1 0 1 0 
1 0 1 0 0 -4 1 0 1 0 1 0 1 0 1 0 
1 0 1 0 1 0 1202 4566 100 MP stroke
1 0 1 0 1 0 1 0 1 0 1 0 1 0 1 0 
1 0 1 0 1 0 1 0 1 0 1 0 1 0 1 0 
1 0 1 0 1 0 0 -3 1 0 1 0 1 0 1 0 
1 0 1 0 0 -4 1 0 1 0 1 0 1 0 1 0 
1 0 1 0 0 -4 1 0 1 0 1 0 1 0 1 0 
1 0 1 0 1 0 0 -4 1 0 1 0 1 0 1 0 
1 0 1 0 1 0 1 0 1 0 1 0 1 0 1 0 
1 0 1 0 1 0 1 0 1 0 1 0 1 0 1 0 
0 -3 1 0 1 0 1 0 1 0 0 -3 1 0 1 0 
1 0 1 0 1 0 1 0 1 0 1 0 1 0 1 0 
1 0 1 0 1 0 0 -4 1 0 1 0 1 0 1 0 
1 0 1 -4 1 0 1 0 1 0 1 0 1 0 1 0 
1 0 1 0 1 0 1110 4595 100 MP stroke
1 0 1 0 1 0 1 0 1 0 0 -2 1 0 1 0 
1 0 1 0 1 0 1 0 1 0 1 0 1 0 1 0 
1 0 1 0 1 0 1 0 1 0 1 0 1 0 1 0 
1 0 1 0 1 0 1 0 1 0 1 0 1 0 1 0 
1 0 1 0 1 0 1 0 1 0 1 0 1 0 1 0 
1 0 1 0 1 0 0 -3 1 0 1 0 1 0 1 0 
1 0 1 0 1 0 1 0 1 0 1 0 1 0 1 0 
1 0 1 0 1 0 1 0 1 0 1 0 1 0 1 0 
1 0 0 -4 1 0 1 0 1 0 1 0 1 0 1 0 
1 0 1 0 1 0 1 0 1 0 1 0 1 0 1 0 
1 0 1 0 1 0 1 0 1 0 1 0 1 0 1 0 
0 -4 1 0 1 0 1 0 1 0 1 0 1 0 1 0 
1 0 1 0 0 -4 1016 4612 100 MP stroke
1 0 1 0 1 0 1 0 1 0 1 0 1 0 1 0 
1 0 1 0 1 0 1 0 1 0 1 0 1 0 1 0 
1 0 1 0 1 0 1 0 1 0 1 0 1 0 1 0 
1 0 1 0 1 0 1 0 1 0 1 0 1 0 1 0 
1 0 1 0 1 0 1 0 1 0 1 0 1 0 1 0 
1 0 1 0 1 0 1 0 1 0 1 0 1 0 1 0 
1 0 1 0 1 0 1 0 1 0 1 0 1 0 1 0 
1 0 1 0 1 0 1 0 1 0 1 0 1 0 1 0 
1 0 1 0 1 0 1 0 1 0 1 0 0 -2 1 0 
1 0 1 0 1 0 1 0 1 0 1 0 1 0 1 0 
1 0 1 0 1 0 1 0 1 0 1 0 1 0 1 0 
1 0 1 0 1 0 1 0 1 0 1 0 1 0 1 0 
1 0 1 0 1 0 918 4614 100 MP stroke
1 0 1 0 1 0 1 0 1 0 1 0 1 0 1 0 
1 0 1 0 1 0 1 0 1 -1 1 0 1 0 1 0 
1 0 1 0 1 0 899 4615 20 MP stroke
/c9 { 0.000000 0.500000 0.000000 sr} bdef
c9
1 0 1 0 1 0 1 0 1 0 1 0 1 0 0 -4 
1 0 1 0 1 0 1 0 1 0 1 0 1 0 1 0 
0 -3 1 0 1 0 1 0 1 0 1 0 1 0 1 0 
1 0 1 0 1 0 1 0 1 0 1 0 1 0 1 0 
0 -4 1 0 1 0 1 0 1 0 1 0 1 0 1 0 
1 0 0 -4 1 0 1 0 1 0 1 0 1 0 1 0 
0 -4 1 0 1 0 1 0 1 0 1 0 1 0 1 0 
1 0 1 0 1 0 0 -3 1 0 1 0 1 0 1 0 
1 0 1 0 1 0 0 -4 1 0 1 0 1 0 1 0 
0 -4 1 0 1 0 1 0 1 0 1 0 1 0 1 0 
0 -4 1 0 1 0 1 0 1 0 1 0 1 0 1 0 
1 0 1 0 1 0 1 0 1 0 1 0 1 0 1 0 
1 0 1 0 0 -3 6166 1501 100 MP stroke
1 0 1 0 1 0 1 0 1 0 0 -4 1 0 1 0 
1 0 1 0 1 0 0 -4 1 0 1 0 1 0 1 0 
1 0 0 -4 1 0 1 0 1 0 1 0 1 0 1 0 
1 0 1 0 1 0 1 0 1 0 1 0 0 -3 1 0 
1 0 1 0 1 0 1 0 1 0 1 0 1 0 1 0 
1 0 1 0 1 0 1 0 1 0 1 0 0 -4 1 0 
1 0 1 0 1 0 1 0 1 0 1 0 1 0 1 0 
0 -4 1 0 0 -4 1 0 1 0 1 0 1 0 1 0 
1 0 0 -3 1 0 1 0 0 -4 1 0 1 0 1 0 
1 0 1 0 1 0 1 0 1 0 1 0 1 0 1 0 
1 0 1 0 0 -4 1 0 1 0 1 0 1 0 1 0 
1 0 1 0 1 0 1 0 1 0 1 0 1 0 1 0 
1 0 1 0 1 0 6077 1539 100 MP stroke
1 0 0 -4 1 0 1 0 1 0 1 0 1 0 1 0 
1 0 0 -3 1 0 1 0 1 0 1 0 1 0 1 0 
1 0 1 0 1 0 1 0 1 0 1 0 0 -4 1 0 
1 0 1 0 1 0 1 0 1 0 1 0 1 0 1 0 
0 -4 1 0 1 0 0 -4 1 0 1 0 1 0 1 0 
0 -3 1 0 1 0 1 0 1 0 1 0 1 0 1 0 
1 0 1 0 1 0 1 0 1 0 1 0 1 0 1 0 
1 0 1 0 1 0 1 0 1 0 1 0 0 -4 1 0 
1 0 1 0 1 0 1 0 1 0 1 0 1 0 0 -4 
1 0 1 0 0 -4 1 0 1 0 1 0 1 0 1 0 
1 0 1 0 1 0 1 0 1 0 1 0 1 0 1 0 
1 0 1 0 1 0 0 -3 1 0 1 0 1 0 1 0 
1 0 1 0 1 0 5988 1576 100 MP stroke
1 0 1 0 1 0 1 0 1 0 1 0 0 -4 1 0 
1 0 1 0 1 0 0 -4 1 0 1 0 1 0 1 0 
0 -4 1 0 1 0 1 0 0 -4 1 0 1 0 1 0 
1 0 1 0 1 0 1 0 1 0 1 0 1 0 1 0 
1 0 1 0 1 0 1 0 0 -3 1 0 1 0 1 0 
1 0 1 0 1 0 1 0 0 -4 1 0 1 0 0 -4 
1 0 1 0 1 0 1 0 1 0 1 0 1 0 1 0 
1 0 1 0 0 -4 1 0 1 0 1 0 1 0 1 0 
1 0 0 -3 1 0 1 0 1 0 1 0 1 0 1 0 
1 0 1 0 1 0 1 0 1 0 1 0 1 0 1 0 
1 0 0 -8 1 0 1 0 1 0 1 0 1 0 1 0 
0 -7 1 0 1 0 1 0 1 0 1 0 1 0 1 0 
1 0 1 0 1 0 5900 1625 100 MP stroke
1 0 1 0 1 0 1 0 1 0 0 -4 1 0 0 -4 
1 0 1 0 1 0 1 0 1 0 1 0 1 0 1 0 
1 0 1 0 1 0 1 0 1 0 1 0 1 0 1 0 
1 0 1 0 1 0 1 0 0 -4 1 0 1 0 1 0 
1 0 1 0 1 0 1 0 0 -3 1 0 1 0 1 0 
1 0 0 -4 1 0 0 -4 1 0 1 0 1 0 0 -4 
1 0 1 0 1 0 1 0 1 0 1 0 1 0 1 0 
1 0 0 -3 1 0 1 0 1 0 1 0 1 0 1 0 
1 0 1 0 1 0 0 -4 1 0 1 0 1 0 1 0 
1 0 1 0 1 0 1 0 1 0 1 0 1 0 1 0 
0 -4 1 0 1 0 1 0 1 0 1 0 1 0 1 0 
1 0 1 0 1 0 1 0 1 0 1 0 1 0 1 0 
1 0 0 -4 1 0 5812 1667 100 MP stroke
1 0 1 0 0 -3 1 0 1 0 1 0 1 0 1 0 
1 0 1 0 1 0 1 0 0 -4 1 0 1 0 1 0 
1 0 1 0 0 -4 1 0 1 0 1 0 1 0 1 0 
1 0 1 0 1 0 0 -4 1 0 1 0 0 -3 1 0 
1 0 1 0 1 0 1 0 1 0 1 0 1 0 1 0 
1 0 1 0 1 0 1 0 1 0 0 -4 1 0 1 0 
0 -4 1 0 1 0 1 0 0 -4 1 0 1 0 1 0 
1 0 1 0 1 0 1 0 0 -3 1 0 1 0 1 0 
1 0 1 0 1 0 1 0 0 -4 1 0 1 0 1 0 
1 0 1 0 1 0 1 0 1 0 1 0 1 0 1 0 
1 0 1 0 1 0 1 0 1 0 1 0 1 0 1 0 
1 -4 0 -4 1 0 1 0 1 0 0 -3 1 0 1 0 
1 0 1 0 1 0 5725 1715 100 MP stroke
0 -4 1 0 1 0 1 0 1 0 1 0 1 0 1 0 
1 0 1 0 1 0 1 0 1 0 1 0 1 0 1 0 
1 0 1 0 1 0 0 -4 1 0 0 -4 1 0 1 0 
1 0 1 0 0 -3 1 0 1 0 1 0 0 -4 1 0 
1 0 1 0 1 0 1 0 1 0 1 0 1 0 1 0 
1 0 1 0 0 -4 1 0 1 0 1 0 1 0 1 0 
1 0 1 0 1 0 1 0 1 0 1 0 1 0 0 -4 
1 0 1 0 0 -4 1 0 1 0 1 0 1 0 0 -3 
1 0 1 0 1 0 1 0 1 0 0 -4 1 0 1 0 
1 0 1 0 1 0 1 0 1 0 1 0 1 0 1 0 
0 -4 1 0 1 0 1 0 1 0 1 0 1 0 1 0 
1 0 1 0 1 0 1 0 1 0 0 -4 1 0 1 0 
0 -3 1 0 1 0 5639 1764 100 MP stroke
1 0 1 0 1 0 1 0 0 -4 1 0 1 0 1 0 
1 0 1 0 1 0 1 0 1 0 1 0 1 0 1 0 
0 -4 1 0 1 0 1 0 1 0 1 0 0 -4 1 0 
1 0 1 0 1 0 1 0 1 0 1 0 1 0 1 0 
1 0 1 0 1 0 0 -3 1 0 1 0 1 0 0 -4 
1 0 1 0 1 0 1 0 1 0 1 0 1 0 1 0 
1 0 1 0 1 0 1 0 0 -4 1 0 1 0 1 0 
1 0 1 0 1 0 1 0 1 0 1 0 1 0 1 0 
1 0 1 0 1 0 1 0 0 -4 1 0 1 0 0 -3 
1 0 1 0 1 0 1 0 1 0 1 0 1 0 0 -4 
1 0 1 0 1 0 1 0 0 -4 1 0 1 0 1 0 
1 0 1 0 1 0 1 0 1 0 1 0 1 0 1 0 
1 0 1 0 0 -4 5551 1806 100 MP stroke
1 0 1 0 1 0 1 0 1 0 1 0 1 0 1 0 
1 -3 0 -4 1 0 1 0 1 0 1 0 1 0 1 0 
1 0 1 0 1 0 1 0 1 0 1 0 1 0 1 0 
1 0 1 0 1 0 1 0 1 0 1 0 1 0 0 -4 
1 0 1 0 1 0 1 0 1 0 1 0 1 0 0 -4 
1 0 1 0 1 0 1 0 0 -3 1 0 1 0 1 0 
1 0 1 0 1 0 1 0 1 0 1 0 1 0 1 0 
1 0 1 0 1 0 1 0 1 0 0 -4 1 0 1 0 
1 0 1 0 1 0 1 0 1 0 1 0 1 0 1 0 
0 -4 1 0 1 0 1 0 1 0 0 -4 1 0 1 0 
1 0 1 0 0 -3 1 0 0 -4 1 0 1 0 1 0 
1 0 1 0 1 0 1 0 1 0 1 0 1 0 1 0 
1 0 1 0 1 0 5461 1843 100 MP stroke
1 0 1 0 0 -4 1 0 1 0 1 0 1 0 1 0 
1 0 1 0 0 -7 1 0 1 0 1 0 1 0 0 -4 
1 0 1 0 1 0 1 0 1 0 1 0 1 0 0 -4 
1 0 1 0 1 0 1 0 1 0 1 0 1 0 1 0 
1 0 1 0 1 0 1 0 1 0 1 0 1 0 1 0 
1 0 1 0 1 0 1 0 1 0 1 0 1 0 1 0 
1 0 1 0 0 -4 1 -3 1 0 1 0 1 0 1 0 
1 0 1 0 1 0 1 0 1 0 1 0 1 0 0 -4 
1 0 1 0 1 0 1 0 0 -4 1 0 1 0 1 0 
1 0 1 0 1 0 1 0 1 0 1 0 1 0 1 0 
1 0 1 0 1 0 1 0 1 0 1 0 1 0 0 -8 
1 0 1 0 1 0 1 0 1 0 1 0 1 0 1 0 
1 0 1 0 1 0 5370 1885 100 MP stroke
1 0 1 0 1 0 1 0 0 -3 1 0 1 0 0 -4 
1 0 1 0 1 0 1 0 1 0 1 0 1 0 1 0 
0 -4 1 0 1 0 1 0 1 0 1 0 1 0 1 0 
1 0 1 0 1 0 1 0 0 -4 1 0 1 0 1 0 
1 0 0 -3 1 0 1 0 1 0 1 0 1 0 0 -4 
1 0 1 0 1 0 1 0 0 -4 1 0 1 0 1 0 
0 -4 1 0 1 0 1 0 1 0 1 0 1 0 1 0 
1 0 1 0 1 0 1 0 1 0 1 0 0 -3 1 0 
1 0 1 0 1 0 1 0 1 0 0 -4 1 0 1 0 
1 0 0 -4 1 0 1 0 1 0 1 0 1 0 1 0 
1 0 1 0 1 0 1 0 1 0 1 0 1 0 1 0 
1 0 1 0 0 -4 1 0 1 -3 1 0 1 0 1 0 
1 0 1 0 1 0 5283 1933 100 MP stroke
1 0 1 0 1 0 1 0 0 -4 1 0 1 0 1 0 
1 0 0 -4 1 0 1 0 1 0 1 0 1 0 1 0 
1 0 1 0 1 0 0 -4 1 0 1 0 1 0 1 0 
1 0 1 0 0 -3 1 0 1 0 1 0 1 0 0 -4 
1 0 1 0 1 0 1 0 1 0 1 0 1 0 1 0 
1 0 1 0 1 0 1 0 1 0 1 0 1 0 1 0 
1 0 1 0 1 0 0 -4 1 0 1 0 1 0 1 0 
1 0 1 0 0 -4 1 0 1 0 1 0 1 0 0 -3 
1 0 1 0 1 0 0 -4 1 0 1 0 1 0 1 0 
1 0 1 0 1 0 1 0 1 0 1 0 1 0 1 0 
1 0 1 0 1 0 1 0 1 0 1 0 1 0 1 0 
1 0 0 -4 1 0 1 0 1 0 1 0 1 0 1 0 
1 0 0 -7 1 -4 5195 1982 100 MP stroke
1 0 1 0 1 0 1 0 1 0 1 0 1 0 1 0 
1 0 1 0 1 0 1 0 1 0 1 0 0 -4 1 0 
1 0 1 0 0 -4 1 0 1 0 1 0 1 0 1 0 
1 0 1 0 1 0 1 0 0 -3 1 0 1 0 1 0 
1 0 0 -4 1 0 1 0 1 0 1 0 1 0 1 0 
1 0 1 0 1 0 1 0 1 0 1 0 1 0 0 -4 
1 0 1 0 1 0 1 0 1 0 1 0 1 0 0 -4 
1 0 1 0 1 0 1 0 1 0 1 0 1 0 1 0 
1 0 1 0 1 0 1 0 1 0 1 0 1 0 1 0 
1 0 1 0 1 0 1 0 1 0 1 0 1 0 0 -3 
1 0 1 0 1 0 1 0 0 -4 1 0 1 0 1 0 
1 0 1 -4 1 0 1 0 1 0 1 0 0 -4 1 0 
1 0 1 0 1 0 5105 2020 100 MP stroke
1 0 1 0 1 0 1 0 1 0 1 0 1 0 1 0 
1 0 1 0 1 0 1 0 1 0 1 0 0 -3 1 0 
0 -4 1 0 1 0 1 0 1 0 1 -4 1 0 1 0 
1 0 1 0 1 0 1 0 1 0 1 0 1 0 1 0 
1 0 1 0 1 0 1 0 1 0 1 0 0 -4 1 0 
1 0 1 0 1 -1 0 -3 1 0 1 0 1 0 1 0 
1 0 1 0 1 0 1 0 1 0 0 -4 1 0 1 0 
1 0 1 0 1 0 1 0 1 0 1 0 1 0 1 0 
0 -4 1 0 0 -4 1 0 1 0 1 0 1 0 1 0 
1 0 1 0 1 0 1 0 0 -3 1 0 1 0 1 0 
1 0 1 0 1 0 1 0 1 0 0 -4 1 0 1 0 
1 0 1 0 1 0 1 0 1 0 1 0 1 0 1 0 
1 0 1 0 1 0 5015 2058 100 MP stroke
1 0 1 0 1 0 1 0 1 0 1 0 1 0 1 0 
0 -8 1 0 1 0 1 0 1 0 1 0 1 0 1 0 
0 -4 1 0 1 0 0 -3 1 0 1 0 1 0 1 0 
1 0 1 0 1 0 1 0 1 0 1 0 1 0 1 0 
1 0 1 0 1 0 0 -4 1 0 1 0 1 0 1 0 
1 0 1 0 1 0 1 0 1 0 1 0 0 -4 1 0 
1 0 1 0 1 0 1 0 1 0 1 0 0 -7 1 0 
1 0 1 0 1 0 1 0 0 -4 1 0 1 0 1 0 
1 0 1 0 1 0 1 0 1 0 1 0 1 0 1 0 
1 0 1 0 1 0 1 0 0 -4 1 0 1 0 1 0 
1 0 1 0 1 0 1 0 1 0 0 -4 1 0 1 0 
0 -3 1 0 0 -4 1 0 1 0 1 0 1 0 1 0 
1 0 1 0 1 0 4927 2107 100 MP stroke
1 0 1 0 1 0 1 0 1 0 1 0 1 0 1 0 
0 -4 1 0 1 0 1 0 1 0 1 0 1 0 0 -4 
1 0 1 0 1 0 1 0 1 0 1 0 0 -3 1 0 
1 0 1 0 1 0 1 0 1 0 1 0 0 -4 1 0 
1 0 1 0 1 0 1 0 1 0 1 0 1 0 1 0 
1 0 0 -4 1 0 1 0 1 0 1 0 1 0 1 0 
1 0 1 0 1 0 1 0 1 0 0 -4 1 0 1 0 
1 0 1 0 1 0 1 0 1 0 1 0 1 0 1 0 
1 0 1 0 0 -3 1 0 1 0 1 0 0 -4 1 0 
1 0 1 0 1 0 0 -4 1 0 1 0 1 0 1 0 
1 0 0 -4 1 0 1 0 1 0 1 0 1 0 1 0 
1 0 1 0 1 0 1 0 1 0 1 0 1 0 1 0 
1 0 1 0 1 0 4838 2145 100 MP stroke
1 0 0 -3 1 0 1 0 1 0 1 0 0 -4 1 0 
1 0 1 0 1 0 1 0 1 0 1 0 1 0 1 0 
0 -11 1 0 1 0 1 0 1 0 1 0 1 0 1 0 
1 0 1 0 0 -4 1 0 1 0 1 0 1 0 1 0 
1 0 1 0 1 0 1 0 1 0 1 0 1 0 1 0 
1 0 1 0 0 -4 1 0 1 0 1 0 1 0 0 -4 
1 0 1 0 1 0 0 -7 1 0 1 0 1 0 1 0 
1 0 1 0 1 0 1 0 1 0 1 0 1 0 1 0 
1 0 1 0 1 0 1 0 1 0 1 0 0 -8 1 0 
1 0 1 0 1 0 1 0 1 0 0 -3 1 0 1 0 
1 0 1 0 1 0 1 0 1 0 1 0 1 0 1 0 
1 0 1 0 1 0 1 0 1 0 0 -4 1 0 1 0 
1 0 1 0 0 -4 4750 2201 100 MP stroke
1 0 1 0 1 0 1 0 1 0 1 0 0 -4 1 0 
1 0 1 0 1 0 1 0 1 0 0 -3 1 0 0 -4 
1 0 1 0 1 0 1 0 1 0 1 0 1 0 1 0 
1 0 1 0 1 0 1 0 1 0 1 0 1 0 1 0 
0 -4 1 0 1 0 1 0 1 0 1 0 1 0 0 -4 
1 0 1 0 1 0 1 0 0 -4 1 0 1 0 1 0 
1 0 1 0 1 0 1 0 0 -3 1 0 1 0 1 0 
1 0 1 0 1 0 1 0 1 0 0 -4 1 0 1 0 
1 0 1 0 1 0 1 0 1 0 0 -8 1 0 1 0 
1 0 1 0 0 -3 1 0 1 0 1 0 1 0 1 0 
1 0 1 0 1 0 1 0 1 0 1 0 1 0 0 -4 
1 0 0 -4 1 0 1 0 0 -4 1 0 1 0 1 0 
1 0 1 0 1 0 4664 2254 100 MP stroke
1 0 1 0 1 0 1 0 1 0 1 0 1 0 1 0 
0 -3 1 0 1 0 1 0 1 0 1 0 1 0 0 -4 
1 0 1 0 1 0 1 0 1 0 1 0 1 0 1 0 
1 0 1 0 1 0 1 0 1 0 0 -4 1 0 1 0 
1 0 1 0 1 0 0 -4 1 0 1 0 1 0 1 0 
1 0 1 0 1 0 1 0 1 0 0 -3 1 0 1 0 
1 0 1 0 1 0 1 0 1 0 1 0 1 0 1 0 
0 -4 1 0 1 0 1 0 1 0 0 -4 1 0 1 0 
1 0 1 0 1 0 1 0 1 0 0 -4 1 0 1 0 
1 0 1 0 0 -3 1 0 1 0 1 0 1 0 1 0 
1 0 1 0 1 0 1 0 1 0 1 0 1 0 1 0 
1 0 1 0 1 0 0 -4 1 0 1 -4 1 0 1 0 
1 0 1 0 1 0 4575 2295 100 MP stroke
1 0 1 0 1 0 1 0 0 -4 1 0 1 0 1 0 
1 0 1 0 0 -3 1 0 1 0 1 0 1 0 0 -4 
1 0 1 0 1 0 1 0 1 0 1 0 1 0 1 0 
1 0 1 0 1 0 1 0 0 -4 1 0 1 0 1 0 
1 0 0 -4 1 0 1 0 1 0 1 0 0 -3 1 0 
1 0 1 0 1 0 1 0 1 0 1 0 1 0 1 0 
1 0 1 0 1 0 1 0 1 0 1 0 1 0 1 0 
1 0 1 0 0 -4 1 0 1 0 1 0 1 0 0 -4 
1 0 1 0 0 -4 1 0 1 0 1 0 1 0 1 0 
1 0 1 0 0 -3 1 0 1 0 1 0 1 0 1 0 
1 0 1 0 1 0 1 0 1 0 1 0 0 -4 1 0 
1 0 1 0 1 0 1 0 1 0 1 0 1 0 1 0 
1 0 1 0 0 -4 4488 2340 100 MP stroke
1 0 1 0 1 0 1 0 1 0 0 -4 1 0 0 -3 
1 0 1 0 1 0 1 0 1 0 1 0 0 -4 1 0 
1 0 1 0 1 0 1 0 1 0 1 0 1 0 1 0 
1 0 1 0 1 0 0 -4 1 0 1 0 0 -4 1 0 
1 0 1 0 1 0 1 0 0 -4 1 0 1 0 1 0 
1 0 1 0 1 0 1 0 1 0 0 -3 1 0 1 0 
1 0 1 0 1 0 1 0 1 0 0 -4 1 0 1 0 
1 0 1 0 0 -4 1 0 1 0 1 0 1 0 1 0 
1 0 1 0 1 0 1 0 1 0 1 0 1 0 1 0 
1 0 0 -4 1 0 1 0 1 0 1 0 0 -3 1 0 
1 0 1 0 1 0 1 0 1 0 1 0 1 0 0 -4 
1 0 1 0 0 -4 1 0 1 0 1 0 1 0 1 0 
1 0 1 0 1 0 4402 2389 100 MP stroke
1 0 1 0 1 0 1 0 1 0 1 0 1 0 1 0 
0 -4 1 0 1 0 1 0 1 0 1 0 0 -7 1 0 
1 0 1 0 1 0 1 0 1 0 1 0 1 0 1 0 
1 0 1 0 1 0 0 -4 1 0 1 0 1 0 1 0 
1 0 1 0 1 0 1 0 0 -7 1 0 1 0 1 0 
1 0 1 0 1 0 1 0 1 0 1 0 0 -4 1 0 
1 0 1 0 0 -4 1 0 1 0 1 0 1 0 1 0 
1 0 1 0 1 0 1 0 1 0 1 0 1 0 1 0 
1 0 0 -4 1 0 1 0 1 0 0 -3 1 0 0 -4 
1 0 1 0 1 0 1 0 1 0 1 0 1 0 1 0 
1 0 0 -4 1 0 1 0 0 -4 1 0 1 0 1 0 
1 0 1 0 1 0 1 0 1 0 1 0 1 0 1 0 
1 0 1 0 1 0 4314 2438 100 MP stroke
1 0 1 0 1 0 1 0 1 0 1 0 1 0 1 0 
1 0 0 -7 1 0 1 0 1 0 1 0 0 -4 1 0 
1 0 0 -4 1 0 1 0 1 0 1 0 1 0 1 0 
1 0 1 0 1 0 1 0 1 0 1 0 1 0 1 0 
1 0 1 0 1 0 0 -3 1 0 0 -4 1 -4 1 0 
1 0 1 0 1 0 1 0 1 0 1 0 1 0 1 0 
1 0 1 0 1 0 1 0 0 -4 1 0 1 0 0 -3 
1 0 1 0 0 -4 1 0 1 0 0 -4 1 0 1 0 
1 0 1 0 1 0 1 0 1 0 1 0 1 0 0 -4 
1 0 1 0 1 0 1 0 1 0 1 0 1 0 1 0 
0 -3 1 0 1 0 1 0 1 0 1 0 1 0 1 0 
0 -4 1 0 1 0 1 0 1 0 1 0 1 0 1 0 
1 0 1 0 1 0 4227 2490 100 MP stroke
1 0 1 0 1 0 1 0 0 -4 1 0 1 0 0 -4 
1 0 1 0 1 0 1 0 1 0 1 0 1 0 1 0 
1 0 0 -4 1 0 0 -3 1 0 1 0 1 0 1 0 
1 0 1 0 1 0 1 0 1 0 1 0 1 0 1 0 
0 -4 1 0 1 0 1 0 1 0 1 0 1 0 1 0 
1 0 1 0 1 0 1 0 1 0 1 0 1 0 0 -8 
1 0 1 0 1 0 1 0 1 0 1 0 1 0 0 -3 
1 0 1 0 1 0 1 0 1 0 1 0 1 0 1 0 
0 -4 1 0 1 0 1 0 1 0 1 0 1 0 1 0 
0 -4 1 0 1 0 0 -4 1 0 1 0 1 0 1 0 
1 0 1 0 1 0 1 0 1 0 1 0 0 -3 1 0 
1 0 1 0 1 0 1 0 1 0 1 0 0 -4 1 0 
1 0 1 0 0 -4 4141 2543 100 MP stroke
1 0 1 0 1 0 1 0 1 0 0 -4 1 0 1 0 
1 0 1 0 1 0 1 0 1 0 1 0 1 0 1 0 
1 0 1 0 1 0 0 -3 1 0 1 0 1 0 1 0 
1 0 1 0 1 0 0 -4 1 0 1 0 1 0 1 0 
1 0 1 0 1 0 1 0 1 0 1 0 0 -4 1 0 
0 -4 1 0 1 0 1 0 1 0 0 -3 1 0 1 0 
1 0 1 0 1 0 1 0 0 -4 1 0 1 0 1 0 
0 -4 1 0 1 0 1 0 1 0 1 0 1 0 1 0 
1 -4 1 0 1 0 1 0 1 0 1 0 1 0 1 0 
1 0 1 0 0 -3 1 0 1 0 1 0 1 0 1 0 
0 -4 1 0 0 -4 1 0 1 0 1 0 1 0 0 -4 
1 0 1 0 1 0 1 0 1 0 1 0 1 0 1 0 
1 0 1 0 1 0 4054 2592 100 MP stroke
1 0 1 0 1 0 1 0 1 0 1 0 0 -3 1 0 
1 0 0 -4 1 0 1 0 1 0 1 0 1 0 0 -4 
1 0 1 0 1 0 1 0 1 0 0 -4 1 0 1 0 
1 0 1 0 1 0 1 0 1 0 1 0 1 0 1 0 
1 0 1 0 1 0 0 -3 1 0 1 0 1 0 1 0 
1 0 1 0 1 0 1 0 1 0 1 0 1 0 1 0 
0 -4 1 0 1 0 0 -4 1 0 1 0 1 0 1 0 
1 0 1 0 1 0 1 0 1 0 1 0 1 0 1 0 
1 0 0 -4 1 0 1 0 1 0 1 0 1 0 0 -3 
1 0 1 0 1 0 1 0 1 0 1 0 1 0 1 0 
1 0 1 0 0 -4 1 0 0 -4 1 0 1 0 1 0 
1 0 1 0 1 0 1 0 1 0 1 0 1 0 1 0 
0 -4 1 0 1 0 3967 2637 100 MP stroke
0 -7 1 0 1 0 1 0 1 0 1 0 1 0 1 0 
1 0 1 0 1 0 1 0 1 -4 1 0 1 0 1 0 
1 0 1 0 1 0 1 0 1 0 1 0 1 -4 1 0 
1 0 1 0 1 0 1 0 1 0 1 0 1 0 1 0 
1 0 1 0 0 -7 1 0 0 -8 1 0 1 0 1 0 
1 0 1 0 1 0 1 0 1 0 1 0 1 0 1 0 
1 0 1 0 1 0 1 0 1 0 1 0 1 0 1 0 
1 0 1 0 1 0 1 0 1 0 1 0 0 -4 1 0 
1 0 1 0 1 0 0 -3 1 0 0 -4 1 0 1 0 
1 0 1 0 1 0 1 0 1 0 1 0 1 0 1 0 
1 0 1 0 1 0 1 0 1 0 1 0 1 0 1 0 
1 0 1 0 0 -4 1 -4 1 0 1 0 1 0 0 -3 
1 0 1 0 0 -4 3877 2693 100 MP stroke
1 0 1 0 1 0 1 0 1 0 1 0 1 0 1 0 
1 0 1 0 1 0 1 0 1 0 1 0 1 0 1 0 
1 0 1 0 1 0 1 0 1 0 1 0 1 -4 1 0 
0 -4 1 0 0 -3 1 0 1 0 1 0 1 0 1 0 
1 0 1 0 1 0 1 0 1 0 0 -4 1 0 1 0 
1 0 0 -4 1 0 1 0 1 0 1 0 1 0 0 -4 
1 0 1 0 1 0 1 0 1 0 1 0 1 0 1 0 
1 0 1 0 1 0 1 0 1 0 1 0 1 0 1 0 
0 -3 1 0 1 0 1 0 1 0 0 -4 1 0 1 0 
1 0 1 0 1 0 1 -4 1 0 1 0 1 0 1 0 
1 0 1 0 1 0 1 0 0 -4 1 0 1 0 1 0 
1 0 0 -3 1 0 1 0 1 0 1 0 0 -4 1 0 
1 0 0 -4 1 0 3789 2742 100 MP stroke
1 0 1 0 1 0 1 0 1 0 1 0 1 0 1 0 
1 0 1 0 1 0 0 -4 1 0 1 0 1 0 1 0 
1 0 1 0 0 -3 1 0 1 0 1 0 1 0 1 0 
0 -4 1 0 1 0 0 -4 1 0 1 0 1 0 1 0 
1 0 1 0 1 0 1 0 0 -4 1 0 1 0 1 0 
1 0 0 -3 1 0 1 0 1 0 1 0 1 0 1 0 
1 0 1 0 0 -4 1 0 1 0 1 0 1 0 1 0 
1 0 1 0 1 0 1 0 0 -4 1 0 1 0 1 0 
1 0 1 0 1 0 0 -4 1 0 1 0 1 0 0 -3 
1 0 1 0 1 0 0 -4 1 0 1 0 1 0 1 0 
1 0 1 0 1 0 1 0 1 0 1 0 1 0 1 0 
1 0 1 0 1 0 1 0 1 -4 1 0 1 0 0 -4 
1 0 0 -4 1 0 3703 2795 100 MP stroke
1 0 1 0 0 -3 1 0 1 0 1 0 1 0 1 0 
1 0 1 0 1 0 1 0 1 0 0 -4 1 0 1 0 
1 0 1 0 0 -4 1 0 1 0 1 0 1 0 1 0 
1 0 1 0 1 0 0 -4 1 0 1 0 1 0 1 0 
1 0 1 0 1 0 0 -3 1 0 1 0 1 0 1 0 
0 -4 1 0 1 0 1 0 1 0 0 -4 1 0 1 0 
1 0 1 0 1 0 1 0 1 0 0 -4 1 0 0 -3 
1 0 1 0 1 0 1 0 1 0 1 0 1 0 1 0 
1 -4 1 0 1 0 1 0 1 0 1 0 1 0 0 -4 
1 0 1 0 1 0 1 0 1 0 1 0 1 0 1 0 
1 0 1 0 1 0 1 0 0 -4 1 0 1 0 0 -3 
1 0 1 0 1 0 1 0 1 0 1 0 1 0 1 0 
1 0 1 0 0 -4 3617 2847 100 MP stroke
1 0 1 0 1 0 1 0 1 0 1 0 1 0 1 0 
1 0 1 0 1 0 1 0 1 0 1 0 1 0 1 0 
0 -4 1 0 1 0 1 0 0 -4 1 0 1 0 0 -3 
1 0 1 0 1 0 1 0 1 0 1 0 1 0 1 0 
1 0 1 0 1 0 0 -4 1 0 1 0 1 0 1 0 
1 0 1 0 1 -4 1 0 1 0 0 -4 1 0 1 0 
1 0 1 0 0 -3 1 0 1 0 1 0 1 0 1 0 
1 0 1 0 1 0 1 0 1 0 1 0 1 0 1 0 
1 0 1 0 1 0 1 0 1 0 0 -8 1 0 1 0 
1 0 1 0 1 0 1 0 1 0 1 0 1 0 1 0 
1 0 1 0 1 0 1 0 1 0 1 0 1 0 1 0 
1 0 0 -4 1 0 1 0 1 0 1 0 1 0 1 0 
0 -3 1 0 0 -4 3528 2892 100 MP stroke
1 0 1 0 1 0 1 0 1 0 1 0 1 0 1 0 
1 0 1 0 1 0 1 0 0 -4 1 0 0 -4 1 0 
1 0 0 -3 1 0 1 0 1 0 1 0 1 0 1 0 
1 0 0 -4 1 0 1 0 0 -4 1 0 1 0 1 0 
1 0 1 0 1 0 1 0 1 0 1 0 1 0 1 0 
1 0 1 0 1 0 1 0 1 0 0 -4 1 0 1 0 
1 0 1 0 1 0 1 -3 1 0 0 -4 1 0 1 0 
0 -4 1 0 1 0 1 0 1 0 1 0 1 0 1 0 
1 0 1 0 1 0 1 0 1 0 1 0 0 -4 1 0 
1 0 1 0 1 0 0 -3 1 0 1 0 1 0 1 0 
1 0 1 0 1 0 1 0 1 0 0 -4 1 0 1 0 
1 0 1 0 1 0 0 -4 1 0 1 0 1 0 1 0 
1 0 1 0 1 0 3441 2941 100 MP stroke
1 0 0 -4 1 0 1 0 1 0 1 0 1 0 1 0 
1 0 1 0 1 0 1 0 0 -4 1 0 1 0 0 -3 
1 0 1 0 1 0 1 0 1 0 0 -4 1 0 1 0 
1 0 1 0 1 0 1 0 1 0 1 0 1 0 1 0 
1 0 1 0 1 0 1 0 1 0 1 0 0 -4 1 0 
0 -4 1 0 1 0 1 0 1 0 1 0 1 0 1 0 
1 0 1 0 1 0 1 0 0 -3 1 -4 1 0 1 0 
1 0 1 0 1 0 1 0 1 0 1 0 1 0 0 -4 
1 0 1 0 1 0 1 0 1 0 1 0 1 0 1 0 
1 0 1 0 0 -7 1 0 1 0 1 0 1 0 1 0 
1 0 0 -4 1 0 1 0 1 0 1 0 1 0 1 0 
1 0 1 0 1 0 1 0 1 0 1 0 1 0 1 0 
0 -4 1 0 1 0 3353 2990 100 MP stroke
1 0 1 0 1 0 1 0 0 -4 1 0 0 -3 1 0 
1 0 1 0 1 0 1 0 1 0 1 0 1 0 1 0 
1 0 1 0 1 0 1 0 1 0 1 0 1 0 0 -4 
1 0 1 0 1 0 1 0 1 0 1 0 1 0 1 0 
1 0 0 -4 1 0 1 0 1 0 1 0 1 0 0 -4 
1 0 1 0 0 -3 1 0 1 0 0 -4 1 0 1 0 
1 0 1 0 1 0 1 0 1 0 1 0 1 0 1 0 
1 0 1 -4 1 0 1 0 1 0 1 0 1 0 1 0 
1 0 1 0 1 0 1 0 1 0 1 0 0 -4 1 0 
0 -3 1 0 1 0 1 0 1 0 1 0 1 0 1 0 
1 0 1 0 1 0 1 0 0 -8 1 0 1 0 1 0 
1 0 1 0 1 0 1 0 1 0 1 0 0 -4 1 0 
1 0 0 -3 1 0 3266 3042 100 MP stroke
1 0 1 0 1 0 1 0 1 0 1 0 1 0 1 0 
1 0 1 0 1 0 0 -4 1 0 1 0 1 0 0 -4 
1 0 1 0 1 0 0 -4 1 0 1 0 1 0 1 0 
1 0 1 0 1 0 1 0 1 0 1 0 1 0 0 -3 
1 0 1 0 1 0 1 0 1 0 1 0 0 -4 1 0 
0 -4 1 0 1 0 1 0 1 0 1 0 0 -4 1 0 
1 0 0 -3 1 0 1 0 1 0 1 0 1 0 1 0 
1 0 0 -4 1 0 0 -4 1 0 1 0 1 0 1 0 
1 0 1 0 1 0 1 0 1 0 0 -4 1 0 1 0 
1 0 1 0 1 0 0 -4 1 0 1 0 1 0 1 0 
1 0 1 0 1 0 1 0 0 -3 1 0 1 0 1 0 
1 0 0 -4 1 0 1 0 1 0 1 0 1 0 1 0 
0 -4 1 0 1 0 3182 3099 100 MP stroke
1 0 1 0 1 0 0 -4 1 0 0 -3 1 0 1 0 
1 0 1 0 1 0 1 0 1 0 1 0 1 0 1 0 
1 0 1 0 1 0 0 -4 1 0 1 0 1 0 1 0 
1 0 1 0 0 -4 1 0 1 0 0 -7 1 0 0 -4 
1 0 1 0 1 0 1 0 1 0 1 0 1 0 1 0 
1 0 1 0 1 0 1 0 1 0 1 0 1 0 1 0 
1 0 1 0 1 0 1 0 1 0 1 0 1 0 1 0 
1 0 1 0 0 -4 1 0 0 -4 1 0 1 0 1 0 
1 0 1 0 1 0 1 0 1 0 1 0 0 -3 1 0 
1 0 1 0 1 0 1 0 1 0 1 0 0 -4 1 0 
1 0 1 0 1 0 1 0 1 0 1 0 1 0 1 0 
1 -4 1 0 1 0 0 -4 1 0 1 0 1 0 1 0 
1 0 1 0 1 0 3094 3148 100 MP stroke
1 0 1 0 1 0 0 -3 1 0 1 0 1 0 0 -4 
1 0 1 0 1 0 1 0 1 0 1 0 1 0 1 0 
1 0 1 0 1 0 1 0 1 0 1 0 0 -4 1 0 
1 0 1 0 1 0 1 0 1 0 0 -4 1 0 1 0 
0 -3 1 0 1 0 0 -4 1 0 1 0 1 0 1 0 
1 0 1 0 1 0 1 0 1 0 1 0 1 0 1 0 
1 0 1 0 1 0 1 0 1 0 0 -4 1 0 1 0 
0 -4 1 0 1 0 1 0 1 0 1 0 1 0 1 0 
1 0 0 -3 1 0 1 0 1 0 1 0 0 -4 1 0 
0 -4 1 0 1 0 1 0 1 0 1 0 1 0 1 0 
1 0 1 0 1 0 1 0 1 0 1 0 1 0 0 -4 
1 0 1 0 0 -3 1 0 1 0 1 0 1 0 1 0 
1 0 0 -4 1 0 3009 3200 100 MP stroke
1 0 1 0 1 0 1 0 1 0 1 0 1 0 1 0 
1 0 1 0 1 0 1 0 1 0 1 0 1 0 1 0 
0 -4 1 0 1 0 1 0 1 0 1 0 1 0 1 0 
1 0 0 -4 1 0 1 0 1 0 1 0 1 0 1 0 
1 0 1 0 0 -3 1 0 1 0 1 0 1 0 1 0 
1 0 1 0 0 -4 1 0 1 0 1 0 1 0 1 0 
1 0 1 0 1 0 0 -4 1 0 1 0 1 0 1 0 
1 0 1 0 1 0 1 0 1 0 1 0 1 0 1 0 
1 0 1 0 1 0 0 -4 1 0 1 0 1 0 1 0 
1 0 1 0 0 -3 1 0 1 0 1 0 1 0 1 0 
1 0 0 -4 1 0 1 0 1 0 1 0 1 0 1 0 
0 -4 1 0 1 0 1 0 1 0 1 0 1 0 1 0 
1 0 1 0 1 0 2919 3234 100 MP stroke
1 0 1 0 0 -4 1 0 1 0 1 0 1 0 0 -4 
1 0 0 -3 1 0 0 -4 1 0 1 0 1 0 1 0 
1 0 1 0 1 0 1 0 1 0 1 0 1 0 1 0 
1 0 0 -4 1 0 1 0 1 0 1 0 1 0 0 -4 
1 0 1 0 1 0 1 0 0 -3 1 0 1 0 1 0 
1 0 0 -4 1 0 1 0 1 0 1 0 1 0 1 0 
1 0 1 0 1 0 1 0 1 0 0 -4 1 0 1 0 
0 -4 1 0 1 0 1 0 1 0 0 -3 1 0 1 0 
1 0 1 0 1 0 1 0 1 0 1 0 1 0 1 -4 
1 0 1 0 1 0 1 0 1 0 1 0 0 -4 1 0 
1 0 1 0 1 0 1 0 1 0 1 0 1 0 1 0 
1 0 0 -4 1 0 1 0 0 -3 1 0 1 0 0 -4 
1 0 1 0 1 0 2835 3294 100 MP stroke
1 0 1 0 0 -4 1 0 0 -4 1 0 1 0 1 0 
1 0 1 0 1 0 1 0 1 0 1 0 1 0 0 -3 
1 0 1 0 1 0 1 0 1 0 1 0 0 -4 1 0 
1 0 1 0 1 0 1 0 1 0 1 0 1 0 0 -4 
1 0 1 0 1 0 1 0 1 0 1 0 1 0 0 -4 
1 0 1 0 1 0 1 0 1 0 1 0 1 0 1 0 
1 0 1 0 0 -3 1 0 0 -4 1 0 1 0 1 0 
1 0 1 0 0 -4 1 0 1 0 1 0 1 0 1 0 
1 0 1 0 1 0 1 0 0 -4 1 0 1 0 1 0 
1 0 1 0 1 0 1 0 1 0 0 -3 1 0 1 0 
1 0 0 -4 1 0 1 0 1 0 1 0 1 0 1 0 
1 0 1 0 1 0 1 0 1 0 1 0 1 0 1 0 
0 -4 1 0 1 0 2749 3343 100 MP stroke
1 0 1 0 0 -7 1 0 1 0 1 0 1 0 1 0 
0 -4 1 0 1 0 1 0 1 0 1 0 1 0 1 0 
1 0 1 0 1 0 1 0 1 0 0 -4 1 0 1 0 
1 0 1 0 0 -4 1 0 1 0 1 0 1 0 0 -3 
1 0 1 0 1 0 0 -4 1 0 1 0 1 0 1 0 
1 0 1 0 1 0 1 0 0 -4 1 0 1 0 1 0 
1 0 1 0 1 0 1 0 1 0 1 0 1 0 1 0 
1 0 1 0 1 0 0 -4 1 0 1 0 1 0 0 -4 
1 0 1 0 1 0 0 -3 1 0 1 0 1 0 1 0 
1 0 1 0 1 0 1 0 1 0 1 0 1 0 1 0 
0 -8 1 0 1 0 1 0 1 0 1 0 1 0 1 0 
1 0 1 0 1 0 1 0 1 0 1 0 1 0 1 0 
0 -4 1 0 1 0 2662 3396 100 MP stroke
1 0 1 0 1 0 0 -3 1 0 1 0 1 0 1 0 
1 0 1 0 1 0 1 0 1 0 1 0 0 -4 1 0 
1 0 1 0 1 0 1 0 1 0 1 0 1 0 1 0 
1 0 1 -4 1 0 0 -4 1 0 1 0 0 -3 1 0 
1 0 1 0 1 0 1 0 1 0 1 0 1 0 1 0 
1 0 0 -4 1 0 1 0 1 0 1 0 1 0 1 0 
1 0 1 0 1 0 1 0 1 0 0 -4 1 0 1 0 
0 -4 1 0 1 0 0 -3 1 0 1 0 1 0 1 0 
0 -4 1 0 1 0 1 0 1 0 1 0 1 0 1 0 
1 0 1 0 1 0 1 0 0 -4 1 0 1 0 1 0 
1 0 1 0 0 -4 1 0 0 -7 1 0 1 0 1 0 
1 0 1 0 1 0 1 0 1 0 1 0 1 0 1 0 
1 0 1 0 1 0 2575 3448 100 MP stroke
1 0 1 0 1 0 1 0 1 0 1 0 1 0 1 0 
1 0 1 0 1 0 1 0 0 -4 1 0 0 -4 1 0 
0 -3 1 0 1 0 1 0 1 0 0 -4 1 0 1 0 
1 0 1 0 1 0 1 0 1 0 1 0 1 0 1 0 
1 0 1 0 1 0 1 0 1 0 1 0 1 0 1 0 
0 -4 1 0 1 0 1 0 0 -4 1 0 1 0 1 0 
0 -3 1 0 1 0 1 0 1 0 1 0 1 0 1 0 
0 -4 1 0 1 0 1 0 1 0 1 0 0 -4 1 0 
1 0 1 0 1 0 1 0 0 -4 1 0 1 0 1 0 
1 0 0 -3 1 0 1 0 1 0 1 0 1 0 0 -4 
1 0 1 0 1 0 1 0 1 0 1 0 1 0 1 0 
1 0 0 -4 1 0 0 -4 1 -3 1 0 1 0 1 0 
1 0 1 0 1 0 2490 3504 100 MP stroke
1 0 1 0 1 0 1 0 1 0 1 0 1 0 1 0 
1 0 0 -4 1 0 1 0 1 0 0 -4 1 0 1 0 
1 0 0 -4 1 0 1 0 1 0 1 0 0 -3 1 0 
1 0 1 0 1 0 1 0 1 0 1 0 1 0 1 0 
1 0 1 0 1 0 1 0 0 -4 1 0 1 0 1 0 
1 0 1 0 1 -4 1 0 1 0 1 0 1 0 1 0 
0 -4 1 0 1 0 1 0 0 -4 1 0 1 0 1 0 
1 0 1 0 0 -3 1 0 1 0 1 0 1 0 1 0 
0 -4 1 0 1 0 1 0 1 0 1 0 1 0 1 0 
1 0 1 0 1 0 0 -4 1 0 1 0 1 0 1 0 
1 0 1 0 0 -4 1 0 0 -3 1 0 1 0 1 0 
1 0 1 0 1 0 1 0 1 0 1 0 1 0 1 0 
1 0 1 0 1 0 2403 3553 100 MP stroke
1 0 0 -4 1 0 1 0 1 0 0 -8 1 0 1 0 
1 0 1 0 1 0 1 0 1 0 1 0 1 0 1 0 
1 0 1 0 1 0 1 0 0 -3 1 0 1 0 1 0 
1 0 1 0 0 -4 1 0 1 0 1 0 1 0 1 0 
1 0 1 0 0 -4 1 0 1 0 1 0 1 0 1 0 
0 -4 1 0 1 0 1 0 1 0 1 0 1 0 1 0 
1 0 1 0 1 0 1 0 1 0 1 0 1 0 1 0 
0 -3 1 0 1 0 1 0 1 0 1 0 1 -4 0 -4 
1 0 1 0 0 -4 1 0 1 0 1 0 1 0 1 0 
1 0 1 0 1 0 1 0 1 0 1 0 0 -7 1 0 
1 0 1 0 0 -4 1 0 1 0 1 0 1 0 1 0 
1 0 1 0 1 0 1 0 0 -4 1 0 1 0 1 0 
1 0 0 -3 1 0 2317 3613 100 MP stroke
1 0 1 0 1 0 1 0 0 -4 1 0 1 0 1 0 
1 0 1 0 1 0 0 -4 1 0 1 0 1 0 1 0 
1 0 1 0 1 0 0 -4 1 0 1 0 0 -7 1 0 
1 0 1 0 1 0 1 0 1 0 1 0 1 0 1 0 
1 0 1 0 1 0 1 0 1 0 1 0 0 -4 1 0 
1 0 1 0 1 0 0 -4 1 0 1 0 0 -3 1 0 
1 0 1 0 1 0 1 0 1 0 1 0 1 0 0 -4 
1 0 1 0 1 0 1 0 0 -4 1 0 1 0 1 0 
0 -4 1 0 1 0 0 -3 1 0 1 0 1 0 1 0 
1 0 1 0 1 0 0 -8 1 0 1 0 1 0 1 0 
1 0 1 0 1 0 1 0 0 -4 1 0 1 0 1 0 
1 0 1 0 1 0 1 0 1 0 1 0 1 0 1 0 
0 -4 1 0 1 0 2232 3674 100 MP stroke
1 0 1 0 1 0 1 0 1 0 1 0 1 0 0 -3 
1 0 1 0 0 -4 1 0 1 0 1 0 1 0 1 0 
1 0 1 0 1 0 1 0 1 0 1 0 1 0 1 0 
1 0 0 -4 1 0 1 0 0 -4 1 0 1 0 0 -3 
1 0 1 0 1 0 0 -4 1 0 1 0 1 0 1 0 
0 -4 1 0 1 0 1 0 1 0 1 0 0 -4 1 0 
1 0 1 0 1 0 1 0 0 -3 1 0 1 0 1 0 
1 0 1 0 1 0 0 -4 1 0 1 0 1 0 1 0 
1 0 0 -4 1 0 1 0 1 0 0 -4 1 0 1 0 
1 0 1 0 0 -3 1 0 1 0 1 0 1 0 1 0 
1 0 1 0 1 0 1 0 1 0 1 0 1 0 0 -4 
1 0 1 -4 1 0 1 0 1 0 1 0 0 -4 1 0 
1 0 1 0 1 0 2148 3734 100 MP stroke
1 0 1 0 1 0 1 0 1 0 0 -3 1 0 1 0 
1 0 1 0 1 0 1 0 1 0 0 -4 1 0 1 0 
1 0 1 0 0 -4 1 0 1 0 0 -4 1 0 1 0 
1 0 1 0 1 0 1 0 1 0 1 0 1 0 1 0 
1 0 1 0 0 -3 1 0 0 -4 1 0 1 0 0 -4 
1 0 1 0 1 0 1 0 1 0 1 0 0 -4 1 0 
1 0 1 0 1 0 1 0 1 0 1 0 1 0 1 0 
1 0 0 -3 1 0 1 0 1 0 1 0 1 0 1 0 
1 0 0 -4 1 0 1 0 1 0 0 -4 1 0 1 0 
1 0 1 0 1 0 1 0 1 0 0 -4 1 0 1 0 
1 0 0 -3 1 0 1 0 1 0 1 0 1 0 1 0 
1 0 1 0 1 0 1 0 1 0 0 -8 1 0 1 0 
1 0 1 0 0 -4 2064 3794 100 MP stroke
1 0 1 0 1 0 1 0 1 0 1 0 1 0 1 0 
1 0 1 0 1 0 1 0 1 0 1 0 1 0 0 -3 
1 0 1 0 0 -8 1 0 0 -4 1 0 1 0 1 0 
1 0 1 0 1 0 1 0 1 0 1 0 0 -3 1 0 
1 0 0 -4 1 0 1 0 1 0 1 0 1 0 1 0 
1 0 1 0 1 0 0 -4 1 0 0 -4 1 0 0 -4 
1 0 1 0 1 0 1 0 1 0 1 0 1 0 0 -3 
1 0 1 0 0 -4 1 0 0 -4 1 0 1 0 1 0 
1 0 1 0 1 0 1 0 0 -4 1 0 1 0 1 0 
1 0 1 0 1 0 1 0 1 0 1 0 0 -3 1 0 
0 -4 1 0 1 0 1 0 1 0 1 0 1 0 1 0 
1 0 0 -4 1 0 1 0 0 -7 1 0 1 0 1 0 
1 0 0 -4 1 0 1982 3865 100 MP stroke
1 0 1 0 0 -4 1 0 1 0 1 0 1 0 1 0 
1 0 1 0 1 -4 1 0 1 0 1 0 1 0 1 0 
0 -3 1 0 0 -4 1 0 0 -4 1 0 1 0 1 0 
1 0 1 0 1 0 1 0 1 0 1 0 1 0 1 0 
1 0 0 -4 1 0 0 -3 1 0 1 0 1 0 1 0 
0 -4 1 0 0 -4 1 0 1 -4 1 0 1 0 1 0 
1 0 1 0 1 0 1 0 1 0 1 0 1 0 1 0 
1 0 0 -3 1 0 0 -4 1 0 1 0 0 -4 1 0 
1 0 1 0 1 0 1 0 1 0 1 0 1 0 1 -4 
1 0 1 0 0 -7 1 0 1 0 1 0 1 0 1 0 
1 0 1 0 0 -4 1 0 1 0 1 0 1 0 1 0 
1 0 1 0 1 0 0 -4 1 0 1 0 0 -3 1 0 
1 0 1 0 1 0 1898 3936 100 MP stroke
1 0 1 0 1 0 0 -4 1 0 1 0 1 0 1 0 
1 0 1 0 0 -4 1 0 0 -4 1 0 1 0 1 0 
1 0 1 0 1 0 1 0 1 0 1 0 1 0 1 0 
1 0 1 0 1 0 1 0 1 0 1 0 1 0 1 0 
1 0 1 0 1 0 0 -3 1 0 0 -8 1 0 1 0 
0 -4 1 0 1 0 1 0 1 0 1 0 1 0 1 0 
1 0 1 0 1 0 1 0 1 0 1 0 1 0 1 0 
0 -4 1 0 1 0 1 0 1 0 1 0 1 0 0 -3 
1 0 0 -4 1 0 1 0 1 0 1 0 1 0 1 0 
0 -4 1 0 1 0 0 -4 1 0 1 0 1 0 1 0 
1 0 1 0 0 -3 1 0 1 0 1 0 1 0 0 -4 
1 0 1 0 0 -4 1 0 1 0 1 0 1 0 1 0 
1 0 1 0 1 0 1813 3993 100 MP stroke
1 0 1 0 1 0 1 0 0 -4 1 0 1 0 1 0 
1 0 1 0 1 0 1 0 0 -3 1 0 1 0 1 0 
1 0 0 -4 1 0 0 -4 1 0 1 0 1 0 1 0 
1 0 1 0 1 0 1 0 1 0 1 0 1 0 0 -4 
1 0 1 0 1 0 1 0 0 -3 1 0 1 0 1 0 
1 0 1 0 1 0 1 0 1 0 1 0 1 0 1 0 
1 0 0 -4 1 0 1 0 1 0 0 -4 1 0 1 0 
1 0 0 -4 1 0 0 -3 1 0 1 0 1 0 1 0 
0 -4 1 0 1 0 1 0 1 0 1 0 0 -4 1 0 
1 0 1 0 1 0 1 0 1 0 1 0 1 0 1 0 
1 0 1 0 0 -4 1 0 1 0 1 0 1 0 0 -3 
1 0 1 0 1 0 0 -4 1 0 0 -4 1 0 1 0 
1 0 1 0 1 0 1730 4053 100 MP stroke
1 0 1 0 1 0 1 0 1 0 0 -4 1 0 1 0 
1 0 1 0 1 0 1 0 1 0 1 0 1 0 1 0 
1 0 1 0 0 -3 1 0 1 0 1 0 0 -4 1 0 
1 0 0 -4 1 0 1 0 1 0 1 0 1 0 1 0 
1 0 1 0 1 0 1 0 1 0 1 0 1 0 1 0 
1 0 0 -4 1 0 1 0 1 0 1 0 0 -3 1 0 
1 0 1 0 1 0 0 -4 1 0 1 0 1 0 1 0 
0 -4 1 0 1 0 1 0 1 0 0 -4 1 0 1 0 
1 0 1 0 1 0 1 0 1 0 1 0 1 0 0 -3 
1 0 1 0 1 0 1 0 0 -4 1 0 1 0 1 0 
1 0 1 0 1 0 1 0 1 0 0 -4 1 0 1 0 
1 0 1 0 1 0 1 0 0 -4 1 0 1 0 1 0 
0 -4 1 0 0 -3 1646 4109 100 MP stroke
1 0 1 0 1 0 0 -4 1 0 1 0 1 0 0 -4 
1 0 1 0 1 0 1 0 1 0 1 0 1 0 1 0 
1 0 1 0 0 -4 1 0 1 0 0 -3 1 0 1 0 
1 0 1 0 1 0 1 0 1 0 1 0 1 0 1 0 
0 -4 1 0 0 -4 1 0 1 0 1 0 1 0 1 0 
1 0 1 0 1 0 1 0 1 0 1 0 1 0 1 0 
1 0 1 0 1 0 1 0 1 0 1 0 1 0 1 0 
1 0 1 0 0 -4 1 0 1 0 1 0 1 0 0 -3 
1 0 1 0 1 0 1 0 0 -4 1 0 1 0 1 0 
1 0 0 -4 1 0 1 0 1 0 1 0 1 0 1 0 
1 0 1 -4 1 0 1 0 1 0 1 0 1 0 1 0 
1 0 0 -3 1 0 1 0 1 0 1 0 1 0 1 0 
0 -4 1 0 1 0 1559 4158 100 MP stroke
1 0 1 0 1 0 1 0 1 0 0 -4 1 0 1 0 
0 -4 1 0 0 -3 1 0 1 0 1 0 1 0 1 0 
1 0 1 0 1 0 1 0 1 0 1 0 0 -4 1 0 
1 0 1 0 0 -4 1 0 1 0 1 0 1 0 1 0 
1 0 1 0 1 0 0 -4 1 0 1 0 1 0 1 0 
1 0 1 0 1 0 0 -7 1 0 1 0 1 0 1 0 
0 -4 1 0 1 0 1 0 1 0 1 0 1 0 0 -4 
1 0 1 0 1 0 1 0 1 0 1 0 1 0 1 0 
1 0 1 0 1 0 0 -3 1 0 1 0 1 0 1 0 
1 0 1 0 1 0 1 0 1 0 1 0 0 -4 1 0 
0 -4 1 0 1 0 1 0 1 0 1 0 1 0 1 0 
1 0 1 0 0 -4 1 0 1 0 1 0 1 0 0 -3 
1 0 1 0 1 0 1474 4214 100 MP stroke
1 0 1 0 1 0 1 0 1 0 1 0 1 0 1 0 
0 -4 1 0 1 0 0 -4 1 0 1 0 1 0 1 0 
1 0 0 -4 1 0 1 0 1 0 1 0 0 -3 1 0 
1 0 1 0 1 0 1 0 0 -4 1 0 1 0 1 0 
1 0 0 -4 1 0 1 0 1 0 1 0 0 -4 1 0 
1 0 1 0 1 0 1 0 1 0 1 0 0 -3 1 0 
1 0 0 -4 1 0 1 0 1 0 1 0 1 0 1 0 
1 0 1 0 1 0 0 -4 1 0 1 0 0 -4 1 0 
1 0 1 0 1 0 1 0 1 0 0 -4 1 0 1 0 
1 0 1 0 0 -3 1 0 1 0 1 0 1 0 1 0 
1 0 1 0 1 0 1 0 1 0 1 0 0 -8 1 0 
0 -4 1 0 1 0 1 0 1 0 1 0 1 0 1 0 
1 0 1 0 1 0 1390 4275 100 MP stroke
0 -7 1 0 1 0 1 0 1 0 1 0 1 0 1 0 
1 0 1 0 1 0 1 0 1 -4 1 0 1 0 1 0 
1 0 1 0 1 0 0 -4 1 0 1 0 1 0 0 -3 
1 0 0 -4 1 0 0 -4 1 0 1 0 1 0 1 0 
1 0 1 0 1 0 1 0 1 0 1 0 1 0 1 0 
1 0 0 -4 1 0 0 -3 1 0 1 0 1 0 1 0 
1 0 1 0 1 0 0 -4 1 0 1 0 0 -4 1 0 
0 -4 1 0 1 0 1 0 0 -3 1 0 1 0 1 0 
1 0 1 0 1 0 1 0 1 0 1 0 1 0 1 0 
1 0 0 -4 1 0 1 0 1 0 0 -4 1 -4 1 0 
1 0 1 0 0 -3 1 0 1 0 1 0 1 0 1 0 
1 0 1 0 1 0 1 0 1 0 1 0 0 -4 1 0 
0 -4 1 0 1 0 1307 4346 100 MP stroke
1 0 1 0 1 0 1 0 1 0 0 -4 1 0 1 0 
0 -3 1 0 1 0 1 0 1 0 1 0 1 0 1 0 
1 0 1 0 1 0 1 0 1 0 0 -4 1 0 0 -4 
1 0 1 0 1 0 1 0 1 0 1 0 1 0 1 0 
1 -1 0 -4 1 0 1 0 1 0 1 0 1 0 1 -3 
1 0 1 0 1 0 1 0 1 0 1 0 1 0 0 -4 
1 0 1 0 1 0 1 0 0 -4 1 0 1 0 0 -4 
1 0 1 0 1 0 1 0 1 0 1 0 0 -3 1 0 
1 0 1 0 1 0 1 0 1 0 1 0 1 0 0 -4 
1 0 1 0 1 0 1 0 1 0 0 -4 1 0 1 0 
0 -4 1 0 1 0 1 0 0 -3 1 0 1 0 1 0 
0 -4 1 0 1 0 1 0 1 0 1 -4 1 0 1 0 
1 0 0 -4 1 0 1223 4411 100 MP stroke
1 0 1 0 1 0 1 0 1 0 1 0 1 0 1 0 
1 0 1 0 1 0 0 -3 1 0 1 0 1 0 1 0 
0 -4 1 0 1 0 1 0 1 0 1 0 1 0 1 0 
0 -4 1 0 1 0 1 0 1 0 1 0 1 0 1 0 
0 -4 1 0 0 -7 1 0 1 0 1 0 1 0 1 0 
1 0 1 0 1 0 1 0 1 0 1 0 1 0 1 0 
0 -4 1 0 1 0 1 0 1 0 1 0 1 0 1 0 
0 -4 1 0 1 0 0 -4 1 0 1 0 1 0 1 0 
0 -3 1 0 1 0 1 0 1 0 1 0 1 0 1 0 
1 0 1 0 1 0 0 -4 1 0 0 -4 1 0 1 0 
1 0 1 0 1 0 0 -4 1 0 1 0 1 0 1 0 
1 0 1 0 1 0 1 0 0 -3 1 0 1 0 1 0 
1 0 0 -4 1 0 1138 4467 100 MP stroke
1 0 0 -4 1 0 1 0 1 0 1 0 1 0 1 -4 
1 0 1 0 1 0 1 0 0 -7 1 0 0 -4 1 0 
1 -1 1 0 1 0 1 0 1 0 1 0 1 0 1 0 
1 0 1 0 0 -4 1 0 1 0 1 0 1 0 0 -3 
1 0 1 0 1 0 1 0 1 0 0 -4 1 0 1 0 
0 -4 1 0 1 0 1 0 0 -4 1 0 0 -3 1 0 
1 0 1 0 1 0 1 0 1 0 0 -4 1 -4 1 0 
1 0 1 0 1 0 1 0 1 0 1 0 1 0 0 -4 
1 0 1 0 1 0 0 -7 1 0 1 0 1 0 1 0 
1 0 1 0 1 0 1 0 0 -4 1 0 1 0 1 0 
0 -4 1 0 1 0 1 0 1 0 0 -3 1 0 1 0 
0 -8 1 0 1 0 1 0 1 0 1 0 1 0 1 0 
1 0 1 0 1 0 1055 4547 100 MP stroke
1 0 1 0 1 0 0 -4 1 0 1 0 1 0 0 -3 
1 0 1 0 1 0 1 0 1 0 1 0 1 0 1 0 
1 0 1 0 1 0 0 -4 1 0 1 0 1 0 1 0 
1 0 1 0 1 0 0 -4 1 0 1 0 1 0 1 0 
0 -4 1 0 1 0 0 -3 1 0 1 0 1 0 1 0 
1 0 1 0 1 0 1 0 1 0 1 0 0 -4 1 0 
0 -4 1 0 1 0 1 0 1 0 1 0 0 -7 1 0 
1 0 1 0 1 0 1 0 1 0 0 -2 1 0 1 0 
1 0 1 0 1 0 1 0 0 -2 1 0 1 0 1 0 
1 0 1 0 1 0 1 0 0 -4 1 0 1 0 1 0 
1 0 1 0 1 0 1 0 1 0 1 0 1 0 1 0 
1 0 1 0 1 0 1 0 1 0 1 0 1 0 1 0 
1 0 0 -4 1 0 969 4596 100 MP stroke
1 0 0 -3 1 0 1 0 1 0 1 0 1 0 1 0 
0 -4 1 0 1 0 1 0 1 0 1 0 1 0 1 0 
0 -4 1 0 1 0 1 0 1 0 1 0 1 0 1 0 
1 0 1 0 1 0 1 0 1 0 1 0 1 0 1 0 
1 0 1 0 1 0 1 0 1 0 1 0 1 0 1 0 
1 0 1 0 1 0 1 0 1 0 1 0 1 0 1 0 
1 0 1 0 1 0 1 0 1 0 1 0 1 0 1 0 
1 0 1 0 1 0 1 0 0 -3 1 0 1 0 1 0 
1 0 1 0 0 -4 1 0 1 0 1 0 1 0 1 0 
1 0 1 0 1 -1 899 4615 76 MP stroke
/c10 { 1.000000 0.000000 0.000000 sr} bdef
c10
1 0 0 -4 1 0 1 0 1 0 1 0 1 0 1 0 
1 0 1 0 1 0 1 0 0 -4 1 0 0 -4 1 0 
1 0 1 0 1 0 1 0 1 0 1 0 1 0 1 0 
1 0 1 0 1 0 0 -3 1 0 1 0 1 0 1 0 
1 0 0 -4 1 0 1 0 1 0 0 -4 1 0 1 0 
1 0 1 0 1 0 1 0 1 0 1 0 1 0 1 0 
1 0 1 0 1 0 1 0 1 0 1 -4 1 0 1 0 
1 0 1 0 0 -7 1 0 1 0 1 0 1 0 1 0 
1 0 0 -4 1 0 1 0 1 0 1 0 1 0 1 0 
1 0 1 0 1 0 1 0 0 -4 1 0 1 0 1 0 
1 0 1 0 1 0 1 0 1 0 1 0 0 -3 1 0 
1 0 0 -8 1 0 1 0 1 0 1 0 1 0 0 -4 
1 0 1 0 1 0 6168 449 100 MP stroke
1 0 1 0 1 0 1 0 1 0 1 0 1 0 1 0 
1 0 1 0 1 0 1 0 0 -3 1 0 1 0 1 0 
1 0 0 -4 1 0 1 0 1 0 0 -4 1 0 1 0 
1 0 1 0 0 -4 1 0 1 0 1 0 1 0 1 0 
1 0 1 0 1 0 1 0 1 0 1 0 1 0 0 -3 
1 0 0 -4 1 0 1 0 1 0 1 0 1 0 0 -4 
1 0 1 0 1 0 1 0 1 0 1 0 0 -4 1 0 
1 0 0 -3 1 0 1 0 1 0 0 -4 1 0 1 0 
1 0 1 0 1 0 1 0 1 0 1 0 1 0 1 0 
1 0 0 -4 1 0 1 0 1 0 1 0 0 -4 1 0 
1 0 1 0 1 0 1 0 0 -3 1 0 1 0 1 0 
1 0 1 0 1 0 1 0 1 0 1 0 0 -4 1 0 
1 0 1 0 1 0 6083 501 100 MP stroke
1 0 1 0 1 0 0 -4 1 0 1 0 0 -4 1 0 
1 0 1 0 1 0 1 0 1 0 1 0 1 0 1 0 
1 0 1 0 1 0 1 0 1 0 1 0 1 0 1 0 
0 -3 1 0 1 0 1 0 1 0 0 -4 1 0 1 0 
1 0 0 -4 1 0 1 0 1 0 0 -4 1 0 1 0 
1 0 1 0 1 0 1 0 0 -3 1 0 1 0 1 0 
1 0 1 0 1 0 0 -4 1 0 1 0 1 0 1 0 
1 0 1 0 1 0 0 -4 1 0 1 0 1 0 1 0 
1 0 1 0 1 0 1 0 1 0 1 0 1 0 1 0 
1 0 1 0 1 0 1 -4 1 0 1 0 1 0 0 -4 
1 0 1 0 1 0 1 0 1 -3 1 0 0 -8 1 0 
1 0 1 0 1 0 1 0 1 0 1 0 1 0 1 0 
1 0 1 0 1 0 5995 554 100 MP stroke
1 0 1 0 1 0 0 -4 1 0 1 0 1 0 1 0 
1 0 1 0 1 0 0 -3 1 0 1 0 1 0 1 0 
1 0 1 0 1 -4 1 0 1 0 1 0 0 -4 1 0 
1 0 1 -1 1 0 1 0 1 0 1 0 1 0 1 0 
1 0 1 0 1 0 1 0 1 0 0 -4 1 0 1 0 
1 0 1 0 1 0 1 0 1 0 1 0 1 0 1 0 
0 -3 1 0 0 -4 1 0 0 -8 1 0 1 0 1 0 
1 0 1 0 1 0 1 0 1 0 1 0 1 0 1 0 
1 0 1 0 1 0 1 0 1 0 1 0 0 -3 1 0 
1 0 0 -4 1 0 1 0 1 0 1 0 1 0 0 -4 
1 0 0 -4 1 0 1 0 1 0 1 0 1 0 1 0 
1 0 1 0 1 0 1 0 1 0 1 0 1 0 1 0 
1 0 1 0 1 0 5907 604 100 MP stroke
0 -3 1 0 1 0 1 0 1 0 1 0 1 0 1 0 
1 0 0 -4 1 0 1 0 0 -4 1 0 0 -4 1 0 
1 0 1 0 1 0 1 0 1 0 1 0 1 0 1 0 
0 -3 1 0 1 0 1 0 1 0 1 0 1 0 1 0 
1 0 1 0 1 0 1 0 1 0 1 0 0 -4 1 0 
0 -4 1 0 0 -4 1 0 1 0 1 0 1 0 0 -3 
1 0 1 0 1 0 1 0 1 0 1 0 1 0 1 0 
1 0 1 0 1 0 1 0 1 0 1 0 1 0 1 0 
0 -4 1 0 0 -4 1 0 1 0 1 0 1 0 1 0 
1 0 1 0 0 -7 1 0 1 0 1 0 1 0 1 0 
1 0 1 0 1 0 1 0 1 0 1 0 0 -4 1 0 
1 0 1 0 0 -4 1 0 1 0 1 0 1 0 1 0 
0 -4 1 0 1 0 5823 664 100 MP stroke
1 0 1 0 1 0 1 0 1 0 1 -3 1 0 1 0 
1 0 1 0 1 0 1 0 1 0 0 -4 1 0 1 0 
1 0 1 0 1 0 1 0 1 0 1 0 1 0 1 0 
0 -4 1 0 1 0 1 0 1 0 1 0 1 0 1 0 
1 0 1 0 1 0 0 -4 1 0 1 0 0 -3 1 0 
1 0 0 -4 1 0 1 0 1 0 1 0 1 0 1 0 
0 -4 1 0 1 0 1 0 1 0 1 0 1 0 1 0 
1 0 1 0 1 0 1 0 0 -4 1 0 0 -3 1 0 
1 0 1 0 1 0 1 0 1 0 0 -8 1 0 1 0 
1 0 1 0 0 -4 1 0 1 0 1 0 1 0 1 0 
1 0 1 0 1 0 1 0 1 0 1 0 1 0 0 -3 
1 0 1 0 1 0 0 -8 1 0 1 0 1 0 1 0 
1 0 1 0 1 0 5736 720 100 MP stroke
1 0 1 0 1 0 0 -4 1 0 1 0 1 0 1 0 
1 0 1 0 1 0 1 0 1 0 1 0 1 0 0 -7 
1 0 1 0 1 0 1 0 1 0 1 0 1 0 1 0 
1 0 1 0 1 0 0 -4 1 0 1 0 0 -4 1 0 
1 0 1 0 1 0 1 0 1 0 1 0 1 0 1 0 
0 -4 1 0 1 0 1 0 1 0 1 0 0 -3 1 0 
1 0 1 0 1 0 1 0 0 -4 1 0 1 0 1 0 
1 0 1 0 1 0 1 0 1 0 0 -4 1 0 1 0 
1 0 1 0 1 0 0 -4 1 0 1 0 0 -3 1 0 
1 0 0 -4 1 0 1 0 1 0 1 0 1 0 1 0 
1 0 1 0 1 0 1 0 1 0 1 0 1 0 1 0 
1 0 1 0 1 0 1 0 0 -4 1 0 1 0 1 0 
1 0 0 -4 1 0 5650 773 100 MP stroke
1 0 1 0 1 0 1 0 0 -3 1 0 1 0 0 -4 
1 0 1 0 0 -4 1 0 1 0 1 0 1 0 1 0 
1 0 1 0 1 0 1 0 1 0 1 0 1 0 1 0 
1 0 1 0 1 0 1 0 1 0 1 0 1 0 1 0 
1 0 0 -4 1 0 1 0 0 -3 1 0 0 -4 1 0 
1 0 1 0 1 0 1 0 1 0 1 0 1 0 1 0 
1 0 1 0 0 -4 1 0 1 0 1 0 1 0 1 0 
1 0 1 0 1 0 1 0 1 0 0 -4 1 0 0 -3 
1 0 1 0 1 0 1 0 1 0 1 0 1 0 0 -4 
1 0 1 0 1 0 1 0 1 0 1 0 1 0 1 0 
1 0 1 0 1 0 1 0 0 -8 1 0 1 0 1 0 
1 0 0 -3 1 0 1 0 1 0 1 0 1 0 1 0 
1 0 1 -4 1 0 5563 825 100 MP stroke
1 0 1 0 1 0 1 0 1 0 1 0 1 0 1 0 
1 0 1 0 0 -4 1 0 1 0 1 0 0 -4 1 0 
0 -3 1 0 1 0 1 0 1 0 1 0 1 0 1 0 
0 -4 1 0 1 0 1 0 1 0 1 0 1 0 1 0 
1 0 0 -4 1 0 1 0 1 0 1 0 1 0 1 0 
0 -4 1 0 1 0 0 -3 1 0 1 0 1 0 1 0 
1 0 1 0 0 -4 1 0 1 0 1 0 1 0 1 0 
1 0 1 0 1 0 1 0 1 0 0 -4 1 0 1 0 
1 0 1 0 0 -4 1 0 1 0 1 0 1 0 0 -4 
1 0 1 0 1 0 1 0 0 -3 1 0 1 0 0 -4 
1 0 1 0 1 0 1 0 1 0 1 0 1 0 1 0 
1 0 1 0 1 0 1 0 1 0 0 -4 1 0 1 0 
0 -4 1 0 1 0 5479 882 100 MP stroke
1 0 1 0 1 0 1 0 1 0 0 -3 1 0 1 0 
0 -4 1 0 1 0 1 0 1 0 1 0 1 0 1 0 
1 0 1 0 1 0 1 0 0 -4 1 0 1 0 1 0 
1 0 1 0 0 -4 1 0 1 0 1 0 1 0 0 -3 
1 0 1 0 1 0 1 0 1 0 1 0 1 0 0 -4 
1 0 1 0 1 0 1 0 1 0 1 0 0 -4 1 0 
1 0 1 0 1 0 1 0 0 -4 1 0 1 0 1 0 
1 0 1 0 0 -3 1 0 0 -4 1 0 1 0 1 0 
1 0 1 0 1 0 1 0 1 0 1 0 1 0 1 0 
1 0 0 -4 1 0 0 -4 1 0 1 0 1 0 1 0 
1 0 1 0 1 0 1 0 0 -3 1 0 1 0 1 0 
1 0 1 0 0 -4 1 0 1 0 1 0 1 0 0 -4 
1 0 1 0 1 0 5395 938 100 MP stroke
1 0 1 0 1 0 1 0 1 0 1 0 0 -4 1 0 
1 0 1 0 1 0 1 0 1 0 0 -7 1 0 1 0 
1 0 1 0 1 0 0 -4 1 0 1 0 1 0 1 0 
1 0 1 0 1 0 0 -4 1 0 1 0 1 0 1 0 
1 0 0 -3 1 0 1 0 0 -8 1 0 1 0 1 0 
1 0 1 0 1 0 1 0 1 0 1 0 0 -4 1 0 
1 0 1 0 1 0 1 0 0 -3 1 0 1 0 1 0 
1 0 1 0 1 0 1 0 1 0 1 0 0 -4 1 0 
0 -4 1 0 1 0 1 0 1 0 1 0 1 0 0 -4 
1 0 0 -3 1 0 1 0 1 0 1 0 1 0 1 0 
1 0 1 0 1 0 1 0 1 0 1 0 1 0 1 0 
0 -8 1 0 1 0 1 0 1 0 1 0 1 0 1 0 
1 0 1 0 1 0 5309 998 100 MP stroke
0 -4 1 0 1 0 1 0 0 -3 1 0 1 0 1 0 
1 0 1 0 0 -4 1 0 1 0 1 0 1 0 1 0 
1 0 1 0 0 -4 1 0 0 -4 1 0 1 0 1 0 
1 0 1 0 1 0 1 0 1 0 1 0 1 0 1 0 
1 0 1 0 1 0 1 0 1 0 1 0 0 -7 1 0 
1 0 0 -4 1 0 1 0 1 0 1 0 1 0 1 0 
1 0 1 0 1 0 1 0 0 -4 1 0 1 0 1 0 
1 0 1 0 1 0 1 0 0 -4 1 -3 0 -4 1 0 
1 0 1 0 1 0 1 0 1 0 1 0 1 0 1 0 
1 0 1 0 1 0 1 0 0 -4 1 -4 0 -3 1 0 
1 0 0 -4 1 0 1 0 1 0 1 0 1 0 1 0 
1 0 1 0 0 -4 1 0 1 0 1 0 1 0 1 0 
1 0 1 0 1 0 5224 1062 100 MP stroke
1 0 1 0 1 0 1 0 1 0 0 -4 1 0 1 0 
1 0 1 0 0 -3 1 0 0 -4 1 0 0 -4 1 0 
1 0 1 0 1 0 1 0 1 0 1 0 1 0 1 0 
1 0 1 0 1 0 1 0 1 0 1 0 1 0 1 -4 
1 0 1 0 0 -3 1 0 1 0 1 0 1 0 1 0 
1 0 0 -8 1 0 1 0 1 0 1 0 1 0 1 0 
1 0 1 0 1 0 1 0 1 0 0 -4 1 0 1 0 
1 0 0 -3 1 0 1 0 1 0 1 0 1 0 1 0 
0 -4 1 0 1 0 1 0 1 0 1 -4 1 0 1 0 
1 0 0 -4 1 0 1 0 1 0 0 -3 1 0 1 0 
1 0 1 0 0 -4 1 0 1 0 1 0 1 0 1 0 
1 0 1 0 1 0 1 0 0 -4 1 0 1 0 1 0 
1 0 1 0 1 0 5138 1122 100 MP stroke
1 0 1 0 0 -4 1 -3 1 0 1 0 1 0 1 0 
1 0 0 -4 1 0 1 0 1 0 1 0 1 0 1 0 
1 0 0 -4 1 0 1 0 1 0 1 0 1 0 1 0 
1 0 1 0 1 0 1 0 1 0 1 0 1 0 1 0 
0 -7 1 0 1 0 0 -4 1 0 1 0 1 0 1 0 
1 0 1 0 1 0 1 0 1 0 1 0 1 -4 1 0 
1 0 1 0 1 0 1 0 1 0 1 0 1 0 1 0 
0 -4 1 0 1 0 1 0 1 0 0 -4 1 -3 0 -4 
1 0 1 0 1 0 1 0 1 0 1 0 1 0 1 0 
1 0 1 0 1 0 1 0 0 -4 1 0 1 0 1 0 
1 0 1 0 0 -4 1 0 1 0 1 0 1 0 1 0 
1 0 0 -4 1 0 0 -4 1 0 1 0 1 0 1 0 
1 0 1 0 0 -4 5052 1187 100 MP stroke
1 0 1 0 1 0 1 0 1 0 1 0 1 0 1 0 
1 0 1 0 1 0 1 0 0 -4 1 0 1 0 0 -7 
1 0 1 0 1 0 1 0 1 0 1 0 1 0 1 0 
1 0 1 0 1 0 1 0 1 0 0 -4 1 0 0 -4 
1 0 1 0 1 0 1 0 1 0 1 0 0 -7 1 0 
1 0 1 0 1 0 1 0 1 0 1 0 0 -4 1 0 
1 0 1 0 1 0 1 0 1 0 1 0 0 -4 1 0 
1 0 0 -3 1 0 0 -4 1 0 1 0 0 -4 1 0 
1 0 1 0 1 0 1 0 1 0 1 0 1 0 1 0 
1 0 1 0 1 -1 1 0 1 0 1 0 0 -4 1 0 
1 0 1 0 1 0 1 0 1 0 1 0 1 0 0 -3 
1 0 1 0 0 -4 1 0 1 0 1 0 0 -4 1 0 
1 0 1 0 1 0 4967 1248 100 MP stroke
1 0 1 0 1 0 1 0 1 0 1 0 1 0 1 0 
1 0 1 0 1 0 1 0 1 0 0 -4 1 0 1 0 
0 -3 1 0 1 0 1 0 1 0 1 0 1 0 0 -4 
1 -4 1 0 1 0 1 0 1 0 1 0 1 0 1 0 
1 0 1 0 1 0 1 0 1 0 1 0 1 0 1 0 
1 0 0 -4 1 0 1 0 0 -3 1 0 0 -4 1 0 
1 0 1 0 0 -4 1 0 1 0 1 0 1 0 1 0 
1 0 1 0 1 0 1 0 1 0 1 0 1 0 0 -7 
1 0 0 -4 1 0 1 0 1 0 1 0 1 0 1 0 
1 0 1 0 1 0 1 0 0 -4 1 0 0 -4 1 0 
1 0 1 0 1 0 1 0 1 0 1 0 1 0 0 -3 
1 0 1 0 1 0 1 -4 1 0 1 0 1 0 1 0 
1 0 0 -4 1 0 4881 1308 100 MP stroke
1 0 1 0 1 0 1 0 1 0 0 -4 1 0 1 0 
1 0 1 0 1 0 1 0 0 -3 1 0 1 0 0 -4 
1 0 0 -4 1 0 1 0 1 0 1 0 1 0 1 0 
1 0 1 0 0 -4 1 0 1 0 1 0 1 0 1 0 
1 0 0 -3 1 0 0 -4 1 0 1 0 1 0 1 0 
1 0 0 -4 1 0 1 0 1 0 1 0 1 0 1 0 
1 0 1 0 1 0 0 -4 1 0 0 -3 1 0 1 0 
1 0 1 0 0 -4 1 0 0 -4 1 0 1 0 1 0 
1 0 1 0 1 0 1 0 1 0 0 -4 1 0 1 0 
1 0 1 0 1 0 1 0 1 0 1 0 1 0 1 0 
0 -3 1 0 1 0 1 0 0 -4 1 0 0 -4 1 0 
1 0 1 0 1 0 1 0 1 0 1 0 1 0 1 0 
1 0 1 0 1 0 4798 1368 100 MP stroke
1 0 1 0 1 0 0 -4 1 0 1 0 1 0 1 0 
0 -4 1 0 1 0 0 -3 1 0 1 0 1 0 1 0 
1 0 1 0 1 0 0 -4 1 0 1 0 1 0 1 0 
1 0 1 0 1 0 1 0 1 0 1 0 1 0 1 -4 
1 0 0 -4 1 0 0 -3 1 0 1 0 1 0 1 0 
1 0 1 0 1 0 1 0 1 0 1 0 1 0 1 0 
1 0 1 0 1 0 1 0 0 -4 1 0 0 -4 1 0 
1 0 1 0 1 0 1 0 1 0 0 -4 1 0 0 -3 
1 0 1 0 1 0 1 0 1 0 1 0 0 -4 1 0 
1 0 1 0 1 0 1 0 1 0 1 0 1 0 0 -4 
1 0 1 0 1 0 1 0 1 0 1 0 1 0 1 0 
1 0 1 0 1 0 1 0 1 0 0 -4 1 0 1 0 
0 -7 1 0 1 0 4713 1428 100 MP stroke
1 0 1 0 1 0 1 0 1 0 0 -4 1 0 1 0 
1 0 1 0 0 -4 1 0 1 0 1 0 1 0 1 0 
1 0 1 0 1 0 1 0 1 0 1 0 0 -3 1 0 
1 0 0 -4 1 0 1 0 0 -4 1 0 1 0 1 0 
1 0 1 0 1 0 1 0 1 0 1 0 1 0 1 0 
1 0 1 0 0 -4 1 0 1 0 1 0 0 -3 1 0 
1 0 1 0 1 0 1 0 1 0 0 -4 1 0 1 0 
1 0 1 0 1 0 1 0 1 0 1 0 1 0 1 0 
0 -4 1 0 1 0 1 0 1 0 1 0 0 -4 1 0 
1 0 1 0 0 -3 1 0 1 0 1 0 1 0 1 0 
1 0 1 0 1 0 0 -8 1 0 1 0 1 0 1 0 
1 0 1 0 0 -4 1 0 1 0 1 0 1 0 1 0 
1 0 1 0 1 0 4627 1481 100 MP stroke
1 0 0 -3 1 0 1 0 0 -4 1 0 1 0 1 0 
1 0 1 0 0 -4 1 0 1 0 1 0 0 -4 1 0 
1 0 1 0 1 0 1 0 1 0 1 0 0 -3 1 0 
1 0 1 0 1 0 1 0 1 0 1 0 1 0 1 0 
1 0 1 0 1 0 1 0 1 0 1 0 1 0 1 0 
1 0 0 -8 1 0 0 -4 1 0 1 0 1 0 1 0 
1 0 1 0 1 0 1 0 1 0 1 0 1 0 1 0 
1 0 1 0 1 0 1 -3 1 0 1 0 1 0 0 -4 
1 0 1 0 1 0 0 -4 1 0 1 0 1 0 0 -4 
1 0 1 0 1 0 0 -4 1 0 1 0 1 0 1 0 
1 0 1 0 1 0 1 0 1 0 1 0 1 0 0 -3 
1 0 1 0 1 0 1 0 1 0 1 0 0 -4 1 0 
1 0 1 0 1 0 4541 1537 100 MP stroke
0 -4 1 0 1 0 1 0 1 0 1 0 1 0 1 0 
1 0 1 0 1 0 0 -4 1 0 1 0 1 0 1 0 
1 0 1 0 1 0 1 0 1 0 1 -3 1 0 0 -4 
1 0 0 -4 1 0 1 0 1 0 1 0 1 0 1 0 
0 -4 1 0 1 0 1 0 1 0 1 0 1 0 1 0 
1 0 1 0 1 0 1 0 1 0 1 0 1 0 1 0 
0 -3 1 0 0 -4 1 0 1 0 1 0 1 0 1 0 
1 0 1 0 1 0 1 0 0 -4 1 0 1 0 0 -7 
1 0 1 0 0 -4 1 0 1 0 1 0 1 0 1 0 
1 0 1 0 1 0 1 0 1 0 1 0 1 0 1 0 
1 0 0 -4 1 0 1 0 1 0 1 0 1 0 1 0 
1 0 1 0 1 0 0 -4 1 0 0 -3 1 0 1 0 
1 0 0 -4 1 0 4456 1597 100 MP stroke
1 0 1 0 1 0 1 0 0 -4 1 0 1 0 1 0 
1 0 1 0 1 0 0 -4 1 0 1 0 1 0 1 0 
1 0 1 0 1 0 1 0 1 0 1 0 1 0 0 -3 
1 0 0 -4 1 0 1 0 1 0 1 0 1 0 1 0 
1 0 1 0 1 0 1 0 0 -4 1 0 1 0 1 0 
1 0 1 0 1 0 1 0 1 0 1 0 1 0 1 0 
0 -4 1 0 1 0 0 -3 1 0 1 0 1 0 1 0 
0 -4 1 0 1 0 1 0 1 0 1 0 1 0 1 0 
1 0 1 0 1 0 1 0 1 0 1 0 1 0 1 0 
1 0 0 -4 1 0 1 0 1 0 1 0 1 0 1 0 
0 -7 1 0 1 0 1 0 1 0 1 0 1 0 0 -4 
1 0 1 0 1 0 1 0 1 0 1 0 1 0 1 0 
1 0 1 0 1 0 4368 1642 100 MP stroke
1 0 1 0 1 0 1 0 1 0 1 0 0 -4 1 0 
1 0 0 -4 1 0 1 0 0 -3 1 0 1 0 1 0 
1 0 1 0 1 0 1 0 1 0 1 0 1 0 1 0 
1 0 1 0 1 0 1 0 1 0 1 0 0 -8 1 0 
1 0 1 0 1 0 1 0 0 -4 1 0 1 0 1 0 
0 -4 1 0 1 0 1 0 1 0 1 0 1 0 1 0 
1 0 1 0 1 0 1 0 1 0 1 0 1 0 1 0 
1 0 1 0 1 0 0 -3 1 0 1 0 1 0 1 0 
0 -4 1 0 1 -4 1 0 1 0 0 -4 1 0 1 0 
1 0 1 0 1 0 1 0 1 0 1 0 1 0 1 0 
1 0 0 -7 1 0 1 0 1 0 1 0 0 -4 1 0 
1 0 1 0 1 0 1 0 1 0 1 0 1 0 1 0 
1 0 1 0 1 0 4280 1695 100 MP stroke
0 -7 1 0 1 0 1 0 1 0 1 0 1 0 1 0 
1 0 1 0 0 -4 1 0 1 0 1 0 1 0 1 0 
1 0 1 0 0 -4 1 0 1 0 0 -4 1 0 1 0 
0 -3 1 0 1 0 1 0 1 0 1 0 1 0 1 0 
1 0 1 0 1 0 1 0 0 -4 1 0 1 0 0 -4 
1 0 1 0 1 0 1 0 0 -4 1 0 1 0 1 0 
1 0 1 0 1 0 1 0 1 0 1 0 1 0 1 0 
1 0 0 -3 1 0 0 -8 1 0 1 0 1 0 1 0 
1 0 1 0 0 -4 1 0 1 0 1 0 1 0 1 0 
1 0 1 0 1 0 1 0 1 0 1 -3 1 0 0 -4 
1 0 1 0 1 0 1 0 1 0 1 0 1 0 1 0 
1 0 0 -4 1 0 0 -4 1 0 1 0 1 0 1 0 
1 0 1 0 1 0 4195 1759 100 MP stroke
1 0 1 0 1 0 1 0 1 0 1 0 1 0 1 0 
1 0 1 0 0 -3 1 0 0 -4 1 0 1 0 1 0 
1 0 1 0 1 0 1 0 1 -4 1 0 1 0 1 0 
0 -4 1 0 0 -3 1 0 1 0 1 0 1 0 1 0 
1 0 1 0 1 0 1 0 1 0 0 -4 1 0 1 0 
1 0 0 -4 1 0 1 0 1 0 1 0 1 0 1 0 
1 0 1 0 0 -4 1 0 1 0 1 0 1 0 0 -3 
1 0 1 0 1 0 1 0 1 0 1 0 1 0 1 0 
1 0 1 0 0 -4 1 0 1 0 1 0 0 -4 1 0 
1 0 1 0 1 0 1 0 0 -7 1 0 1 0 1 0 
1 0 1 0 1 0 1 0 1 0 1 0 1 0 1 0 
1 0 1 0 1 0 1 0 1 0 0 -4 1 0 0 -8 
1 0 1 0 1 0 4109 1819 100 MP stroke
1 0 1 0 0 -4 1 0 1 0 1 0 1 0 1 0 
1 0 1 0 1 0 1 0 1 0 1 0 1 0 0 -3 
1 0 0 -4 1 0 1 0 1 0 0 -4 1 0 1 0 
1 0 1 0 1 0 1 0 1 0 1 0 1 0 1 0 
0 -4 1 0 1 0 0 -3 1 0 1 0 1 0 1 0 
1 0 1 0 0 -4 1 0 1 -4 1 0 1 0 1 0 
1 0 1 0 1 0 1 0 1 0 1 0 1 0 1 0 
0 -4 1 0 1 0 1 0 1 0 1 0 1 0 0 -3 
1 0 1 0 0 -4 1 0 1 0 1 0 1 0 0 -4 
1 0 1 0 0 -4 1 0 1 0 1 0 1 0 1 0 
1 0 1 0 1 0 1 0 1 0 1 0 1 0 0 -3 
1 0 1 0 1 0 1 0 1 0 0 -4 1 0 0 -8 
1 0 1 0 1 0 4025 1883 100 MP stroke
1 0 1 0 0 -3 1 0 1 0 1 0 1 0 1 0 
1 0 1 0 1 0 1 0 1 0 1 0 0 -4 1 0 
0 -4 1 0 1 0 1 0 0 -4 1 0 1 0 1 0 
1 0 1 0 1 0 1 0 1 0 1 0 1 0 1 0 
1 0 1 0 1 0 0 -3 1 0 0 -4 1 0 1 0 
1 0 1 0 1 0 0 -4 1 0 1 0 1 0 1 0 
1 0 0 -4 1 0 1 0 1 0 1 0 1 0 1 0 
0 -3 1 0 1 0 1 0 1 0 1 0 1 0 1 0 
0 -4 1 0 1 0 1 0 1 0 1 0 1 0 1 0 
0 -4 1 0 1 0 1 0 1 0 0 -4 1 0 1 0 
1 0 1 0 0 -3 1 0 1 0 1 0 1 0 1 0 
1 0 1 0 1 0 1 0 1 0 1 0 1 0 0 -4 
1 0 0 -4 1 0 3941 1939 100 MP stroke
1 0 1 0 1 0 1 0 0 -4 1 0 1 0 1 0 
1 0 1 0 1 0 1 0 0 -3 1 0 1 0 1 0 
1 0 1 0 1 0 0 -4 1 0 0 -4 1 0 1 0 
1 0 1 0 1 0 1 0 1 0 1 0 1 0 1 0 
0 -4 1 0 1 0 1 0 1 0 1 0 1 0 1 0 
1 0 1 0 1 0 1 0 1 0 1 0 0 -4 1 0 
1 0 1 0 1 0 1 0 0 -3 1 0 0 -4 1 0 
1 0 1 0 1 0 1 0 1 0 1 0 1 0 1 0 
0 -4 1 0 1 0 1 0 1 0 0 -4 1 0 1 0 
1 0 0 -3 1 0 1 0 1 0 0 -4 1 0 1 0 
1 0 1 0 1 0 1 0 0 -4 1 0 1 0 1 0 
1 0 1 0 1 0 1 0 1 0 1 0 1 0 1 0 
1 0 1 0 1 0 3855 1988 100 MP stroke
1 0 0 -4 1 0 1 0 1 0 0 -3 1 0 1 0 
1 0 0 -4 1 0 0 -4 1 0 1 0 1 0 1 0 
1 0 1 0 1 0 1 0 1 0 1 0 1 0 1 0 
1 0 1 0 1 0 0 -4 1 0 0 -3 1 0 1 0 
1 0 1 0 1 0 1 0 0 -4 1 0 1 0 1 0 
1 0 0 -4 1 0 1 0 1 0 0 -4 1 0 1 0 
1 0 1 0 1 0 1 0 1 0 1 0 1 0 1 0 
1 0 0 -3 1 0 0 -4 1 0 1 0 1 0 1 0 
1 0 1 0 1 0 1 0 1 0 1 0 1 0 0 -4 
1 0 1 0 0 -4 1 0 1 0 1 0 0 -3 1 0 
1 0 1 0 1 0 1 0 0 -4 1 0 1 0 1 0 
1 0 1 0 1 0 1 0 0 -4 1 0 1 0 1 0 
1 0 1 0 1 0 3772 2048 100 MP stroke
1 -4 1 0 0 -3 1 0 0 -4 1 0 1 0 1 0 
1 0 0 -4 1 0 1 0 1 0 1 0 1 0 1 0 
1 0 1 0 1 0 1 0 1 0 1 0 1 0 0 -4 
1 0 1 0 1 0 1 0 1 0 0 -3 1 0 1 0 
1 0 0 -4 1 0 1 0 1 0 0 -4 1 0 1 0 
1 0 1 0 0 -4 1 0 1 0 1 0 1 0 1 0 
1 0 1 0 1 0 1 0 0 -3 1 0 1 0 1 0 
0 -4 1 0 1 0 1 0 1 0 1 0 1 0 1 0 
1 0 1 0 1 0 1 0 1 0 1 0 1 0 0 -4 
1 0 0 -4 1 0 1 0 0 -3 1 0 1 0 1 0 
1 0 1 0 1 0 1 0 1 0 1 0 1 0 1 0 
0 -8 1 0 1 0 1 0 1 0 0 -4 1 0 1 0 
1 0 1 0 1 0 3688 2112 100 MP stroke
0 -7 1 0 1 0 1 0 1 0 1 0 1 0 1 0 
1 0 1 0 1 0 1 0 1 0 1 0 1 0 1 0 
1 0 1 0 1 0 1 0 1 0 1 0 0 -4 1 0 
1 0 0 -4 1 0 1 0 1 0 1 0 1 0 1 0 
1 0 0 -4 1 0 0 -3 1 0 1 0 1 0 1 0 
1 0 1 0 1 0 1 0 1 0 1 0 1 0 1 0 
0 -4 1 0 1 0 0 -4 1 0 1 0 1 0 1 0 
1 0 0 -4 1 0 1 0 1 0 1 0 1 0 1 0 
1 0 1 0 1 0 1 0 1 0 1 0 1 0 1 0 
0 -3 1 0 0 -12 1 0 1 0 1 0 1 0 1 0 
1 0 1 0 1 0 1 0 1 0 1 0 1 0 1 0 
0 -3 1 0 0 -8 1 0 1 0 0 -4 1 0 1 0 
1 0 1 0 1 0 3602 2176 100 MP stroke
1 0 1 0 1 0 0 -3 1 0 1 0 1 0 1 0 
1 0 1 0 1 0 1 0 1 0 1 0 1 0 0 -8 
1 0 1 0 1 0 0 -4 1 0 1 0 1 0 1 0 
1 0 1 0 0 -3 1 0 1 0 1 0 1 0 1 0 
1 0 0 -4 1 0 1 0 1 0 1 0 0 -4 1 0 
1 0 0 -4 1 0 1 0 1 0 0 -3 1 0 1 0 
1 0 1 0 1 0 0 -4 1 0 1 0 1 0 1 0 
1 0 0 -4 1 0 0 -4 1 0 1 0 1 0 1 0 
0 -3 1 0 0 -4 1 0 1 0 1 0 1 0 0 -4 
1 0 1 0 1 0 0 -4 1 0 1 0 1 0 1 0 
1 0 1 -3 1 0 1 0 1 0 0 -4 1 0 1 0 
1 0 1 0 1 0 1 0 1 0 0 -4 1 0 1 0 
1 0 1 0 1 0 3520 2247 100 MP stroke
1 0 1 0 1 0 1 0 1 0 1 0 1 0 1 0 
0 -4 1 0 1 0 1 0 0 -4 1 0 0 -3 1 0 
1 0 1 0 1 0 1 0 1 0 0 -4 1 0 1 0 
1 0 1 0 1 0 1 0 0 -4 1 0 0 -4 1 0 
1 0 1 0 1 0 1 0 1 0 1 0 1 0 1 0 
1 0 0 -3 1 0 1 0 1 0 0 -4 1 0 1 0 
1 0 1 0 0 -4 1 0 1 0 0 -4 1 0 1 0 
1 0 1 0 0 -3 1 0 1 0 1 0 0 -4 1 0 
1 0 1 0 1 0 1 0 0 -4 1 0 1 0 1 0 
0 -4 1 0 1 0 1 0 0 -3 1 0 1 0 1 0 
1 0 1 0 1 0 0 -4 1 0 1 0 1 0 1 0 
1 0 1 0 1 -4 1 0 1 0 1 0 1 0 1 0 
1 0 0 -7 1 0 3438 2318 100 MP stroke
1 0 0 -4 1 0 1 0 1 0 1 0 1 0 1 0 
1 0 1 0 1 0 1 0 0 -4 1 0 1 0 1 0 
1 0 1 0 1 0 1 0 0 -4 1 0 1 0 0 -7 
1 0 1 0 1 0 1 0 1 0 1 0 1 0 1 0 
1 0 1 0 1 0 0 -4 1 0 1 0 1 0 0 -4 
1 0 0 -3 1 0 1 0 1 0 1 0 1 0 0 -4 
1 0 1 0 1 0 1 0 1 0 1 0 1 0 0 -4 
1 0 1 0 0 -4 1 0 0 -3 1 0 1 0 1 0 
1 0 1 0 1 0 0 -4 1 0 1 0 1 0 1 0 
1 0 1 0 1 0 1 0 0 -4 1 0 1 0 1 0 
1 0 1 0 1 0 0 -4 1 0 1 -3 1 0 1 0 
1 0 0 -4 1 0 1 0 1 0 1 0 1 0 1 0 
0 -4 1 0 1 0 3355 2386 100 MP stroke
1 0 1 0 1 0 1 0 1 0 1 0 1 0 1 0 
1 0 0 -4 1 0 1 0 0 -4 1 0 1 0 0 -3 
1 0 1 0 1 0 1 0 1 -4 1 0 1 0 1 0 
1 0 1 0 0 -4 1 0 0 -4 1 0 1 0 0 -3 
1 0 1 0 1 0 1 0 1 0 1 0 1 0 0 -4 
1 0 1 0 1 0 1 0 1 0 0 -4 1 0 1 0 
1 0 0 -4 1 0 0 -3 1 0 1 0 1 0 1 0 
1 0 1 0 1 0 1 0 0 -4 1 0 1 0 1 0 
1 0 1 0 1 0 0 -4 1 0 1 0 1 0 1 0 
0 -4 1 0 1 0 1 0 1 0 1 0 1 0 1 0 
1 0 1 0 1 0 0 -3 1 0 1 0 1 0 1 0 
1 0 0 -4 1 0 1 0 1 0 1 0 0 -4 1 0 
1 0 1 0 1 0 3272 2450 100 MP stroke
1 0 1 0 1 0 1 0 1 0 0 -4 1 0 1 0 
1 0 1 0 1 0 1 0 1 0 0 -3 1 0 1 0 
0 -4 1 -4 1 0 1 0 1 0 1 0 1 0 1 0 
1 0 1 0 0 -4 1 0 1 0 1 0 1 0 1 0 
1 0 1 0 1 0 1 0 1 0 1 0 1 0 0 -3 
1 -4 1 0 1 0 0 -4 1 0 1 0 1 0 1 0 
0 -4 1 0 1 0 1 0 1 0 1 0 1 0 1 0 
1 0 1 0 1 0 1 0 1 0 1 0 1 0 1 0 
1 0 0 -3 1 0 0 -4 1 0 1 0 1 0 0 -4 
1 0 0 -4 1 0 1 0 1 0 1 0 1 0 1 0 
1 0 1 0 1 0 1 0 1 0 0 -7 1 0 1 0 
1 0 1 0 1 0 1 0 1 0 1 0 1 0 0 -4 
1 0 1 0 1 0 3186 2510 100 MP stroke
0 -4 1 0 0 -3 1 0 0 -4 1 0 1 0 1 0 
1 0 1 0 1 0 1 0 1 0 1 0 1 0 1 0 
1 0 0 -4 1 0 1 0 1 0 1 0 0 -4 1 0 
1 0 1 0 0 -3 1 0 0 -4 1 0 1 0 1 0 
1 0 0 -4 1 0 1 0 1 0 1 0 1 0 1 0 
1 0 1 0 1 0 0 -4 1 0 1 0 1 0 1 0 
0 -4 1 0 1 0 1 0 0 -3 1 0 1 0 1 0 
1 0 1 0 1 0 0 -4 1 0 1 0 1 0 0 -4 
1 0 1 0 1 0 1 0 1 0 0 -4 1 0 1 0 
0 -3 1 0 1 0 1 0 1 0 1 0 1 0 1 0 
1 0 0 -4 1 0 0 -4 1 0 1 0 1 0 1 0 
0 -4 1 0 1 0 1 0 1 0 1 0 1 0 0 -7 
1 0 1 0 1 0 3106 2585 100 MP stroke
1 0 1 0 1 0 0 -4 1 0 1 0 1 0 1 0 
0 -4 1 0 1 0 1 0 1 0 1 0 1 0 1 0 
1 0 1 0 1 0 1 0 1 -3 1 0 1 0 1 0 
1 0 1 0 1 0 0 -4 1 0 0 -8 1 0 1 0 
1 0 1 0 1 0 1 0 0 -3 1 0 1 0 1 0 
1 0 1 0 0 -4 1 0 1 0 1 0 1 0 1 0 
1 0 0 -4 1 0 1 0 0 -4 1 0 1 0 1 0 
0 -3 1 0 1 0 1 0 0 -4 1 0 1 0 1 0 
1 0 1 0 1 0 1 0 1 0 0 -4 1 0 1 0 
1 0 1 0 1 0 1 0 1 0 1 0 0 -4 1 0 
1 0 1 0 1 0 0 -3 1 0 1 0 0 -4 1 0 
1 0 1 0 1 0 1 0 1 0 1 0 1 0 1 0 
0 -4 1 0 1 0 3022 2649 100 MP stroke
1 0 1 0 1 0 1 0 0 -4 1 0 1 0 0 -3 
1 0 1 0 1 0 1 0 1 0 1 0 1 0 1 0 
1 0 1 0 1 0 0 -8 1 0 0 -4 1 0 1 0 
1 0 1 0 1 0 1 0 1 0 1 0 1 0 1 0 
0 -3 1 0 1 0 0 -4 1 0 1 0 1 0 1 0 
0 -4 1 0 1 0 1 0 1 0 1 0 1 0 1 0 
1 0 1 0 1 0 0 -8 1 0 1 0 1 0 1 0 
1 0 1 0 1 0 0 -3 1 0 1 0 1 0 1 0 
1 0 1 0 1 0 1 0 1 0 1 0 0 -4 1 0 
1 0 1 0 1 0 1 0 1 0 1 0 0 -4 1 0 
0 -4 1 0 1 0 1 0 0 -3 1 0 1 0 1 0 
1 0 1 0 1 0 1 0 1 0 1 0 1 0 1 0 
1 0 1 0 1 0 2936 2705 100 MP stroke
0 -4 1 0 1 0 1 0 1 0 1 0 0 -4 1 0 
1 0 1 0 0 -7 1 0 1 0 1 0 1 0 1 0 
1 0 1 0 1 0 1 0 1 0 0 -4 1 0 1 0 
1 0 1 0 0 -4 1 0 1 0 1 0 1 0 1 0 
1 0 1 0 1 0 0 -7 1 0 0 -4 1 0 1 0 
1 0 1 0 1 0 1 0 0 -4 1 0 1 0 1 0 
1 0 1 0 0 -4 1 0 1 0 1 0 1 0 1 0 
0 -3 1 0 0 -4 1 0 1 0 1 0 1 0 0 -4 
1 0 1 0 0 -4 1 0 1 0 1 0 1 0 1 0 
1 0 1 0 0 -3 1 0 1 0 1 0 1 0 1 0 
1 0 1 0 1 0 1 0 1 0 0 -4 1 0 1 0 
1 0 1 0 1 0 1 0 1 0 0 -4 1 0 0 -4 
1 0 1 0 1 0 2854 2777 100 MP stroke
1 0 1 0 1 0 1 0 0 -3 1 0 1 0 1 0 
1 0 1 0 1 0 0 -4 1 0 1 0 1 0 1 -4 
1 0 1 0 1 0 1 0 1 0 1 -4 1 0 1 0 
0 -3 1 0 1 0 1 0 1 0 1 0 1 0 1 0 
1 0 1 0 0 -4 1 0 1 0 1 0 1 0 0 -4 
1 0 1 0 0 -4 1 0 1 0 1 0 1 0 1 0 
1 0 1 0 1 0 1 0 1 0 0 -3 1 0 1 0 
0 -4 1 0 1 0 1 0 0 -4 1 0 0 -4 1 0 
1 0 1 0 1 0 1 0 0 -3 1 0 1 0 1 0 
1 0 1 0 1 0 1 0 1 0 0 -4 1 0 1 0 
1 0 1 0 0 -4 1 0 1 0 1 0 1 0 0 -4 
1 0 1 0 1 0 1 0 0 -4 1 0 0 -3 1 0 
1 0 1 0 1 0 2771 2844 100 MP stroke
1 0 1 0 0 -4 1 0 0 -4 1 0 1 0 1 0 
1 0 1 0 1 0 1 0 1 0 1 0 1 0 1 0 
0 -4 1 0 1 0 0 -3 1 0 1 0 1 0 1 0 
1 0 1 0 0 -4 1 0 1 0 0 -4 1 0 1 0 
1 0 1 0 1 0 1 0 1 0 1 0 1 0 1 0 
1 0 1 0 1 0 0 -4 1 0 0 -3 1 0 1 0 
1 0 0 -4 1 0 1 0 0 -4 1 0 1 0 1 0 
1 0 1 0 1 0 1 0 0 -4 1 0 1 0 0 -3 
1 0 1 0 1 0 1 0 1 0 1 0 0 -4 1 0 
1 0 1 0 1 0 1 0 1 0 0 -4 1 0 0 -4 
1 0 1 0 1 0 1 0 1 0 1 0 1 0 1 0 
1 0 1 0 1 0 1 0 0 -7 1 0 1 0 1 0 
1 0 1 0 1 0 2688 2908 100 MP stroke
1 0 1 0 0 -4 1 0 1 0 1 0 1 0 1 0 
0 -4 1 0 0 -3 1 0 0 -4 1 0 1 0 1 0 
1 0 1 0 1 0 1 0 1 0 1 0 1 0 1 0 
1 0 0 -8 1 0 1 0 0 -3 1 0 1 0 1 0 
1 0 1 0 0 -4 1 0 0 -4 1 0 1 0 1 0 
1 0 1 0 1 0 1 0 1 0 1 0 1 0 1 0 
1 0 1 0 1 0 1 0 0 -4 1 0 0 -3 1 0 
1 0 1 0 0 -4 1 0 1 0 0 -4 1 0 1 0 
1 0 1 0 1 0 1 0 1 0 1 0 0 -4 1 0 
1 0 1 0 0 -3 1 0 1 0 1 0 0 -4 1 0 
1 0 1 0 1 0 1 0 1 0 1 0 0 -4 1 0 
1 0 1 0 1 0 0 -4 1 0 1 0 1 0 1 0 
1 0 0 -4 1 0 2607 2980 100 MP stroke
1 0 1 0 1 0 0 -3 1 0 1 0 1 0 1 0 
1 0 0 -4 1 0 1 0 0 -4 1 0 1 0 1 0 
0 -4 1 0 1 0 1 0 1 0 1 0 1 0 1 0 
0 -3 1 0 1 0 1 0 1 0 1 0 1 0 1 0 
0 -4 1 0 1 0 1 0 1 0 1 0 1 0 1 0 
0 -4 1 0 1 0 1 0 1 0 1 0 0 -4 1 0 
0 -3 1 0 1 0 1 0 1 0 0 -4 1 0 1 0 
1 0 1 0 1 0 1 0 1 0 1 0 0 -4 1 0 
0 -4 1 0 1 0 1 0 1 0 1 0 1 0 1 0 
1 0 0 -3 1 0 0 -4 1 0 1 0 1 0 0 -4 
1 0 1 0 1 0 1 0 1 0 1 0 1 0 1 0 
1 0 0 -4 1 0 1 0 1 0 1 0 1 0 0 -3 
1 0 1 0 1 0 2525 3043 100 MP stroke
0 -4 1 0 1 0 1 0 1 0 1 0 1 0 1 0 
1 0 0 -4 1 0 1 0 1 0 1 0 1 0 0 -4 
1 0 1 0 1 0 1 0 1 0 1 0 1 0 1 0 
1 0 1 0 1 0 1 0 0 -7 1 0 1 0 1 0 
1 0 1 0 0 -4 1 0 1 0 1 0 1 0 1 0 
1 0 1 0 1 0 1 0 1 0 1 0 0 -4 1 0 
1 0 1 0 1 0 1 0 0 -3 1 0 0 -4 1 0 
1 0 0 -4 1 0 1 0 1 0 1 0 1 0 1 0 
1 0 1 0 1 0 1 0 1 0 1 0 1 0 0 -7 
1 0 1 0 0 -4 1 0 0 -4 1 0 1 0 1 0 
1 0 1 0 0 -4 1 0 1 0 1 0 1 0 1 0 
0 -3 1 0 1 0 1 0 1 0 1 0 1 0 0 -4 
1 0 1 0 1 0 2441 3107 100 MP stroke
1 0 0 -4 1 0 0 -4 1 0 1 0 1 0 1 0 
1 0 1 0 1 0 1 0 1 0 1 0 1 0 1 0 
0 -3 1 0 1 0 1 0 0 -4 1 0 1 0 1 0 
1 0 1 0 1 0 1 0 1 0 0 -4 1 0 0 -4 
1 0 1 0 1 0 0 -4 1 0 1 0 1 -3 1 0 
1 0 1 0 1 0 1 0 1 0 1 0 1 0 1 0 
1 0 1 0 1 0 0 -4 1 0 0 -8 1 0 1 0 
1 0 1 0 1 0 0 -3 1 0 0 -4 1 0 1 0 
1 0 1 0 1 0 1 0 1 0 1 0 1 0 1 0 
0 -4 1 -4 1 0 1 0 1 0 1 0 1 0 1 0 
1 0 0 -3 1 0 1 0 1 0 1 0 1 0 1 0 
1 -4 0 -4 1 0 0 -4 1 0 1 0 1 0 1 0 
1 0 1 0 1 0 2357 3179 100 MP stroke
1 0 0 -3 1 0 1 0 1 0 1 0 0 -4 1 0 
1 0 1 0 1 0 1 0 0 -4 1 0 1 0 1 0 
1 0 1 0 1 0 0 -7 1 0 1 0 1 0 1 0 
1 0 1 0 1 0 0 -4 1 0 1 0 1 0 1 0 
1 0 1 0 1 0 0 -4 1 0 1 0 1 0 1 0 
1 0 0 -4 1 0 1 0 1 0 1 0 1 0 1 0 
1 0 1 -3 0 -4 1 0 1 0 1 0 1 0 0 -4 
1 0 1 0 1 0 1 0 0 -4 1 0 1 0 1 0 
1 0 1 0 1 0 1 0 1 0 1 0 0 -3 1 0 
1 0 1 0 0 -4 1 0 0 -4 1 0 1 0 0 -4 
1 0 1 0 1 0 1 0 1 0 1 0 0 -3 1 0 
1 0 1 0 1 0 0 -4 1 0 1 0 1 0 1 0 
1 0 0 -4 1 0 2275 3250 100 MP stroke
1 0 1 0 1 0 1 0 1 0 1 0 1 0 1 0 
1 0 1 0 0 -4 1 -3 1 0 1 0 0 -4 1 0 
0 -4 1 0 1 0 1 0 1 0 1 0 1 0 1 0 
1 -1 1 0 1 0 1 0 1 0 1 0 1 0 1 0 
1 0 1 0 0 -4 1 0 0 -3 1 0 1 0 1 0 
1 0 0 -4 1 0 1 0 1 0 0 -4 1 0 1 0 
1 0 1 0 1 0 1 0 1 0 1 0 1 0 0 -7 
1 0 1 0 1 0 1 0 1 0 1 0 1 0 0 -4 
1 0 1 0 0 -12 1 0 1 0 1 0 1 0 1 0 
1 0 1 0 1 0 1 0 1 0 1 0 0 -3 1 0 
1 0 1 0 0 -8 1 0 1 0 1 0 1 0 1 0 
0 -4 1 0 1 0 1 0 1 0 1 0 1 0 0 -3 
1 0 1 0 0 -4 2191 3326 100 MP stroke
1 0 0 -4 1 0 1 0 1 0 1 0 1 0 1 0 
1 0 0 -4 1 0 1 0 1 0 0 -3 1 0 1 0 
1 0 1 0 1 0 1 0 1 0 1 0 1 0 0 -4 
1 0 1 0 1 0 0 -4 1 0 1 0 1 0 0 -4 
1 0 1 0 1 0 1 0 1 0 1 0 0 -3 1 0 
1 0 1 0 1 0 1 0 1 0 1 0 1 0 1 0 
1 0 1 0 1 0 1 0 1 0 1 0 1 0 0 -4 
1 0 1 0 0 -4 1 0 1 -4 1 0 1 0 1 -3 
1 0 1 0 1 0 1 0 1 0 1 0 1 0 1 0 
1 0 1 0 1 0 1 0 1 0 0 -4 1 0 1 0 
1 0 1 0 0 -4 1 0 1 0 1 0 0 -4 1 0 
1 0 0 -3 1 0 1 0 1 0 1 0 1 0 0 -4 
1 0 1 0 1 0 2106 3386 100 MP stroke
1 0 1 0 1 0 0 -4 1 0 1 0 1 0 1 0 
0 -4 1 0 1 0 1 0 1 0 1 0 0 -3 1 0 
1 0 1 0 1 0 1 0 1 0 1 0 1 0 1 0 
1 0 1 0 0 -4 1 0 1 0 1 0 0 -4 1 0 
1 0 0 -4 1 0 1 0 1 0 0 -3 1 0 1 0 
1 0 1 0 1 0 1 0 1 0 1 0 1 0 1 0 
1 0 1 0 1 0 1 0 1 0 0 -4 1 0 0 -4 
1 0 0 -4 1 0 1 0 1 0 1 0 0 -3 1 0 
1 0 0 -4 1 0 1 0 1 0 1 0 1 0 1 0 
1 0 1 0 1 0 1 0 1 0 0 -4 1 0 1 0 
1 0 0 -4 1 0 1 0 0 -3 1 0 1 0 1 0 
1 0 1 0 1 0 1 0 0 -4 1 0 1 0 1 0 
1 0 1 0 1 0 2023 3446 100 MP stroke
0 -4 1 0 1 0 0 -4 1 0 1 0 0 -4 1 0 
1 0 1 0 1 0 1 0 1 0 1 0 1 0 1 0 
1 0 1 0 1 0 1 0 1 0 1 0 1 0 0 -3 
1 0 0 -4 1 0 1 0 0 -8 1 0 1 0 1 0 
1 0 1 0 1 0 1 0 1 0 1 0 1 0 1 0 
1 0 1 0 1 0 0 -3 1 0 1 0 1 0 1 0 
1 0 1 0 0 -4 1 0 1 0 1 0 0 -4 1 0 
1 0 1 0 1 0 1 0 0 -4 1 0 0 -3 1 0 
1 0 1 0 1 0 1 0 1 0 1 0 0 -4 1 0 
1 0 0 -4 1 0 1 0 1 0 1 0 0 -4 1 0 
1 0 1 0 1 0 1 0 1 0 1 0 1 0 1 0 
1 0 1 0 0 -3 1 0 0 -4 1 0 0 -4 1 0 
1 0 1 0 1 0 1941 3514 100 MP stroke
1 0 1 0 1 0 1 0 1 0 1 0 1 0 1 0 
0 -4 1 0 1 0 1 0 1 0 1 0 0 -3 1 0 
1 0 1 0 0 -4 1 0 1 0 1 0 1 0 0 -4 
1 0 1 0 1 0 1 0 1 0 1 0 1 0 1 0 
1 0 1 0 0 -4 1 0 0 -3 1 0 0 -4 1 0 
1 0 1 0 1 0 1 0 1 0 1 0 1 -1 1 0 
1 -4 1 0 1 0 1 0 1 0 1 0 1 0 0 -4 
1 0 0 -3 1 0 0 -4 1 0 1 0 1 0 1 0 
1 0 1 0 1 0 1 0 1 0 1 0 0 -4 1 0 
1 0 1 0 1 0 1 0 0 -4 1 0 1 0 1 0 
0 -3 1 0 1 0 1 0 0 -4 1 0 1 0 1 0 
1 0 1 0 0 -4 1 0 1 0 0 -4 1 0 1 0 
1 0 1 0 1 0 1858 3579 100 MP stroke
1 0 0 -3 1 0 1 0 1 0 1 0 1 0 1 0 
0 -8 1 0 1 0 1 0 1 0 1 0 1 0 1 0 
1 0 0 -7 1 0 1 0 1 0 1 0 0 -4 1 0 
1 0 1 0 0 -4 1 0 0 -4 1 0 1 0 1 0 
1 0 1 0 1 0 1 0 0 -3 1 0 0 -4 1 0 
1 0 1 0 1 0 1 0 1 0 1 0 1 0 1 0 
0 -4 1 0 1 0 1 0 1 0 0 -4 1 0 1 0 
1 0 1 0 1 0 1 0 1 0 1 0 1 0 0 -3 
1 0 1 0 0 -8 1 0 0 -4 1 0 1 0 1 0 
1 0 1 0 0 -4 1 0 0 -3 1 0 1 0 1 0 
1 0 1 0 1 0 1 0 0 -4 1 0 1 0 1 0 
1 0 1 0 1 0 1 0 1 0 0 -8 1 0 1 0 
1 0 1 0 1 0 1776 3658 100 MP stroke
1 0 1 0 1 0 0 -7 1 0 1 0 1 0 1 0 
1 0 1 0 0 -4 1 0 1 0 1 0 0 -4 1 0 
0 -3 1 0 1 0 1 0 0 -4 1 0 1 0 1 0 
1 0 1 0 1 0 0 -4 1 0 0 -4 1 0 1 0 
0 -3 1 0 1 0 0 -4 1 0 1 0 1 0 1 0 
1 0 1 0 1 0 1 0 1 0 1 0 0 -4 1 0 
1 0 0 -7 1 0 1 0 1 0 1 0 1 0 0 -4 
1 0 1 0 1 0 1 0 1 0 1 0 1 0 1 0 
1 0 0 -8 1 0 1 0 1 0 0 -3 1 0 1 0 
1 0 1 0 1 0 1 0 0 -4 1 0 1 0 1 0 
1 0 1 0 0 -8 1 0 0 -3 1 0 1 0 1 0 
1 0 1 0 1 0 1 0 1 0 1 0 0 -4 1 0 
0 -8 1 0 1 0 1696 3748 100 MP stroke
0 -3 1 0 1 0 1 0 1 0 1 0 1 -4 1 0 
1 0 1 0 1 0 0 -4 1 0 1 0 0 -4 1 0 
1 -3 1 0 1 0 1 0 1 0 1 0 1 0 1 0 
0 -4 1 0 1 0 1 0 1 0 1 0 1 0 1 0 
1 0 0 -4 1 0 0 -8 1 0 1 0 1 0 0 -3 
1 0 1 0 1 0 1 0 0 -4 1 0 1 0 0 -4 
1 0 1 0 0 -4 1 0 1 0 1 0 1 0 1 0 
1 0 0 -3 1 0 1 0 1 0 0 -4 1 0 0 -4 
1 0 0 -4 1 0 1 0 1 0 1 0 1 0 1 0 
1 0 1 0 1 0 0 -7 1 0 1 0 1 0 1 0 
1 0 0 -4 1 0 1 0 1 0 0 -4 1 0 1 0 
1 0 0 -3 1 0 1 0 1 0 0 -4 1 0 1 0 
0 -8 1 0 0 -3 1618 3845 100 MP stroke
1 0 1 0 1 0 1 0 1 0 1 0 1 0 0 -4 
1 0 1 0 0 -4 1 0 1 0 1 0 1 0 1 0 
0 -4 1 -3 1 0 1 0 0 -4 1 0 1 0 1 0 
1 0 1 0 1 0 1 0 1 0 1 0 0 -4 1 0 
0 -4 1 0 1 0 1 0 0 -3 1 0 1 0 0 -4 
1 0 1 0 1 0 1 0 1 0 1 0 1 0 1 0 
1 0 1 0 1 0 1 0 1 0 0 -4 1 0 0 -4 
1 0 1 -3 0 -4 1 0 1 0 1 0 1 0 1 0 
1 0 1 0 1 0 1 0 0 -4 1 0 1 0 1 0 
1 0 1 0 0 -4 1 0 1 0 1 0 1 0 0 -3 
1 0 1 0 1 0 1 0 1 0 0 -4 1 0 0 -4 
1 0 1 0 1 0 1 -4 1 0 1 0 1 0 1 0 
1 0 0 -7 1 0 1536 3924 100 MP stroke
1 0 1 0 1 0 1 0 0 -4 1 0 1 0 1 0 
0 -4 1 0 1 0 1 0 1 0 1 0 1 0 1 0 
0 -4 1 0 1 0 1 0 1 0 1 0 1 0 0 -3 
1 0 1 0 1 0 1 0 1 0 0 -4 1 0 1 0 
0 -4 1 0 1 0 1 0 1 0 1 0 1 0 0 -4 
1 0 1 0 1 0 1 0 1 0 1 0 1 0 1 0 
1 0 1 0 0 -7 1 0 1 0 1 0 1 0 1 0 
0 -4 1 0 1 0 0 -4 1 0 1 0 1 0 0 -3 
1 0 1 0 1 -4 1 0 1 0 1 0 1 0 1 0 
1 0 1 0 1 0 1 0 0 -4 1 0 1 0 1 0 
1 0 1 0 1 0 0 -4 1 0 1 -3 0 -4 1 0 
1 0 1 0 1 0 1 0 1 0 1 0 1 -4 1 0 
1 0 1 0 1 0 1451 3992 100 MP stroke
1 0 0 -4 1 0 0 -7 1 0 1 0 1 0 1 0 
1 0 1 0 1 0 1 0 1 0 0 -4 1 0 0 -4 
1 0 1 0 1 0 1 0 0 -7 1 0 1 0 1 0 
1 0 1 0 0 -4 1 0 1 0 1 0 1 0 1 -4 
1 0 0 -3 1 0 0 -4 1 0 1 0 0 -4 1 0 
1 0 1 -4 1 0 1 0 1 0 1 0 1 0 1 0 
1 0 0 -3 1 0 1 0 0 -4 1 0 1 0 1 0 
0 -4 1 0 0 -4 1 0 0 -3 1 0 1 0 0 -4 
1 0 1 0 1 0 1 0 1 0 1 0 0 -4 1 0 
1 0 1 0 1 0 0 -4 1 0 0 -4 1 0 1 0 
1 0 1 0 1 0 1 0 0 -3 1 0 1 0 1 0 
0 -4 1 0 0 -8 1 0 1 0 1 0 1 0 1 0 
1 0 1 0 1 0 1373 4090 100 MP stroke
1 0 0 -3 1 0 1 0 1 0 0 -4 1 0 1 0 
1 0 1 0 1 0 1 0 0 -4 1 0 0 -4 1 0 
0 -3 1 0 1 0 1 0 1 0 1 0 1 0 1 0 
0 -4 1 0 1 0 1 0 0 -4 1 0 1 0 0 -4 
1 0 1 0 1 0 1 0 1 0 1 0 1 0 0 -3 
1 0 0 -8 1 0 0 -4 1 0 1 0 1 0 1 0 
1 0 0 -3 1 0 1 0 0 -4 1 0 0 -4 1 0 
1 0 1 0 1 0 1 0 0 -4 1 0 1 0 1 0 
1 0 0 -3 1 0 1 0 1 0 1 0 1 0 1 0 
1 0 1 0 0 -4 1 0 1 0 1 0 1 -4 0 -4 
1 0 1 0 1 0 1 0 1 0 1 0 0 -3 1 0 
0 -4 1 0 1 0 1 0 1 0 1 0 1 -4 1 0 
1 0 0 -7 1 0 1295 4183 100 MP stroke
1 0 1 0 1 0 1 0 1 0 1 0 1 0 1 0 
1 0 0 -4 1 0 0 -4 1 0 0 -4 1 0 1 0 
1 0 1 0 0 -3 1 0 1 0 1 0 1 0 1 0 
1 0 0 -8 1 0 1 0 1 0 1 0 1 0 1 0 
1 0 1 0 1 0 0 -4 1 0 0 -3 1 0 1 0 
0 -4 1 0 1 0 1 0 1 0 1 0 1 0 0 -4 
1 0 1 0 1 0 1 0 0 -4 1 0 1 0 1 0 
0 -4 1 0 0 -3 1 0 1 0 0 -4 1 0 1 0 
1 0 0 -4 1 0 0 -4 1 0 1 0 1 0 1 0 
1 0 1 0 1 -3 1 0 1 0 1 0 1 0 0 -4 
1 0 1 0 0 -4 1 0 1 0 0 -4 1 0 1 0 
1 0 1 0 1 0 1 0 1 0 1 0 1 -3 1 0 
1 0 0 -4 1 0 1215 4266 100 MP stroke
0 -4 1 0 1 0 1 0 1 0 0 -4 1 0 1 0 
1 0 1 0 1 0 1 0 1 -3 0 -4 1 0 1 0 
1 0 1 0 1 0 0 -4 1 0 1 0 0 -4 1 0 
1 0 0 -3 1 0 1 0 0 -8 1 0 1 0 1 0 
1 0 1 0 0 -4 1 0 1 0 1 0 0 -3 1 0 
1 0 1 0 1 0 1 0 1 0 0 -4 1 0 1 0 
1 0 0 -4 1 0 1 0 1 0 0 -4 1 0 1 0 
1 0 0 -3 1 0 1 0 1 0 0 -4 1 0 1 0 
1 0 1 0 1 0 1 0 1 0 0 -4 1 0 0 -4 
1 0 1 0 1 0 0 -3 1 0 0 -4 1 0 1 0 
1 0 0 -4 1 0 1 0 1 0 1 0 0 -4 1 0 
1 0 1 0 0 -7 1 0 1 0 1 0 1 0 0 -8 
1 0 1 0 1 0 1138 4364 100 MP stroke
1 0 1 0 1 0 0 -4 1 0 1 0 1 0 0 -7 
1 0 1 0 1 0 1 0 1 0 1 0 1 0 0 -4 
1 0 1 0 1 0 1 0 0 -7 1 0 1 -4 1 0 
1 0 1 0 1 0 1 0 1 0 0 -4 1 0 1 0 
0 -4 1 0 0 -3 1 0 1 0 1 0 0 -4 1 0 
1 0 1 0 1 0 1 -1 0 -4 1 0 0 -4 1 0 
1 0 1 0 1 0 0 -3 1 0 1 0 0 -4 1 0 
1 0 1 0 0 -4 1 0 1 0 0 -4 1 0 0 -3 
1 0 1 0 1 0 1 0 1 0 1 0 1 0 1 0 
1 0 1 0 0 -4 1 0 1 0 0 -4 1 0 1 0 
1 0 1 0 1 0 1 0 1 0 0 -4 1 0 1 0 
0 -3 1 0 1 0 1 0 1 0 1 0 1 0 0 -4 
1 0 0 -4 1 0 1060 4455 100 MP stroke
0 -4 1 0 1 0 1 0 1 0 0 -3 1 0 1 0 
1 0 0 -4 1 0 1 0 1 0 1 0 1 0 1 0 
0 -4 1 0 0 -4 1 0 1 0 1 0 1 0 1 0 
1 0 0 -3 1 0 1 0 0 -4 1 0 1 0 1 0 
0 -4 1 0 1 0 1 0 1 0 1 0 1 0 0 -4 
1 0 1 0 1 0 1 0 0 -3 1 0 1 0 1 0 
1 0 1 0 1 0 0 -4 1 0 1 0 0 -4 1 0 
0 -2 1 0 1 0 0 -4 1 0 1 0 1 0 1 0 
1 0 1 0 1 0 1 0 1 0 1 0 1 0 1 0 
1 0 0 -3 1 0 1 0 0 -4 1 0 0 -4 1 0 
1 0 1 0 1 0 1 0 0 -4 1 0 1 0 1 0 
0 -3 1 0 1 0 1 0 1 0 0 -4 1 0 1 0 
1 0 0 -2 1 0 982 4530 100 MP stroke
1 0 1 0 1 0 1 0 1 0 0 -4 1 0 1 0 
0 -2 1 0 0 -3 1 0 1 0 0 -4 1 0 1 0 
1 0 1 0 1 0 1 0 0 -4 1 0 1 0 1 0 
0 -4 1 0 0 -3 1 0 1 0 1 0 1 0 1 0 
1 0 0 -4 1 0 1 0 0 -4 1 0 1 0 0 -4 
1 0 1 0 1 0 0 -3 1 0 0 -4 1 0 1 0 
1 -4 0 -7 1 0 1 0 1 0 0 -2 1 0 1 0 
1 0 1 0 0 -4 1 0 1 0 1 0 1 0 1 0 
0 -4 1 0 1 0 1 0 1 0 1 0 1 0 1 0 
0 -4 1 0 1 0 1 0 0 -3 1 0 1 0 0 -4 
1 0 1 0 1 0 1 -4 1 0 1 0 1 0 1 0 
1 0 1 0 1 0 1 0 1 0 1 0 1 0 1 0 
1 0 1 0 1 0 902 4609 100 MP stroke
0 -1 0 1 1 -5 1 0 1 -1 899 4615 6 MP stroke
gr

c10
0 sg
%%IncludeResource: font Helvetica
/Helvetica /ISOLatin1Encoding 192 FMSR

2287  278 mt 
( Variation of Perception Scope) s
%%IncludeResource: font Helvetica
/Helvetica /ISOLatin1Encoding 120 FMSR

3423 4903 mt 
(Steps) s
 516 3300 mt  -90 rotate
(Number of Samples Collected) s
90 rotate
 882 4658 mt 
( ) s
6239  431 mt 
( ) s
1 sg
0 480 722 0 0 -480 5473 929 4 MP
PP
-722 0 0 480 722 0 0 -480 5473 929 5 MP stroke
4 w
DO
SO
6 w
0 sg
5473  929 mt 6195  929 L
5473  449 mt 6195  449 L
5473  929 mt 5473  449 L
6195  929 mt 6195  449 L
5473  929 mt 6195  929 L
5473  929 mt 5473  449 L
5473  929 mt 6195  929 L
5473  449 mt 6195  449 L
5473  929 mt 5473  449 L
6195  929 mt 6195  449 L
5934  583 mt 
(P=2) s
gs 5473 449 723 481 MR c np
c8
354 0 5543 541 2 MP stroke
gr

c8
0 sg
5934  732 mt 
(P=4) s
gs 5473 449 723 481 MR c np
c9
354 0 5543 689 2 MP stroke
gr

c9
0 sg
5934  880 mt 
(P=6) s
gs 5473 449 723 481 MR c np
c10
354 0 5543 836 2 MP stroke
gr

c10

end %%Color Dict

eplot
%%EndObject

epage
end

showpage

%%Trailer
%%EOF
